[
  {
    "filename": "ballyhoo.adv",
    "size": 21376,
    "description": "Solution to Infocom's Ballyhoo"
  },
  {
    "filename": "berlynco.adv",
    "size": 37014,
    "description": "Compuserve interview of Michael Berlyn (Creator of several Infocom adventures)"
  },
  {
    "filename": "bey_zlor.txt",
    "size": 8653,
    "description": "Beyond Zork: The Lore and Legends of Quendor by Z-Man"
  },
  {
    "filename": "beyondzo.txt",
    "size": 9092,
    "description": "Tips for Beyond Zork by Erik Futtrup and Twan Lintermans"
  },
  {
    "filename": "beyzorhn",
    "size": 18272,
    "description": "Walkthrough and Spoler for Beyond Zork by Infocom, by Big MAC"
  },
  {
    "filename": "bulzorkr.txt",
    "size": 11694,
    "description": "Zorker's Corner: An Overview of Infocom Adventures"
  },
  {
    "filename": "bureaucr.adv",
    "size": 15918,
    "description": "Solution to Infocom's Bureaucracy, by Douglas Adams"
  },
  {
    "filename": "cutthroa.adv",
    "size": 5655,
    "description": "Solution to Infocom's Cutthroats"
  },
  {
    "filename": "enchant.adv",
    "size": 2382,
    "description": "Solution to part one of Enchanter"
  },
  {
    "filename": "evertry.txt",
    "size": 2362,
    "description": "Zork I-III Tips and Tricks"
  },
  {
    "filename": "evertry2.txt",
    "size": 948,
    "description": "For Your Amusement: Deadline Tips and Tricks"
  },
  {
    "filename": "evertry3.txt",
    "size": 1034,
    "description": "For Your Amusement: Infidel Tips and Tricks"
  },
  {
    "filename": "evertry4.txt",
    "size": 827,
    "description": "Have You Tried... (Suspended Funnies)"
  },
  {
    "filename": "evertry5.txt",
    "size": 1017,
    "description": "Have You Ever Tried.... (Starcross Funnies)"
  },
  {
    "filename": "evertry6.txt",
    "size": 2024,
    "description": "Have You Tried... (Witness Funnies) by the Wyvern"
  },
  {
    "filename": "funnies.txt",
    "size": 3176,
    "description": "Fun Stuff with Infocom Adventures, by the Wyvern"
  },
  {
    "filename": "hitch-h.txt",
    "size": 31991,
    "description": "Walkthrough for Infocom's Hitchhiker's Guide to the Galaxy"
  },
  {
    "filename": "hitchgui.txt",
    "size": 33662,
    "description": "Walkthrough of Hitchhiker's Guide to the Galaxy from Infocom, by Barbara Baser (1985) (Laden with \"Compuservisms\")"
  },
  {
    "filename": "infidel.adv",
    "size": 4676,
    "description": "Solution to Infocom's Infidel"
  },
  {
    "filename": "infobugs.adv",
    "size": 3930,
    "description": "Infocom Text Adventure Bugs"
  },
  {
    "filename": "infocom.adv",
    "size": 1536,
    "description": "How to crack Apple II Infocom adventures using a \"ROM Switch\"."
  },
  {
    "filename": "infocom.txt",
    "size": 6784,
    "description": "A List of Infocom Bugs"
  },
  {
    "filename": "leather.adv",
    "size": 26439,
    "description": "Solution to Infocom's Leather Goddesses of Phobos"
  },
  {
    "filename": "planet.adv",
    "size": 7923,
    "description": "Solution to Planetfall, by Infocom"
  },
  {
    "filename": "rtzsolve.txt",
    "size": 25688,
    "description": "Return To Zork: Almost-Full-Point Solution"
  },
  {
    "filename": "starcros.txt",
    "size": 11213,
    "description": "Walkthrough for Starcross"
  },
  {
    "filename": "statinfo.txt",
    "size": 1387,
    "description": "General Infocom Statistics by The Gunslinger"
  },
  {
    "filename": "stationf.adv",
    "size": 22497,
    "description": "Solution to Infocom's Stationfall"
  },
  {
    "filename": "wishbrin.adv",
    "size": 5873,
    "description": "Solution to Infocom's Wishbringer"
  },
  {
    "filename": "wishmap.adv",
    "size": 2486,
    "description": "Pretty amazing ASCII Wishbringer map"
  },
  {
    "filename": "zork.i.a.txt",
    "size": 4933,
    "description": "How to Solve Zork I: The Great Underground Empire, by Screwy Luey"
  },
  {
    "filename": "zork.i.b.txt",
    "size": 2606,
    "description": "Solutions to Zork 1 by Infocom"
  },
  {
    "filename": "zork.i.c.txt",
    "size": 14291,
    "description": "Solution to Zork I by Infocom"
  },
  {
    "filename": "zork.ii.a.txt",
    "size": 2340,
    "description": "Solution to Zork II by Infocom"
  },
  {
    "filename": "zork.ii.b.txt",
    "size": 3915,
    "description": "Solution to Zork II by Infocom"
  },
  {
    "filename": "zork.ii.c.txt",
    "size": 11856,
    "description": "Solution to Zork II by Infocom"
  },
  {
    "filename": "zork.iii.a.txt",
    "size": 1826,
    "description": "Solution to Zork III by Infocom"
  },
  {
    "filename": "zork.iii.b.txt",
    "size": 3421,
    "description": "Solution to Zork III by Infocom"
  },
  {
    "filename": "zork.iii.c.txt",
    "size": 11352,
    "description": "Solution to Zork III by InfoCom"
  },
  {
    "filename": "zork0.txt",
    "size": 24524,
    "description": "Walkthrough for Zork Zero by Activision"
  },
  {
    "filename": "zork1.sol",
    "size": 19571,
    "description": "Collection of Solutions to Zork I, by Infocom"
  },
  {
    "filename": "zork1.txt",
    "size": 15395,
    "description": "A Walkthrough for Zork I by Barbara Baser (1984)"
  },
  {
    "filename": "zork1doc.txt",
    "size": 12402,
    "description": "\"The Great Underground Empire: A History\" by Froboz Mumbar"
  },
  {
    "filename": "zork1through3.txt",
    "size": 20511,
    "description": "Walkthrough for Zork I through III"
  },
  {
    "filename": "zork2.sol",
    "size": 5172,
    "description": "Solution to Zork II, by The Doctor"
  },
  {
    "filename": "zork2.txt",
    "size": 19527,
    "description": "A Walkthrough for Zork II by barbara Baser (1984)"
  },
  {
    "filename": "zork2doc.txt",
    "size": 15515,
    "description": "Zork II Documentation"
  },
  {
    "filename": "zork3.sol",
    "size": 19645,
    "description": "Collection of Solutions to Zork III, by Infocom"
  },
  {
    "filename": "zork3.txt",
    "size": 14869,
    "description": "A Walkthrough for Zork III by Barbara Baser (1985)"
  },
  {
    "filename": "zork3doc.txt",
    "size": 11533,
    "description": "Zork III Documentation"
  },
  {
    "filename": "zorki.txt",
    "size": 23670,
    "description": "A Walkthrough for Zork I"
  },
  {
    "filename": "zorkii.txt",
    "size": 23048,
    "description": "A Walkthrough for Zork II"
  },
  {
    "filename": "zorkiii.txt",
    "size": 25244,
    "description": "A Walkthrough for Zork III"
  },
  {
    "filename": "zorkse.adv",
    "size": 37360,
    "description": "Solutions to all of the Zork Series (I, II, III)"
  },
  {
    "filename": "zorkuu.txt",
    "size": 8908,
    "description": "Invisiclues for Zork: The Undiscovered Adventure"
  }
]
