[
  {
    "filename": "airline.txt",
    "size": 3957,
    "description": "Let the Airline Pick Up the Tab"
  },
  {
    "filename": "atifraud.txt",
    "size": 5395,
    "description": "Automatic Teller Fraud, a How To"
  },
  {
    "filename": "atm-92.txt",
    "size": 20167,
    "description": "ATMS: The Real File for ATM Theft in 1992 by The Raven"
  },
  {
    "filename": "atm-more.txt",
    "size": 19581,
    "description": "A Whole Collection of the Risks of ATM Cards (1988)"
  },
  {
    "filename": "atm.txt",
    "size": 8593,
    "description": "ATM Fraud Made Easy by Count Zero"
  },
  {
    "filename": "atms.txt",
    "size": 21141,
    "description": "Track Layouts on ATM Cards"
  },
  {
    "filename": "ccfraud.txt",
    "size": 13435,
    "description": "Credit Card Fraud by Phreaker (January 5, 1991)"
  },
  {
    "filename": "change.ana",
    "size": 2213,
    "description": "Coin Changer Fraud, by The Electronic Rebel"
  },
  {
    "filename": "china02.txt",
    "size": 23256,
    "description": "ATM Fraud Made Easy, by Count Zero"
  },
  {
    "filename": "disapear.txt",
    "size": 2455,
    "description": "How to Get Lost"
  },
  {
    "filename": "disapp.txt",
    "size": 33415,
    "description": "100 Ways to Disappear and Live Free by Eden Press (1972/Revised 1985)"
  },
  {
    "filename": "dollar",
    "size": 3277,
    "description": "Ripping Off Coin Changers With Some Tape"
  },
  {
    "filename": "fak_id10.txt",
    "size": 12643,
    "description": "Fake ID's: Using Your Computer #1.0 by The Pressman"
  },
  {
    "filename": "fakeid.ana",
    "size": 2252,
    "description": "Getting a Fake Driver's License, by The Sultan"
  },
  {
    "filename": "fakeid.txt",
    "size": 2838,
    "description": "How to Change Your ID So You're Over 21"
  },
  {
    "filename": "fakeids.ana",
    "size": 2157,
    "description": "Fake Picture IDs Made Easy"
  },
  {
    "filename": "freestuf",
    "size": 4560,
    "description": "How to Get Stuff for Free by Anonymous"
  },
  {
    "filename": "hbopirat.ana",
    "size": 2572,
    "description": "How to Phreak HBO, SHO, SHOWCHANNEL, by The Robin Hood"
  },
  {
    "filename": "idmail.txt",
    "size": 5268,
    "description": "I.D. By Mail, by Jed Stryker"
  },
  {
    "filename": "info3",
    "size": 6471,
    "description": "Mail Secrets"
  },
  {
    "filename": "jammin.ana",
    "size": 4250,
    "description": "How to Use a Radar Jammer, by Cheap Shades"
  },
  {
    "filename": "jamradar.txt",
    "size": 3089,
    "description": "Jam Police Radar! The Fast, Easy & Cheap Way! by Someone and Leviathan"
  },
  {
    "filename": "ka.ana",
    "size": 2683,
    "description": "Why KA Band Radar Units are So Hard to Pick Up"
  },
  {
    "filename": "letters.ana",
    "size": 2643,
    "description": "How To Read Unopened Mail, by Chris Jones"
  },
  {
    "filename": "license.txt",
    "size": 4811,
    "description": "Modifying Your Driver's License by The Spoof"
  },
  {
    "filename": "liquor.txt",
    "size": 8546,
    "description": "How to Buy Liquor, by Cellular Phreak (November 10-19, 1987)"
  },
  {
    "filename": "lostatm.txt",
    "size": 3275,
    "description": "What To Do With a Lost ATM Card (Besides of Course Return It To The Person)"
  },
  {
    "filename": "lostatmdoc.ana",
    "size": 2990,
    "description": "Pulling a Scam off of a Found ATM Card"
  },
  {
    "filename": "magcard.txt",
    "size": 79468,
    "description": "A Very Large Amount of Information about Magentic Cards"
  },
  {
    "filename": "magcard3.txt",
    "size": 48700,
    "description": "Card-O-Rama: Magnetic Stripe Technolgy and Beyond by Count Zero"
  },
  {
    "filename": "make21.txt",
    "size": 3518,
    "description": "False Identification by Forest Ranger"
  },
  {
    "filename": "mr.txt",
    "size": 15248,
    "description": "The Modern Speeder's Guide to Radar and State Troopers, by Exilic Xyth"
  },
  {
    "filename": "obtain.hac",
    "size": 940,
    "description": "Change Machine Fraud"
  },
  {
    "filename": "paytvdec.hac",
    "size": 2060,
    "description": "Pay TV Decoder Plans, v1.0"
  },
  {
    "filename": "policera.ana",
    "size": 9569,
    "description": "Police Radar and You! By The Scarlet Armadillo"
  },
  {
    "filename": "readmail.txt",
    "size": 3740,
    "description": "Reading Unopened Mail: Better Living Through Chemistry"
  },
  {
    "filename": "robbing1.ana",
    "size": 10067,
    "description": "Robbing Houses, by The Video Vindicator"
  },
  {
    "filename": "robbing2.ana",
    "size": 7721,
    "description": "Robbing Houses II, by The Video Vindicator"
  },
  {
    "filename": "robbing3.ana",
    "size": 15869,
    "description": "Robbing Houses III, by The Video Vindicator"
  },
  {
    "filename": "safestea.ana",
    "size": 7095,
    "description": "Stealing made easy, by The Fireman"
  },
  {
    "filename": "safestea.txt",
    "size": 8141,
    "description": "Stealing Made Easy, by the Fireman"
  },
  {
    "filename": "san-atm1.txt",
    "size": 6909,
    "description": "Getting into ATM Lobbies, by Havok Halcyon, of the City of Sactuary"
  },
  {
    "filename": "san-soda.txt",
    "size": 1672,
    "description": "How to Rip Off a Soda Machine, by The Guardian of SANctuary"
  },
  {
    "filename": "soda.txt",
    "size": 1635,
    "description": "How to Rip off a Soda Machine"
  },
  {
    "filename": "sodamach.txt",
    "size": 1152,
    "description": "How to Rip off the Coke Machines by the Mystery Zone"
  },
  {
    "filename": "vmbhack.txt",
    "size": 4662,
    "description": "Hacking Voice Mail Boxes by TiK TaK of MAIM"
  }
]
