[
  {
    "filename": "cmd.brun.bload.txt",
    "size": 70479,
    "description": "DOS 3.3 Anatomy: BRUN Command Handler"
  },
  {
    "filename": "cmd.interpr.s.txt",
    "size": 24856,
    "description": "DOS 3.3 Anatomy: Command Interpreter State Handler"
  },
  {
    "filename": "cmdappnd.txt",
    "size": 65413,
    "description": "DOS 3.3 Anatomy: APPEND Command Handler"
  },
  {
    "filename": "cmdbsave.txt",
    "size": 77417,
    "description": "DOS 3.3 Anatomy: BSAVE Command Handler"
  },
  {
    "filename": "cmdcatlg.txt",
    "size": 37205,
    "description": "DOS 3.3 Anatomy: CATALOG Command Handler"
  },
  {
    "filename": "cmdchain.txt",
    "size": 61122,
    "description": "DOS 3.3 Anatomy: CHAIN Command Handler"
  },
  {
    "filename": "cmdclose.txt",
    "size": 35927,
    "description": "DOS 3.3 Anatomy: CLOSE Command Handler"
  },
  {
    "filename": "cmdelete.txt",
    "size": 23616,
    "description": "DOS 3.3 Anatomy: DELETE Command Handler"
  },
  {
    "filename": "cmdexec.2.txt",
    "size": 103652,
    "description": "DOS 3.3 Anatomy: Command Executor"
  },
  {
    "filename": "cmdexec.txt",
    "size": 39321,
    "description": "DOS 3.3 Anatomy: EXEC Command Handler"
  },
  {
    "filename": "cmdfp.txt",
    "size": 68489,
    "description": "DOS 3.3 Anatomy: FP Command Handler"
  },
  {
    "filename": "cmdint.txt",
    "size": 10188,
    "description": "DOS 3.3 Anatomy: INT Command Handler"
  },
  {
    "filename": "cmdmxfil.txt",
    "size": 55938,
    "description": "DOS 3.3 Anatomy: MAXFILES Command Handler"
  },
  {
    "filename": "cmdopen.txt",
    "size": 45587,
    "description": "DOS 3.3 Anatomy: OPEN Command Handler"
  },
  {
    "filename": "cmdposn.txt",
    "size": 42717,
    "description": "DOS 3.3 Anatomy: POSITION Command Handler"
  },
  {
    "filename": "cmdread.2.txt",
    "size": 83503,
    "description": "DOS 3.3 Anatomy: READ Command Handler"
  },
  {
    "filename": "cmdread.txt",
    "size": 62770,
    "description": "DOS 3.3 Anatomy: READ Command Handler"
  },
  {
    "filename": "cmdrenam.txt",
    "size": 35623,
    "description": "DOS 3.3 Anatomy: RENAME Command Handler"
  },
  {
    "filename": "cmds.load.run.txt",
    "size": 98551,
    "description": "DOS 3.3 Anatomy: RUN Command Handler"
  },
  {
    "filename": "cmdwrite.txt",
    "size": 79212,
    "description": "DOS 3.3 Anatomy: WRITE Command Handler"
  },
  {
    "filename": "dissassembly.er.txt",
    "size": 64382,
    "description": "DOS 3.3 Anatomy: Disassembly of Errors"
  },
  {
    "filename": "doscoldstart.txt",
    "size": 112297,
    "description": "DOS 3.3 Anatomy: DOS's Coldstart Routine"
  },
  {
    "filename": "doswarmstart.txt",
    "size": 99075,
    "description": "DOS 3.3 Anatomy: DOS's Warmstart Routine"
  },
  {
    "filename": "file.manager.s.txt",
    "size": 30462,
    "description": "DOS 3.3 Anatomy: File Manager from the DOS Source (1982)"
  },
  {
    "filename": "fn.lock.unlock.txt",
    "size": 45141,
    "description": "DOS 3.3 Anatomy: LOCK and UNLOCK Function Handlers"
  },
  {
    "filename": "fncatlog.txt",
    "size": 25093,
    "description": "DOS 3.3 Anatomy: CATALOG Function Handler"
  },
  {
    "filename": "fnclose.txt",
    "size": 29679,
    "description": "DOS 3.3 Anatomy: CLOSE Function Handler"
  },
  {
    "filename": "fndelete.txt",
    "size": 66021,
    "description": "DOS 3.3 Anatomy: DELETE Function Handler"
  },
  {
    "filename": "fninit.txt",
    "size": 24242,
    "description": "DOS 3.3 Anatomy: INIT Function Handler"
  },
  {
    "filename": "fnopen.txt",
    "size": 72819,
    "description": "DOS 3.3 Anatomy: OPEN Function Handler"
  },
  {
    "filename": "fnposn.txt",
    "size": 9336,
    "description": "DOS 3.3 Anatomy: Position Function Handler"
  },
  {
    "filename": "fnrename.txt",
    "size": 45761,
    "description": "DOS 3.3 Anatomy: RENAME Function Handler"
  },
  {
    "filename": "fnverify.txt",
    "size": 73736,
    "description": "DOS 3.3 Anatomy: VERIFY Function Handler"
  },
  {
    "filename": "psnrdone.txt",
    "size": 87724,
    "description": "DOS 3.3 Anatomy: Read Function Handler"
  },
  {
    "filename": "psnrdrng.txt",
    "size": 89742,
    "description": "DOS 3.3 Anatomy: Read Function Handler"
  },
  {
    "filename": "psnwrone.txt",
    "size": 96711,
    "description": "DOS 3.3 Anatomy: Write Function Handler"
  },
  {
    "filename": "psnwrrng.txt",
    "size": 98564,
    "description": "DOS 3.3 Anatomy: Write Function Handler"
  },
  {
    "filename": "references.txt",
    "size": 8122,
    "description": "DOS 3.3 Anatomy: Reference Texts"
  },
  {
    "filename": "rwts.d1.format.txt",
    "size": 105655,
    "description": "DOS 3.3 Anatomy: RWTSDRV1 using FORMAT"
  },
  {
    "filename": "rwts.drvr.seek.txt",
    "size": 64116,
    "description": "DOS 3.3 Anatomy: RWTSDRVR using SEEK"
  },
  {
    "filename": "rwts.s.txt",
    "size": 17239,
    "description": "DOS 3.3 Anatomy: R.W.T.S From the DOS Source (1982)"
  },
  {
    "filename": "rwtsd1.format.2.txt",
    "size": 44543,
    "description": "DOS 3.3 Anatomy: RWTSDRV1 using FORMAT Continued"
  },
  {
    "filename": "rwtsdrvr.read.txt",
    "size": 106457,
    "description": "DOS 3.3 Anatomy: RWTSDRVR using READ"
  },
  {
    "filename": "rwtsdrvr.write.txt",
    "size": 108779,
    "description": "DOS 3.3 Anatomy: RWTSDRVR using WRITE"
  },
  {
    "filename": "symbol.cross.ref.txt",
    "size": 63430,
    "description": "DOS 3.3 Anatomy: Cross Referenced Symbol Tables"
  },
  {
    "filename": "t.dos.9d00.9f22.txt",
    "size": 27268,
    "description": "DOS 3.3 Anatomy: Addresses Referred to By DOS"
  },
  {
    "filename": "t.dos.9f23.a232.txt",
    "size": 28331,
    "description": "DOS 3.3 Anatomy: Output Handler 2 (Ignore Non-DOS Command)"
  },
  {
    "filename": "t.dos.a233.a50f.txt",
    "size": 26408,
    "description": "DOS 3.3 Anatomy: The MON and NOMON Command Handlers"
  },
  {
    "filename": "t.dos.a510.a850.txt",
    "size": 27529,
    "description": "DOS 3.3 Anatomy: Various Command Handlers"
  },
  {
    "filename": "t.dos.a851.ac57.txt",
    "size": 25750,
    "description": "DOS 3.3 Anatomy: Initialize I/O Hooks for DOS Interception"
  },
  {
    "filename": "t.dos.ac58.aff6.txt",
    "size": 28061,
    "description": "DOS 3.3 Anatomy: Additional Functions"
  },
  {
    "filename": "t.dos.aff7.b2c2.txt",
    "size": 27048,
    "description": "DOS 3.3 Anatomy: Additional Functions"
  },
  {
    "filename": "t.dos.b2c3.b65c.txt",
    "size": 26293,
    "description": "DOS 3.3 Anatomy: Additional Functions"
  },
  {
    "filename": "t.dos.b65d.b7ff.txt",
    "size": 13631,
    "description": "DOS 3.3 Anatomy: Additional Functions"
  },
  {
    "filename": "t.dos.b800.bcff.txt",
    "size": 24468,
    "description": "DOS 3.3 Anatomy: Additional Functions"
  },
  {
    "filename": "t.dos.bd00.bfff.txt",
    "size": 28078,
    "description": "DOS 3.3 Anatomy: Additional Functions"
  },
  {
    "filename": "t.dos.driver.txt",
    "size": 1926,
    "description": "DOS 3.3 Anatomy: DOS Driver for Linear Disassembly (September 1983)"
  },
  {
    "filename": "t.xtraddrs.txt",
    "size": 8777,
    "description": "DOS 3.3 Anatomy: Addresses Used in the Formatted Disassembly's."
  },
  {
    "filename": "ver.lock.unlock.txt",
    "size": 37434,
    "description": "DOS 3.3 Anatomy: VERIFY, LOCK and UNLOCK Command Handlers"
  }
]
