[
  {
    "filename": "almp9204.app",
    "size": 113024,
    "description": "GEnie Lamp A2 Volume 1, Issue 1"
  },
  {
    "filename": "almp9205.app",
    "size": 115712,
    "description": "GEnie Lamp A2 Volume 1, Issue 2"
  },
  {
    "filename": "almp9206.app",
    "size": 110592,
    "description": "GEnie Lamp A2 Volume 1, Issue 3"
  },
  {
    "filename": "almp9207.app",
    "size": 135508,
    "description": "GEnie Lamp A2 Volume 1, Issue 4"
  },
  {
    "filename": "almp9208.app",
    "size": 217216,
    "description": "GEnie Lamp A2 Volume 1, Issue 5"
  },
  {
    "filename": "almp9209.app",
    "size": 179712,
    "description": "GEnie Lamp A2 Volume 1, Issue 6"
  },
  {
    "filename": "almp9210.app",
    "size": 197504,
    "description": "GEnie Lamp A2 Volume 1, Issue 7"
  },
  {
    "filename": "almp9211.app",
    "size": 165504,
    "description": "GEnie Lamp A2 Volume 1, Issue 8"
  },
  {
    "filename": "almp9212.app",
    "size": 148608,
    "description": "GEnie Lamp A2 Volume 1, Issue 9"
  },
  {
    "filename": "almp9301.app",
    "size": 142336,
    "description": "GEnie Lamp A2 Volume 2, Issue 10"
  },
  {
    "filename": "almp9302.app",
    "size": 148096,
    "description": "GEnie Lamp A2 Volume 2, Issue 11"
  },
  {
    "filename": "almp9303.app",
    "size": 137612,
    "description": "GEnie Lamp A2 Volume 2, Issue 12"
  },
  {
    "filename": "almp9304.app",
    "size": 161152,
    "description": "GEnie Lamp A2 Volume 2, Issue 13"
  },
  {
    "filename": "almp9305a.app",
    "size": 130688,
    "description": "GEnie Lamp A2 Volume 2, Issue 14"
  },
  {
    "filename": "almp9305b.app",
    "size": 75776,
    "description": "GEnie Lamp A2 Volume 2, Issue 15"
  },
  {
    "filename": "almp9307.app",
    "size": 216576,
    "description": "GEnie Lamp A2 Volume 2, Issue 16"
  },
  {
    "filename": "almp9308.app",
    "size": 171032,
    "description": "GEnie Lamp A2 Volume 2, Issue 17"
  },
  {
    "filename": "almp9309.app",
    "size": 259456,
    "description": "GEnie Lamp A2 Volume 2, Issue 18"
  },
  {
    "filename": "almp9310.app",
    "size": 167552,
    "description": "GEnie Lamp A2 Volume 2, Issue 19"
  },
  {
    "filename": "almp9311.app",
    "size": 213504,
    "description": "GEnie Lamp A2 Volume 2, Issue 20"
  },
  {
    "filename": "almp9312.app",
    "size": 208128,
    "description": "GEnie Lamp A2 Volume 2, Issue 21"
  },
  {
    "filename": "almp9401.app",
    "size": 184448,
    "description": "GEnie Lamp A2 Volume 2, Issue 22"
  },
  {
    "filename": "almp9402.app",
    "size": 150144,
    "description": "GEnie Lamp A2 Volume 3, Issue 23"
  },
  {
    "filename": "almp9403.app",
    "size": 177152,
    "description": "GEnie Lamp A2 Volume 3, Issue 24"
  },
  {
    "filename": "almp9404.app",
    "size": 171136,
    "description": "GEnie Lamp A2 Volume 3, Issue 25"
  },
  {
    "filename": "almp9405.app",
    "size": 192384,
    "description": "GEnie Lamp A2 Volume 3, Issue 26"
  },
  {
    "filename": "almp9406.app",
    "size": 162688,
    "description": "GEnie Lamp A2 Volume 3, Issue 27"
  },
  {
    "filename": "almp9407.app",
    "size": 215808,
    "description": "GEnie Lamp A2 Volume 3, Issue 28"
  },
  {
    "filename": "almp9408.app",
    "size": 178944,
    "description": "GEnie Lamp A2 Volume 3, Issue 29"
  },
  {
    "filename": "almp9409.app",
    "size": 136832,
    "description": "GEnie Lamp A2 Volume 3, Issue 30"
  },
  {
    "filename": "almp9410.app",
    "size": 129408,
    "description": "GEnie Lamp A2 Volume 3, Issue 31"
  },
  {
    "filename": "almp9411.app",
    "size": 126336,
    "description": "GEnie Lamp A2 Volume 3, Issue 32"
  },
  {
    "filename": "almp9412.app",
    "size": 123520,
    "description": "GEnie Lamp A2 Volume 3, Issue 33"
  },
  {
    "filename": "almp9501.app",
    "size": 105856,
    "description": "GEnie Lamp A2 Volume 4, Issue 34"
  },
  {
    "filename": "almp9502.app",
    "size": 129152,
    "description": "GEnie Lamp A2 Volume 4, Issue 35"
  },
  {
    "filename": "almp9503.app",
    "size": 96768,
    "description": "GEnie Lamp A2 Volume 4, Issue 36"
  },
  {
    "filename": "almp9504.app",
    "size": 153088,
    "description": "GEnie Lamp A2 Volume 4, Issue 37"
  },
  {
    "filename": "almp9505.app",
    "size": 128768,
    "description": "GEnie Lamp A2 Volume 4, Issue 38"
  },
  {
    "filename": "almp9506.app",
    "size": 126080,
    "description": "GEnie Lamp A2 Volume 4, Issue 39"
  },
  {
    "filename": "almp9507.app",
    "size": 96128,
    "description": "GEnie Lamp A2 Volume 4, Issue 40"
  },
  {
    "filename": "almp9508.app",
    "size": 91880,
    "description": "GEnie Lamp A2 Volume 4, Issue 41"
  },
  {
    "filename": "almp9509.app",
    "size": 170312,
    "description": "GEnie Lamp A2 Volume 4, Issue 42"
  },
  {
    "filename": "almp9510.app",
    "size": 127352,
    "description": "GEnie Lamp A2 Volume 4, Issue 43"
  },
  {
    "filename": "almp9511.app",
    "size": 118624,
    "description": "GEnie Lamp A2 Volume 4, Issue 44"
  },
  {
    "filename": "almp9512.app",
    "size": 129076,
    "description": "GEnie Lamp A2 Volume 4, Issue 45"
  },
  {
    "filename": "almp9601.app",
    "size": 107328,
    "description": "GEnie Lamp A2 Volume 5, Issue 46"
  },
  {
    "filename": "almp9602.app",
    "size": 193156,
    "description": "GEnie Lamp A2 Volume 5, Issue 47"
  },
  {
    "filename": "almp9603.app",
    "size": 119756,
    "description": "GEnie Lamp A2 Volume 5, Issue 48"
  },
  {
    "filename": "almp9604.app",
    "size": 122112,
    "description": "GEnie Lamp A2 Volume 5, Issue 49"
  },
  {
    "filename": "almp9605.app",
    "size": 116720,
    "description": "GEnie Lamp A2 Volume 5, Issue 50"
  },
  {
    "filename": "almp9606.app",
    "size": 97324,
    "description": "GEnie Lamp A2 Volume 5, Issue 51"
  },
  {
    "filename": "almp9607.app",
    "size": 142752,
    "description": "GEnie Lamp A2 Volume 5, Issue 52"
  },
  {
    "filename": "almp9608.app",
    "size": 116744,
    "description": "GEnie Lamp A2 Volume 5, Issue 53"
  },
  {
    "filename": "almp9609.app",
    "size": 79444,
    "description": "GEnie Lamp A2 Volume 5, Issue 54"
  },
  {
    "filename": "almp9610.app",
    "size": 94820,
    "description": "GEnie Lamp A2 Volume 5, Issue 55"
  },
  {
    "filename": "almp9611.app",
    "size": 104420,
    "description": "GEnie Lamp A2 Volume 5, Issue 56"
  },
  {
    "filename": "almp9612.app",
    "size": 96092,
    "description": "GEnie Lamp A2 Volume 5, Issue 57"
  },
  {
    "filename": "almp9701.app",
    "size": 76952,
    "description": "GEnie Lamp A2 Volume 6, Issue 58"
  },
  {
    "filename": "almp9702.app",
    "size": 119992,
    "description": "GEnie Lamp A2 Volume 6, Issue 59"
  },
  {
    "filename": "almp9703.app",
    "size": 68360,
    "description": "GEnie Lamp A2 Volume 6, Issue 61"
  },
  {
    "filename": "almp9704.app",
    "size": 124188,
    "description": "GEnie Lamp A2 Volume 6, Issue 62"
  },
  {
    "filename": "almp9705.app",
    "size": 67492,
    "description": "GEnie Lamp A2 Volume 6, Issue 63"
  },
  {
    "filename": "almp9706.app",
    "size": 67896,
    "description": "GEnie Lamp A2 Volume 6, Issue 64"
  },
  {
    "filename": "almp9707.app",
    "size": 97040,
    "description": "GEnie Lamp A2 Volume 6, Issue 65"
  },
  {
    "filename": "almp9708.app",
    "size": 98837,
    "description": "GEnie Lamp A2 Volume 6, Issue 66"
  },
  {
    "filename": "almp9710.app",
    "size": 39624,
    "description": "GEnie Lamp A2 Volume 6, Issue 68"
  }
]
