[
  {
    "filename": "anime00.txt",
    "size": 841,
    "description": "small astroboy (snd)"
  },
  {
    "filename": "anime01.txt",
    "size": 4616,
    "description": "converted astroboy (m1a)"
  },
  {
    "filename": "anime02.txt",
    "size": 1256,
    "description": "happy astrogirl (ch1)."
  },
  {
    "filename": "anime03.txt",
    "size": 4483,
    "description": "converted white-on-black m1a astroboy."
  },
  {
    "filename": "anime04.txt",
    "size": 2770,
    "description": "ch1 evangelion ayanami rei"
  },
  {
    "filename": "anime05.txt",
    "size": 6479,
    "description": "m1a ayanami rei white-on-black"
  },
  {
    "filename": "anime06.txt",
    "size": 7513,
    "description": "Evangelion Katsauragi Misato, by m1a"
  },
  {
    "filename": "anime07.txt",
    "size": 4159,
    "description": "bunny ears"
  },
  {
    "filename": "anime08.txt",
    "size": 4859,
    "description": "m1a ffvii cloud white-on-black"
  },
  {
    "filename": "anime09.txt",
    "size": 880,
    "description": "dareka"
  },
  {
    "filename": "anime10.txt",
    "size": 3031,
    "description": "unidentified benevolent fairy."
  },
  {
    "filename": "anime11.txt",
    "size": 2485,
    "description": "smiling as if to say"
  },
  {
    "filename": "anime12.txt",
    "size": 2435,
    "description": "hello kitty."
  },
  {
    "filename": "anime13.txt",
    "size": 1951,
    "description": "keroppi (hello kitty frog)"
  },
  {
    "filename": "anime14.txt",
    "size": 13584,
    "description": "printable michael ling lum (urusei yatsura)."
  },
  {
    "filename": "anime15.txt",
    "size": 4474,
    "description": "salior moon luna in human form"
  },
  {
    "filename": "anime16.txt",
    "size": 1158,
    "description": "namelessone atomic bomberman"
  },
  {
    "filename": "anime17.txt",
    "size": 2946,
    "description": "bon vampire princess miyu with fan"
  },
  {
    "filename": "anime18.txt",
    "size": 3168,
    "description": "nakoruru"
  },
  {
    "filename": "anime19.txt",
    "size": 2214,
    "description": "i choose you pikachu tim park."
  },
  {
    "filename": "anime20.txt",
    "size": 10262,
    "description": "cartoon pantiless babe"
  },
  {
    "filename": "anime21.txt",
    "size": 3406,
    "description": "tim park sailor mercury."
  },
  {
    "filename": "anime22.txt",
    "size": 3089,
    "description": "sailor saturn."
  },
  {
    "filename": "anime23.txt",
    "size": 7799,
    "description": "sailor scouts special moves by valkyrie."
  },
  {
    "filename": "anime24.txt",
    "size": 45680,
    "description": "dov sherman's anime ascii collection first edition"
  },
  {
    "filename": "anime25.txt",
    "size": 49508,
    "description": "dov sherman's anime ascii collection second edition."
  },
  {
    "filename": "anime26.txt",
    "size": 32613,
    "description": "dov sherman's ranma 1/2 collection first edition"
  },
  {
    "filename": "anime27.txt",
    "size": 40057,
    "description": "dov sherman's ranma 1/2 collection second edition."
  },
  {
    "filename": "anime28.txt",
    "size": 30898,
    "description": "dov sherman's ranma 1/2 collection third edition"
  },
  {
    "filename": "anime29.txt",
    "size": 8180,
    "description": "pikachu squirtle psyduck geodude jigglypuff ditto &c"
  },
  {
    "filename": "anime30.txt",
    "size": 4789,
    "description": "eric's sailor moon collection."
  },
  {
    "filename": "anime31.txt",
    "size": 67538,
    "description": "GST maison ikkoku collection part one."
  },
  {
    "filename": "anime32.txt",
    "size": 23269,
    "description": "GST maison ikkoku collection part two."
  },
  {
    "filename": "anime33.txt",
    "size": 41044,
    "description": "GST anime including eva and 5 star stories"
  },
  {
    "filename": "anime34.txt",
    "size": 969,
    "description": "tim park sailor moon parapara."
  },
  {
    "filename": "anime35.txt",
    "size": 4298,
    "description": "tim park sailor neptune."
  },
  {
    "filename": "anime36.txt",
    "size": 343,
    "description": "tim park parapara's doll"
  },
  {
    "filename": "anime37.txt",
    "size": 1346,
    "description": "tim park tickle me usagi"
  },
  {
    "filename": "anime38.txt",
    "size": 1912,
    "description": "mk all-purpose catgirl nuku nuku"
  },
  {
    "filename": "anime39.txt",
    "size": 1303,
    "description": "mk one tit leela"
  },
  {
    "filename": "anime40.txt",
    "size": 4176,
    "description": "super catgirl 2."
  },
  {
    "filename": "anime41.txt",
    "size": 5466,
    "description": "ac surprise."
  },
  {
    "filename": "anime42.txt",
    "size": 3798,
    "description": "Priss from Bubblegum Crisis (?)"
  },
  {
    "filename": "anime43.txt",
    "size": 1946,
    "description": "girl with horns?"
  },
  {
    "filename": "anime44.txt",
    "size": 1592,
    "description": "chibi school girl."
  },
  {
    "filename": "anime45.txt",
    "size": 52256,
    "description": "alildevil bulbasaur squirtle charmander evolutions"
  },
  {
    "filename": "anime46.txt",
    "size": 7318,
    "description": "amc pokemon logo and some monsters"
  },
  {
    "filename": "anime47.txt",
    "size": 7327,
    "description": "usagi t & a."
  },
  {
    "filename": "anime48.txt",
    "size": 1687,
    "description": "mk ayanami bootscreen portrait"
  },
  {
    "filename": "anime49.txt",
    "size": 2852,
    "description": "m1a iwakura lain from serial experiments lain."
  },
  {
    "filename": "anime50.txt",
    "size": 6362,
    "description": "Priss from Bubblegum Crisis"
  },
  {
    "filename": "anime51.txt",
    "size": 2880,
    "description": "Dragonball Z's Goku, by zi"
  },
  {
    "filename": "anime52.txt",
    "size": 458,
    "description": "Running Chocobos, by zi and jgs"
  },
  {
    "filename": "anime53.txt",
    "size": 1576,
    "description": "The Black Mage from Final Fantasy, by zi"
  },
  {
    "filename": "anime54.txt",
    "size": 4527,
    "description": "Girl from Harem Blade, by zi"
  },
  {
    "filename": "anime55.txt",
    "size": 829,
    "description": "Mokona from Magic Knight Rayearth, by zi"
  },
  {
    "filename": "anime56.txt",
    "size": 796,
    "description": "Mononoke Hime Kodama, by zi"
  },
  {
    "filename": "anime57.txt",
    "size": 2009,
    "description": "Revolutionary Girl Utena, by zi"
  },
  {
    "filename": "anime58.txt",
    "size": 2499,
    "description": "Miki Kaoru from Utena, by zi"
  },
  {
    "filename": "anime59.txt",
    "size": 1457,
    "description": "Meltina from Valkyrie Profile, by zi"
  },
  {
    "filename": "anime60.txt",
    "size": 2292,
    "description": "Larva's Mask from Vampire Princess Miyu, by zi"
  },
  {
    "filename": "anime61.txt",
    "size": 3289,
    "description": "Pochacco!"
  },
  {
    "filename": "anime62.txt",
    "size": 4055,
    "description": "A Converted Skuld from Oh My Goddess, by junta"
  },
  {
    "filename": "bj00.txt",
    "size": 4379,
    "description": "oral close up!"
  },
  {
    "filename": "bj01.txt",
    "size": 3601,
    "description": "oral close up!!"
  },
  {
    "filename": "bj02.txt",
    "size": 3774,
    "description": "oral close up!!!"
  },
  {
    "filename": "bj03.txt",
    "size": 4726,
    "description": "oral close up!!!!"
  },
  {
    "filename": "bj04.txt",
    "size": 4561,
    "description": "oral close up!!!!!"
  },
  {
    "filename": "hunky00.txt",
    "size": 9743,
    "description": "david of michel-ange"
  },
  {
    "filename": "hunky01.txt",
    "size": 9117,
    "description": "so fuckin h0t!"
  },
  {
    "filename": "hunky02.txt",
    "size": 7843,
    "description": "\"adam\" erect"
  },
  {
    "filename": "hunky03.txt",
    "size": 4902,
    "description": "a happy hustler a real tease"
  },
  {
    "filename": "hunky04.txt",
    "size": 689,
    "description": "buff ascii drawing"
  },
  {
    "filename": "hunky05.txt",
    "size": 6162,
    "description": "captain james t kirk in contemplation."
  },
  {
    "filename": "hunky06.txt",
    "size": 3441,
    "description": "bon jeune homme assis sur la bord de la mer."
  },
  {
    "filename": "hunky07.txt",
    "size": 1147,
    "description": "jgs nude buff shower"
  },
  {
    "filename": "hunky08.txt",
    "size": 3090,
    "description": "Naked Make holding Towel"
  },
  {
    "filename": "pinup00.txt",
    "size": 8505,
    "description": "meriday in the morning"
  },
  {
    "filename": "pinup01.txt",
    "size": 7299,
    "description": "meriday in the morning ripoff."
  },
  {
    "filename": "pinup02.txt",
    "size": 8137,
    "description": "1964 playboy centrefold classic ascii."
  },
  {
    "filename": "pinup03.txt",
    "size": 8316,
    "description": "kneeling draped blonde"
  },
  {
    "filename": "pinup04.txt",
    "size": 8479,
    "description": "hot pants (white on black)"
  },
  {
    "filename": "pinup05.txt",
    "size": 5309,
    "description": "tan lines, headband."
  },
  {
    "filename": "pinup06.txt",
    "size": 6402,
    "description": "peek-a-boo tits."
  },
  {
    "filename": "pinup07.txt",
    "size": 7271,
    "description": "wonky bikini babe."
  },
  {
    "filename": "pinup08.txt",
    "size": 5559,
    "description": "sultry 80's."
  },
  {
    "filename": "pinup09.txt",
    "size": 6504,
    "description": "nicer version of pinup07.txt"
  },
  {
    "filename": "pinup10.txt",
    "size": 6667,
    "description": "x-tra large boobies, kneeling."
  },
  {
    "filename": "pinup11.txt",
    "size": 17381,
    "description": "sexy mature woman."
  },
  {
    "filename": "pinup12.txt",
    "size": 4717,
    "description": "crouched happy babe."
  },
  {
    "filename": "pinup13.txt",
    "size": 10444,
    "description": "\"bunny\", classic playboy w/ears."
  },
  {
    "filename": "pinup14.txt",
    "size": 7376,
    "description": "\"clohe\", assertive loincloth"
  },
  {
    "filename": "pinup15.txt",
    "size": 7347,
    "description": "\"fran\", playboy jokes cartoon girl made of sex"
  },
  {
    "filename": "pinup16.txt",
    "size": 7617,
    "description": "snatchgrab"
  },
  {
    "filename": "pinup17.txt",
    "size": 3337,
    "description": "nicely converted small babe."
  },
  {
    "filename": "pinup18.txt",
    "size": 4996,
    "description": "science officer jadzia dax *IN UNIFORM!!*."
  },
  {
    "filename": "pinup19.txt",
    "size": 9458,
    "description": "b'ger giantess"
  },
  {
    "filename": "pinup20.txt",
    "size": 12605,
    "description": "\"holly\"."
  },
  {
    "filename": "pinup21.txt",
    "size": 13837,
    "description": "\"ingrid\", x-tra wide mannerist nude."
  },
  {
    "filename": "pinup22.txt",
    "size": 13242,
    "description": "smiley upside-down sideways supine nude."
  },
  {
    "filename": "pinup23.txt",
    "size": 9793,
    "description": "\"kathy\", come-hither topless bluejean farm hand."
  },
  {
    "filename": "pinup24.txt",
    "size": 7159,
    "description": "\"kelly\", happy seated ditzy babe"
  },
  {
    "filename": "pinup25.txt",
    "size": 8505,
    "description": "\"roxanne\", *nice* bejewelled triangle-muff"
  },
  {
    "filename": "pinup26.txt",
    "size": 10364,
    "description": "posed model on stool"
  },
  {
    "filename": "pinup27.txt",
    "size": 9040,
    "description": "tits of the 80's (white on black)."
  },
  {
    "filename": "pinup28.txt",
    "size": 35979,
    "description": "large bashful topless bikini (MHT)"
  },
  {
    "filename": "pinup29.txt",
    "size": 17261,
    "description": "swedish simultaneous ass-titties"
  },
  {
    "filename": "pinup30.txt",
    "size": 4150,
    "description": "pregnant lady holding tits up."
  },
  {
    "filename": "pinup31.txt",
    "size": 6524,
    "description": "Wavy Hair, by Kludgeonsmith"
  },
  {
    "filename": "pinup32.txt",
    "size": 7090,
    "description": "More Wavy Hair, by Kludgeonsmith"
  },
  {
    "filename": "pinup33.txt",
    "size": 3090,
    "description": "Languid Nude, by Stef99"
  },
  {
    "filename": "pinup34.txt",
    "size": 10595,
    "description": "Dombitch, by Meph"
  },
  {
    "filename": "pinup35.txt",
    "size": 5972,
    "description": "Over the Shoulder Flyaway Coquette"
  },
  {
    "filename": "pinup36.txt",
    "size": 11113,
    "description": "Blonde Contraposto"
  },
  {
    "filename": "pinup37.txt",
    "size": 7262,
    "description": "Halter Honey"
  },
  {
    "filename": "pinup38.txt",
    "size": 11160,
    "description": "Codename Fly Bitch, by Meph"
  },
  {
    "filename": "pinup39.txt",
    "size": 3612,
    "description": "Smaller Version of Codename Fly Bitch, by Meph"
  },
  {
    "filename": "pinup40.txt",
    "size": 8494,
    "description": "Ventilated Bustier"
  },
  {
    "filename": "pinup41.txt",
    "size": 15487,
    "description": "Monster Bikini Face"
  },
  {
    "filename": "pinup42.txt",
    "size": 10649,
    "description": "Tribal Witch, by Meph (1998)"
  },
  {
    "filename": "pinup43.txt",
    "size": 15769,
    "description": "Handcopied from an Old Pre-1980's Printout, by Comet (2001)"
  },
  {
    "filename": "pinup44.txt",
    "size": 5427,
    "description": "Sexy Shinoby Hosokawa, Conversion by Brian Feldman"
  },
  {
    "filename": "pinup45.txt",
    "size": 7137,
    "description": "Kyokofukada, by m0f73"
  },
  {
    "filename": "pinup46.txt",
    "size": 4148,
    "description": "Pregnant Pinup, ASCII Conversion"
  },
  {
    "filename": "pinup47.txt",
    "size": 5537,
    "description": "Thoughtful from Flash Mountain"
  },
  {
    "filename": "pinup48.txt",
    "size": 7567,
    "description": "Corsetry and Polyvinyl"
  },
  {
    "filename": "pr0n00.txt",
    "size": 4979,
    "description": "the dutch dude classy boa"
  },
  {
    "filename": "pr0n01.txt",
    "size": 1939,
    "description": "just the facts"
  },
  {
    "filename": "pr0n02.txt",
    "size": 2761,
    "description": "naked couple on a horse"
  },
  {
    "filename": "pr0n03.txt",
    "size": 6076,
    "description": "converted female jerk-off"
  },
  {
    "filename": "pr0n04.txt",
    "size": 2114,
    "description": "krogg on all fours"
  },
  {
    "filename": "pr0n05.txt",
    "size": 4550,
    "description": "wide open beaver stockings"
  },
  {
    "filename": "pr0n06.txt",
    "size": 2870,
    "description": "krogg happy spread labia"
  },
  {
    "filename": "pr0n07.txt",
    "size": 565,
    "description": "krogg on all fours two"
  },
  {
    "filename": "pr0n08.txt",
    "size": 6086,
    "description": "magical sorceress with acrylic nails"
  },
  {
    "filename": "pr0n09.txt",
    "size": 3687,
    "description": "lesbian action white-on-black"
  },
  {
    "filename": "pr0n10.txt",
    "size": 5264,
    "description": "m1a converted torso"
  },
  {
    "filename": "pr0n11.txt",
    "size": 8199,
    "description": "m1a converted nude"
  },
  {
    "filename": "pr0n12.txt",
    "size": 11579,
    "description": "super heroine"
  },
  {
    "filename": "pr0n13.txt",
    "size": 5205,
    "description": "white-on-black manet dejeuner"
  },
  {
    "filename": "pr0n14.txt",
    "size": 5107,
    "description": "the dutch dude tank top"
  },
  {
    "filename": "pr0n15.txt",
    "size": 3102,
    "description": "small converted pantless heels"
  },
  {
    "filename": "pr0n16.txt",
    "size": 2900,
    "description": "very perky silhouette"
  },
  {
    "filename": "pr0n17.txt",
    "size": 5514,
    "description": "vk phat figlet style nude"
  },
  {
    "filename": "pr0n18.txt",
    "size": 950,
    "description": "reclining curvy babe"
  },
  {
    "filename": "pr0n19.txt",
    "size": 2316,
    "description": "small white-on black oldschool babe"
  },
  {
    "filename": "pr0n20.txt",
    "size": 2279,
    "description": "b'ger babes in stages of disarray"
  },
  {
    "filename": "pr0n21.txt",
    "size": 2351,
    "description": "b'ger bathing beauties"
  },
  {
    "filename": "pr0n22.txt",
    "size": 471,
    "description": "jgs bikini woman"
  },
  {
    "filename": "pr0n23.txt",
    "size": 1412,
    "description": "pregnant"
  },
  {
    "filename": "pr0n24.txt",
    "size": 459,
    "description": "jgs seated nude"
  },
  {
    "filename": "pr0n25.txt",
    "size": 1233,
    "description": "another on all fours"
  },
  {
    "filename": "pr0n26.txt",
    "size": 1749,
    "description": "jgs have a sexy birthday"
  },
  {
    "filename": "pr0n27.txt",
    "size": 512,
    "description": "happy ch1x0r"
  },
  {
    "filename": "pr0n28.txt",
    "size": 209,
    "description": "ejm man and woman"
  },
  {
    "filename": "pr0n29.txt",
    "size": 1012,
    "description": "b'ger naked eve"
  },
  {
    "filename": "pr0n30.txt",
    "size": 34,
    "description": "fine asses fucka"
  },
  {
    "filename": "pr0n31.txt",
    "size": 21,
    "description": "torso sig"
  },
  {
    "filename": "pr0n32.txt",
    "size": 450,
    "description": "b'ger vanity"
  },
  {
    "filename": "pr0n33.txt",
    "size": 511,
    "description": "beaver indignant nude"
  },
  {
    "filename": "pr0n34.txt",
    "size": 210,
    "description": "cute little penorz"
  },
  {
    "filename": "pr0n35.txt",
    "size": 910,
    "description": "modest small two toed nude"
  },
  {
    "filename": "pr0n36.txt",
    "size": 3802,
    "description": "lucy bares all at last"
  },
  {
    "filename": "pr0n37.txt",
    "size": 438,
    "description": "jro satin sheets"
  },
  {
    "filename": "pr0n38.txt",
    "size": 498,
    "description": "jro surprise bj"
  },
  {
    "filename": "pr0n39.txt",
    "size": 1637,
    "description": "stocking fabio ride"
  },
  {
    "filename": "pr0n40.txt",
    "size": 567,
    "description": "wtf?"
  },
  {
    "filename": "pr0n41.txt",
    "size": 1001,
    "description": "unknown the gonad man"
  },
  {
    "filename": "pr0n42.txt",
    "size": 404,
    "description": "unknown nude couple"
  },
  {
    "filename": "pr0n43.txt",
    "size": 8261,
    "description": "prs porno several positions!"
  },
  {
    "filename": "pr0n44.txt",
    "size": 1594,
    "description": "jro the exam"
  },
  {
    "filename": "pr0n45.txt",
    "size": 1565,
    "description": "jro observations"
  },
  {
    "filename": "pr0n46.txt",
    "size": 2660,
    "description": "krogg striptease"
  },
  {
    "filename": "pr0n47.txt",
    "size": 895,
    "description": "krogg happy panties"
  },
  {
    "filename": "pr0n48.txt",
    "size": 1395,
    "description": "krogg garter belt"
  },
  {
    "filename": "pr0n49.txt",
    "size": 1951,
    "description": "The Costume, by JRO"
  },
  {
    "filename": "pr0n50.txt",
    "size": 502,
    "description": "A Duchamp Ripoff, by ejm and rm"
  },
  {
    "filename": "pr0n51.txt",
    "size": 2885,
    "description": "Merry Fucking Christmas, from jro"
  },
  {
    "filename": "pr0n52.txt",
    "size": 1566,
    "description": "Something to Unwrap, by jro"
  },
  {
    "filename": "pr0n53.txt",
    "size": 2228,
    "description": "Christmas Reflections, by jro"
  },
  {
    "filename": "pr0n54.txt",
    "size": 2257,
    "description": "Pretty Warrior Girl, by krogg"
  },
  {
    "filename": "pr0n55.txt",
    "size": 2815,
    "description": "Naked on Top of a Cliff"
  },
  {
    "filename": "pr0n56.txt",
    "size": 3786,
    "description": "Converted Surfer Girl"
  },
  {
    "filename": "pr0n57.txt",
    "size": 1258,
    "description": "Some Novelty Tits"
  },
  {
    "filename": "pr0n58.txt",
    "size": 1002,
    "description": "SIG-Sized Nudies, by vk"
  },
  {
    "filename": "pr0n59.txt",
    "size": 2594,
    "description": "Some Smallish Series Nudes, by hjw"
  },
  {
    "filename": "pr0n60.txt",
    "size": 483,
    "description": "Contortion"
  },
  {
    "filename": "pr0n61.txt",
    "size": 2411,
    "description": "Artful Odalisque, by m1a"
  },
  {
    "filename": "pr0n62.txt",
    "size": 3956,
    "description": "Kissing Girls"
  },
  {
    "filename": "pr0n63.txt",
    "size": 963,
    "description": "Sodomy, by Krogg"
  },
  {
    "filename": "pr0n64.txt",
    "size": 255,
    "description": "Small Valkyrie, by Krogg"
  },
  {
    "filename": "pr0n65.txt",
    "size": 1329,
    "description": "Goatsex Ass Wide Open"
  },
  {
    "filename": "pr0n66.txt",
    "size": 3185,
    "description": "Converted Portrait, by DarkOrchid"
  },
  {
    "filename": "pr0n67.txt",
    "size": 834,
    "description": "Sapphic Couple, by sexii"
  },
  {
    "filename": "pr0n68.txt",
    "size": 940,
    "description": "Sexii Whips ASCII into Line! by Sexii"
  },
  {
    "filename": "pr0n69.txt",
    "size": 132,
    "description": "Deco Silhouette, by Sexii"
  },
  {
    "filename": "pr0n70.txt",
    "size": 18944,
    "description": "Wicked File: Collection of Miscellaneous ASCII Art"
  },
  {
    "filename": "pr0n71.txt",
    "size": 6080,
    "description": "Collection of Various Nudes"
  },
  {
    "filename": "pr0n72.txt",
    "size": 1209,
    "description": "To Bonnie, by mthw"
  },
  {
    "filename": "pr0n73.txt",
    "size": 3050,
    "description": "Upshit, by mthw"
  },
  {
    "filename": "pr0n74.txt",
    "size": 2232,
    "description": "Upscale Upskirt Two by Mthw"
  },
  {
    "filename": "pr0n75.txt",
    "size": 2625,
    "description": "Upskirt Three, by mthw"
  },
  {
    "filename": "pr0n76.txt",
    "size": 599,
    "description": "We Want You! By Ojo"
  },
  {
    "filename": "pr0n77.txt",
    "size": 930,
    "description": "Cybersquat, by nmf"
  },
  {
    "filename": "pr0n78.txt",
    "size": 3637,
    "description": "Consensual Spank-Off"
  },
  {
    "filename": "pr0n79.txt",
    "size": 1959,
    "description": "Triple-A Crew Collaboration (Nudes)"
  },
  {
    "filename": "pr0n80.txt",
    "size": 808,
    "description": "Startled Nude"
  },
  {
    "filename": "pr0n81.txt",
    "size": 856,
    "description": "A Coy Shave, by cjr"
  },
  {
    "filename": "pr0n82.txt",
    "size": 743,
    "description": "Nude, by cjr"
  },
  {
    "filename": "pr0n83.txt",
    "size": 1144,
    "description": "Self-Exploration"
  },
  {
    "filename": "venus01.txt",
    "size": 4992,
    "description": "botticelli's venus facial."
  },
  {
    "filename": "venus02.txt",
    "size": 11374,
    "description": "botticelli's venus full frontal."
  }
]
