[
  {
    "filename": "articles.art.txt",
    "size": 9075,
    "description": "Schematic Fidonet Articles of Confederation, by Tom Jennings"
  },
  {
    "filename": "barlow.txt",
    "size": 2830,
    "description": "Text of Award Speech for EFF Pioneer Award, By Tom Jennings (?)"
  },
  {
    "filename": "bcs.txt",
    "size": 4448,
    "description": "Forwarded Messages Describing BCSNet and Its Relation to Fidonet and RIME (July, 1992)"
  },
  {
    "filename": "boardwatch-article.pozar.txt",
    "size": 11358,
    "description": "Toasternets: An Introduction on Building Your Own, by Tim Pozar (April 15, 1993)"
  },
  {
    "filename": "cdrom.txt",
    "size": 10510,
    "description": "Discussion About Distributing FidoNews on CD-ROM, Between Tom Jennings and Karen Maynor"
  },
  {
    "filename": "compress.doc.txt",
    "size": 1010,
    "description": "Tests of FidoNet Mail Connect Time vs. Compression Method"
  },
  {
    "filename": "echoes.txt",
    "size": 7344,
    "description": "PCBL Gay Echo List (List of Echo-Mail Conferences)"
  },
  {
    "filename": "eunet.txt",
    "size": 2006,
    "description": "Message from Randy Bush Announcing Fidonet Connection Through EUNet (December 27, 1991)"
  },
  {
    "filename": "fido815.doc.txt",
    "size": 2977,
    "description": "Example of a Section 8/15 Filing of the FidoNet Trademark, from Bob Moravsik to Tom Jennings (November 29, 1992)"
  },
  {
    "filename": "fidorot.nws.txt",
    "size": 1257,
    "description": "Experiencing Fidorot, by Tim Sullivan of PC Techniques BBS"
  },
  {
    "filename": "fidouser.txt",
    "size": 10570,
    "description": "Fido Callers Manual by Richard Levey (1985)"
  },
  {
    "filename": "files.bbs.txt",
    "size": 2161,
    "description": "Description of Some Fido-Related Documents in This Collection, by Tom Jennings"
  },
  {
    "filename": "finland.txt",
    "size": 4009,
    "description": "Discussion About the Use of the Fidonet Trademark in Finland between Tom Jennings and Ron Dwight (January, 1992)"
  },
  {
    "filename": "gayhist.txt",
    "size": 2138,
    "description": "Discussion Regarding Gay History Echo, by Russ Goodale to Tom Jennings (April 2, 1992)"
  },
  {
    "filename": "german-fido-trademark.txt",
    "size": 4233,
    "description": "Discussion Regarding German Use of the Fido Trademark (August 28, 1993)"
  },
  {
    "filename": "idiots.txt",
    "size": 18407,
    "description": "Various Discussions Regarding the FidoNet Trademark in Finland and the Selling of Fido-Related Software (September, 1992)"
  },
  {
    "filename": "lostmail.txt",
    "size": 2712,
    "description": "Discussion Regarding Lost Mail from BBS Run by William Sommers (August, 1992)"
  },
  {
    "filename": "read.me.txt",
    "size": 815,
    "description": "Mention of Various Files and Documents in this Collection"
  },
  {
    "filename": "schirado.txt",
    "size": 1095,
    "description": "A Thank You For Creating FidoNet (March 3, 1994)"
  },
  {
    "filename": "sommers.txt",
    "size": 1402,
    "description": "Correspondence of Tom Jennings Offering FidoNews Editorship to William Sommers (January 27, 1992)"
  },
  {
    "filename": "sylvia-morscher-max-old-fido.txt",
    "size": 203213,
    "description": "Large Collection of Old Fido-Related (And Fido-Unrelated) Messages and Postings By Tom Jennings"
  },
  {
    "filename": "trademar.txt",
    "size": 2170,
    "description": "Registration of FidoNet Trademark, Correspondence between Bob Moravsik and Tom Jennings (November 23, 1992)"
  }
]
