[
  {
    "filename": "icenews.txt",
    "size": 4832,
    "Description of the Textfile\n<!-- TR-->": "An Introduction to IceNEWS, by DNR"
  },
  {
    "filename": "news9209.txt",
    "size": 19833,
    "Description of the Textfile\n<!-- TR-->": "ICEnet News (September 1992)"
  },
  {
    "filename": "news9210.txt",
    "size": 31035,
    "Description of the Textfile\n<!-- TR-->": "ICEnet News (October, 1992)"
  },
  {
    "filename": "news9211.txt",
    "size": 30334,
    "Description of the Textfile\n<!-- TR-->": "ICEnet News (November, 1992)"
  },
  {
    "filename": "news9212.txt",
    "size": 53485,
    "Description of the Textfile\n<!-- TR-->": "ICEnet News (December, 1992)"
  },
  {
    "filename": "news9302.txt",
    "size": 78806,
    "Description of the Textfile\n<!-- TR-->": "ICEnet News (February, 1993)"
  },
  {
    "filename": "news9303.txt",
    "size": 54406,
    "Description of the Textfile\n<!-- TR-->": "ICEnet News (March, 1993)"
  },
  {
    "filename": "news9304.txt",
    "size": 65795,
    "Description of the Textfile\n<!-- TR-->": "ICEnet News (April, 1993)"
  },
  {
    "filename": "news9305.txt",
    "size": 55598,
    "Description of the Textfile\n<!-- TR-->": "ICEnet News (May, 1993)"
  },
  {
    "filename": "news9306.txt",
    "size": 57145,
    "Description of the Textfile\n<!-- TR-->": "ICEnet News (June, 1993)"
  },
  {
    "filename": "news9307.txt",
    "size": 53139,
    "Description of the Textfile\n<!-- TR-->": "ICEnet News (July, 1993)"
  },
  {
    "filename": "news9312.txt",
    "size": 97293,
    "Description of the Textfile\n<!-- TR-->": "ICEnet News (December, 1993)"
  },
  {
    "filename": "news9401.txt",
    "size": 99667,
    "Description of the Textfile\n<!-- TR-->": "ICEnet News (January, 1994)"
  },
  {
    "filename": "news9402.txt",
    "size": 87016,
    "Description of the Textfile\n<!-- TR-->": "ICEnet News (February, 1994)"
  },
  {
    "filename": "news9403.txt",
    "size": 92928,
    "Description of the Textfile\n<!-- TR-->": "ICEnet News (March, 1994)"
  },
  {
    "filename": "news9404.txt",
    "size": 77707,
    "Description of the Textfile\n<!-- TR-->": "ICEnet News (April, 1994)"
  },
  {
    "filename": "news9405.txt",
    "size": 128302,
    "Description of the Textfile\n<!-- TR-->": "ICEnet News (May, 1994)"
  },
  {
    "filename": "news9406.txt",
    "size": 143395,
    "Description of the Textfile\n<!-- TR-->": "ICEnet News (June, 1994)"
  },
  {
    "filename": "news9407.txt",
    "size": 136876,
    "Description of the Textfile\n<!-- TR-->": "ICEnet News (July, 1994)"
  },
  {
    "filename": "news9408.txt",
    "size": 147749,
    "Description of the Textfile\n<!-- TR-->": "ICEnet News (August, 1994)"
  },
  {
    "filename": "news9409.txt",
    "size": 111361,
    "Description of the Textfile\n<!-- TR-->": "ICEnet News (September, 1994)"
  },
  {
    "filename": "news9411.txt",
    "size": 141095,
    "Description of the Textfile\n<!-- TR-->": "ICEnet News (November, 1994)"
  },
  {
    "filename": "news9412.txt",
    "size": 95674,
    "Description of the Textfile\n<!-- TR-->": "ICEnet News (December, 1994)"
  },
  {
    "filename": "news9501.txt",
    "size": 83006,
    "Description of the Textfile\n<!-- TR-->": "ICEnet News (January, 1995)"
  },
  {
    "filename": "news9506.txt",
    "size": 107111,
    "Description of the Textfile\n<!-- TR-->": "ICEnet News (June, 1995)"
  }
]
