[
  {
    "filename": "170-609.asc",
    "size": 134646,
    "description": "Master Filelist for the Big Dreams FAXable CEC"
  },
  {
    "filename": "access.lst",
    "size": 153281,
    "description": "FILELISTS: The Access System, Huntsville, AL (September 9, 1992)"
  },
  {
    "filename": "access.old",
    "size": 144526,
    "description": "FILELISTS: The Access System, Huntsville, AL (July 20, 1992)"
  },
  {
    "filename": "ajfafile.txt",
    "size": 723820,
    "description": "The Damage Incorporated File List and Collection of Paradise City BBS, from Blackened"
  },
  {
    "filename": "allfile1.txt",
    "size": 353248,
    "description": "File List of the Matrix BBS (Birmingham, AL) (July, 1992)"
  },
  {
    "filename": "allfile2.txt",
    "size": 369950,
    "description": "File List of the Matrix BBS (Birmingham, AL) (July, 1992)"
  },
  {
    "filename": "allfile3.txt",
    "size": 381864,
    "description": "File List of the Matrix BBS (Birmingham, AL) (July, 1992)"
  },
  {
    "filename": "allfiles.lst",
    "size": 682403,
    "description": "File List of the Owlabama MENSA BBS List (Birmingham, AL)"
  },
  {
    "filename": "asblist.txt",
    "size": 159562,
    "description": "Listing of Files from the Altered States BBS"
  },
  {
    "filename": "bbsfiles.cat",
    "size": 23503,
    "description": "FILE LISTING: The Datastorm BBS"
  },
  {
    "filename": "catalog.6",
    "size": 2629,
    "description": "FILELIST: Texts from the Wonderland BBS in Billerica MA (June 12, 1990)"
  },
  {
    "filename": "cybahq.lst",
    "size": 228635,
    "description": "File List: CYBERSPACE Headquarters BBS (June 1993)"
  },
  {
    "filename": "filearea.txt",
    "size": 3891,
    "description": "Altered States (BBS) Files Areas as of May 25th, 1992"
  },
  {
    "filename": "filelist.txt",
    "size": 399832,
    "description": "FILELIST: The Temple of the Screaming Electron (June 6, 1992)"
  },
  {
    "filename": "filelst.txt",
    "size": 95636,
    "description": "FILELIST: The Circuit Cellar BBS Master File List"
  },
  {
    "filename": "files.bbs",
    "size": 26787,
    "description": "Large File Listing of all sorts of Typical Textfiles a BBS Might Have (Phreaking Oriented)"
  },
  {
    "filename": "fuzzylogic.txt",
    "size": 41524,
    "description": "FILELIST: Fuzzy Logic BBS (Circa 1994)"
  },
  {
    "filename": "liberty.txt",
    "size": 8186,
    "description": "File System of the Liberty Bell BBS"
  },
  {
    "filename": "mastlist.txt",
    "size": 422236,
    "description": "File List of the Rocket City VBBS (Huntsville, AL) (April, 1992)"
  },
  {
    "filename": "mbfile.txt",
    "size": 1640280,
    "description": "Huge Listing of Files from the MB BBS (March 15, 1993)"
  },
  {
    "filename": "north444.lst",
    "size": 104898,
    "description": "Filelist for the Northern Lights BBS"
  },
  {
    "filename": "owlabama.lst",
    "size": 301689,
    "description": "File List of the Owlabama MENSA BBS List (Birmingham, AL)"
  },
  {
    "filename": "rocktcty.lst",
    "size": 422236,
    "description": "FILELIST: Rocket City VBBS (1992)"
  },
  {
    "filename": "snakepit.dld.txt",
    "size": 9764,
    "description": "FILELIST: The Snakepit BBS (1989)"
  },
  {
    "filename": "southexp.lst",
    "size": 435177,
    "description": "FILE LIST: Southern Express BBS (1992)"
  },
  {
    "filename": "spacelnk.lst",
    "size": 68608,
    "description": "FILE LIST: NASA Spacelink File List (1992)"
  },
  {
    "filename": "sysop.txt",
    "size": 49626,
    "description": "Complete File Listings of the Psychotronic BBS (March 31, 1992)"
  },
  {
    "filename": "tdrfiles.txt",
    "size": 346762,
    "description": "FILELIST: The Dark Realm BBS in Sweden (January 3, 1993)"
  },
  {
    "filename": "totlist.txt",
    "size": 139482,
    "description": "FILELIST: Never Never Land (Sweden)"
  },
  {
    "filename": "totselist.txt",
    "size": 697933,
    "description": "File List of the Temple of the Screaming Electron BBS (June 8, 1993)"
  },
  {
    "filename": "wfobbs.lst",
    "size": 130602,
    "description": "FILELIST: Werewolves From Outerspace (1,300 Files)"
  }
]
