[
  {
    "filename": "alone.txt",
    "size": 3432,
    "description": "Alone, by Edgar Allan Poe (1830)"
  },
  {
    "filename": "assignat.poe",
    "size": 27214,
    "description": "The Assignation by Edgar Allan Poe"
  },
  {
    "filename": "atale.poe",
    "size": 23986,
    "description": "A Tale of the Ragged Mountains"
  },
  {
    "filename": "balloon.poe",
    "size": 31275,
    "description": "The Balloon Hoax, by Edgar Allen Poe"
  },
  {
    "filename": "berenice.poe",
    "size": 19362,
    "description": "Berenice, by Edgar Allen Poe"
  },
  {
    "filename": "blackcat.poe",
    "size": 22509,
    "description": "The Black Cat, by Edgar Allen Poe"
  },
  {
    "filename": "cask.poe",
    "size": 13621,
    "description": "INTERNET WIRETAP: The Cask of Amontillado by Edgar Allan Poe"
  },
  {
    "filename": "eleonora.poe",
    "size": 13951,
    "description": "I Eleonora, by Edgar Allen Poe"
  },
  {
    "filename": "fallushr.txt",
    "size": 57934,
    "description": "The Fall of the House of Usher by Edgar Allen Poe, Library of the Future Edition Ver. 4.02"
  },
  {
    "filename": "maelstrm.txt",
    "size": 47892,
    "description": "A Descent into the Maelstrom by Edgar Allan Poe"
  },
  {
    "filename": "masque_r.txt",
    "size": 17784,
    "description": "The Masque of the Red Death, by Edgar Allan Poe, 1842"
  },
  {
    "filename": "poe-al-425.txt",
    "size": 19110,
    "description": "Al Aaraaf, by Edgar Allan Poe (1829)"
  },
  {
    "filename": "poe-alone-426.txt",
    "size": 1070,
    "description": "Alone, by Edgar Allan Poe (1830)"
  },
  {
    "filename": "poe-angel-666.txt",
    "size": 21007,
    "description": "The Angel of the Odd: An Extravaganza, by Edgar Allan Poe (1850)"
  },
  {
    "filename": "poe-annabel-428.txt",
    "size": 1940,
    "description": "Annabel Lee, by Edgar Allan Poe (1849)"
  },
  {
    "filename": "poe-assignation-667.txt",
    "size": 26509,
    "description": "The Assignation, by Edgar Allan Poe (1834)"
  },
  {
    "filename": "poe-balloon-668.txt",
    "size": 30412,
    "description": "The Balloon-Hoax, by Edgar Allan Poe (1850)"
  },
  {
    "filename": "poe-bells-669.txt",
    "size": 4898,
    "description": "The Bells, by Edgar Allan Poe (1849)"
  },
  {
    "filename": "poe-berenice-429.txt",
    "size": 18931,
    "description": "Berenice, by Edgar Allan Poe (1835)"
  },
  {
    "filename": "poe-black-670.txt",
    "size": 22031,
    "description": "The Black Cat, by Edgar Allan Poe (1843)"
  },
  {
    "filename": "poe-bon-430.txt",
    "size": 34564,
    "description": "Bon-Bon, by Edgar Allan Poe (1850)"
  },
  {
    "filename": "poe-bridal-431.txt",
    "size": 1296,
    "description": "Bridal Ballad, by Edgar Allan Poe (1837)"
  },
  {
    "filename": "poe-business-671.txt",
    "size": 20668,
    "description": "The Business Man, by Edgar Allan Poe (1850)"
  },
  {
    "filename": "poe-cask-672.txt",
    "size": 13341,
    "description": "The Cask of Amontillado, by Edgar Allan Poe (1846)"
  },
  {
    "filename": "poe-city-673.txt",
    "size": 2291,
    "description": "The City in the Sea, by Edgar Allan Poe (1831)"
  },
  {
    "filename": "poe-coliseum-674.txt",
    "size": 2453,
    "description": "The Coliseum, by Edgar Allan Poe (1833)"
  },
  {
    "filename": "poe-colloquy-675.txt",
    "size": 20761,
    "description": "The Colloquy of Monos and Una, by Edgar Allan Poe (1850)"
  },
  {
    "filename": "poe-conqueror-676.txt",
    "size": 1748,
    "description": "The Conqueror Worm, by Edgar Allan Poe (1843)"
  },
  {
    "filename": "poe-conversation-677.txt",
    "size": 12174,
    "description": "The Conversation of Eiros and Charmion, by Edgar Allan Poe (1850)"
  },
  {
    "filename": "poe-criticism-432.txt",
    "size": 472389,
    "description": "Criticism, by Edgar Allan Poe (1850)"
  },
  {
    "filename": "poe-descent-418.txt",
    "size": 38746,
    "description": "A Descent Into the Maelstrom, by Edgar Allan Poe (1841)"
  },
  {
    "filename": "poe-devil-678.txt",
    "size": 18646,
    "description": "The Devil in the Belfry, by Edgar Allan Poe"
  },
  {
    "filename": "poe-diddling-433.txt",
    "size": 22862,
    "description": "Diddling: Considered As One of the Exact Sciences, by Edgar Allan Poe (1850)"
  },
  {
    "filename": "poe-domain-679.txt",
    "size": 35934,
    "description": "The Domain of Arnheim, by Edgar Allan Poe (1850)"
  },
  {
    "filename": "poe-dream-419.txt",
    "size": 786,
    "description": "A Dream, by Edgar Allan Poe (1827)"
  },
  {
    "filename": "poe-dream-420.txt",
    "size": 1069,
    "description": "A Dream Within a Dream, by Edgar Allan Poe (1827)"
  },
  {
    "filename": "poe-dreamland-434.txt",
    "size": 2723,
    "description": "Dreamland, by Edgar Allan Poe (1844)"
  },
  {
    "filename": "poe-dreams-435.txt",
    "size": 1794,
    "description": "Dreams, by Edgar Allan Poe (1827)"
  },
  {
    "filename": "poe-duc-680.txt",
    "size": 7838,
    "description": "The Duc De L'Omlette, by Edgar Allan Poe (1850)"
  },
  {
    "filename": "poe-eldorado-436.txt",
    "size": 1120,
    "description": "Eldorado, by Edgar Allan Poe (1849)"
  },
  {
    "filename": "poe-eleonora-437.txt",
    "size": 13691,
    "description": "Eleonora, by Edgar Allan Poe (1850)"
  },
  {
    "filename": "poe-elizabeth-438.txt",
    "size": 898,
    "description": "Elizabeth, by Edgar Allan Poe (1850)"
  },
  {
    "filename": "poe-enigma-427.txt",
    "size": 851,
    "description": "An Enigma, by Edgar Allan Poe (1848)"
  },
  {
    "filename": "poe-eulalie-439.txt",
    "size": 1139,
    "description": "Eulalie, by Edgar Allan Poe (1845)"
  },
  {
    "filename": "poe-evening-440.txt",
    "size": 1074,
    "description": "Evening Star, by Edgar Allan Poe (1827)"
  },
  {
    "filename": "poe-facts-681.txt",
    "size": 20881,
    "description": "The Facts in the Case of m. Valdemar, by Edgar Allan Poe (1845)"
  },
  {
    "filename": "poe-fairy-441.txt",
    "size": 1897,
    "description": "Fairy-Land, by Edgar Allan Poe (1829)"
  },
  {
    "filename": "poe-fall-682.txt",
    "size": 42829,
    "description": "The Fall of the House of Usher, by Edgar Allan Poe (1839)"
  },
  {
    "filename": "poe-for-442.txt",
    "size": 3862,
    "description": "For Annie, by Edgar Allan Poe (1849)"
  },
  {
    "filename": "poe-four-443.txt",
    "size": 16407,
    "description": "Four Beasts in One: The Hom-Cameleopard, by Edgar Allan Poe (1850)"
  },
  {
    "filename": "poe-gold-683.txt",
    "size": 78068,
    "description": "The Gold-Bug, by Edgar Allan Poe (1843)"
  },
  {
    "filename": "poe-hans-444.txt",
    "size": 108827,
    "description": "Hans Phaall, by Edgar Allan Poe (1850)"
  },
  {
    "filename": "poe-happiest-684.txt",
    "size": 1116,
    "description": "The Happiest Day, The Happiest Hour, by Edgar Allan Poe (1827)"
  },
  {
    "filename": "poe-haunted-685.txt",
    "size": 2032,
    "description": "The Haunted Palace, by Edgar Allan Poe (1839)"
  },
  {
    "filename": "poe-hop-445.txt",
    "size": 21016,
    "description": "Hop-Frog or the Eight Chained Ourang-Outangs, by Edgar Allan Poe (1850)"
  },
  {
    "filename": "poe-how-446.txt",
    "size": 22422,
    "description": "How to Write a Blackwood Article, by Edgar Allan Poe (1850)"
  },
  {
    "filename": "poe-hymn-447.txt",
    "size": 661,
    "description": "Hymn, by Edgar Allan Poe, by Edgar Allan Poe (1835)"
  },
  {
    "filename": "poe-imp-686.txt",
    "size": 14097,
    "description": "The Imp of the Perverse, by Edgar Allan Poe (1850)"
  },
  {
    "filename": "poe-island-687.txt",
    "size": 11749,
    "description": "The Island of the Fay, by Edgar Allan Poe (1850)"
  },
  {
    "filename": "poe-israfel-448.txt",
    "size": 1981,
    "description": "Israfel, by Edgar Allan Poe (1831)"
  },
  {
    "filename": "poe-king-449.txt",
    "size": 28195,
    "description": "King Pest, by Edgar Allan Poe (1835)"
  },
  {
    "filename": "poe-lake-688.txt",
    "size": 1073,
    "description": "The Lake. To --, by Edgar Allan Poe (1827)"
  },
  {
    "filename": "poe-landors-450.txt",
    "size": 28160,
    "description": "Landor's Cottage: A Pendant to \"The Domain of Arnheim\", by Edgar Allan Poe (1850"
  },
  {
    "filename": "poe-landscape-689.txt",
    "size": 21433,
    "description": "The Landscape Garden, by Edgar Allan Poe (1850)"
  },
  {
    "filename": "poe-lenore-451.txt",
    "size": 1888,
    "description": "Lenore, by Edgar Allan Poe (1831)"
  },
  {
    "filename": "poe-ligeia-452.txt",
    "size": 35863,
    "description": "Ligeia, by Edgar Allan Poe (1838)"
  },
  {
    "filename": "poe-lionizing-453.txt",
    "size": 10098,
    "description": "Lionizing, by Edgar Allan Poe (1850)"
  },
  {
    "filename": "poe-literary-454.txt",
    "size": 44389,
    "description": "Literary Life of Thingum Bob, Esq., by Edgar Allan Poe (1850)"
  },
  {
    "filename": "poe-loss-455.txt",
    "size": 27481,
    "description": "Loss of Breath, by Edgar Allan Poe (1850)"
  },
  {
    "filename": "poe-man-690.txt",
    "size": 20767,
    "description": "The Man of the Crowd, by Edgar Allan Poe (1850)"
  },
  {
    "filename": "poe-man-691.txt",
    "size": 21624,
    "description": "The Man That Was Used Up, by Edgar Allan Poe (1850)"
  },
  {
    "filename": "poe-marginalia-417.txt",
    "size": 36516,
    "description": "Marginalia, , by Edgar Allan Poe (1844-1849)"
  },
  {
    "filename": "poe-masque-692.txt",
    "size": 14008,
    "description": "The Masque of the Red Death, by Edgar Allan Poe (1842)"
  },
  {
    "filename": "poe-mellonta-456.txt",
    "size": 32735,
    "description": "Mellonta Tauta, by Edgar Allan Poe (1850)"
  },
  {
    "filename": "poe-mesmeric-556.txt",
    "size": 22139,
    "description": "Mesmeric Revelation, by Edgar Allan Poe (1850)"
  },
  {
    "filename": "poe-metzengerstein-557.txt",
    "size": 20672,
    "description": "Metzengerstein, by Edgar Allan Poe (1850)"
  },
  {
    "filename": "poe-morella-558.txt",
    "size": 12086,
    "description": "Morella, by Edgar Allan Poe (1850)"
  },
  {
    "filename": "poe-morning-559.txt",
    "size": 11295,
    "description": "Morning on the Wissahiccon, by Edgar Allan Poe (1850)"
  },
  {
    "filename": "poe-ms-560.txt",
    "size": 23861,
    "description": "Ms. Found In a Bottle, by Edgar Allan Poe (1833)"
  },
  {
    "filename": "poe-murders-693.txt",
    "size": 79547,
    "description": "The Murders In the Rue Morgue, by Edgar Allan Poe (1841)"
  },
  {
    "filename": "poe-mystery-694.txt",
    "size": 115271,
    "description": "The Mystery of Marie Roget, by Edgar Allan Poe (1850)"
  },
  {
    "filename": "poe-mystification-561.txt",
    "size": 18721,
    "description": "Mystification, by Edgar Allan Poe (1850)"
  },
  {
    "filename": "poe-narrative-695.txt",
    "size": 403183,
    "description": "The Narrative of Arthur Gordon Pym of Nantucket, by Edgar Allan Poe (1850)"
  },
  {
    "filename": "poe-never-562.txt",
    "size": 21948,
    "description": "Never Bet the Devil Your Head, by Edgar Allan Poe (1850)"
  },
  {
    "filename": "poe-oblong-696.txt",
    "size": 25876,
    "description": "The Oblong Box, by Edgar Allan Poe (1850)"
  },
  {
    "filename": "poe-oval-697.txt",
    "size": 7337,
    "description": "The Oval Portrait, by Edgar Allan Poe (1850)"
  },
  {
    "filename": "poe-pit-110.txt",
    "size": 34486,
    "description": "The Pit and the Pendulum, by Edgar Allan Poe (1895)"
  },
  {
    "filename": "poe-pit-698.txt",
    "size": 34443,
    "description": "The Pit and the Pendulum, by Edgar Allan Poe (1842)"
  },
  {
    "filename": "poe-power-699.txt",
    "size": 8296,
    "description": "The Power of Words, by Edgar Allan Poe (1850)"
  },
  {
    "filename": "poe-predicament-421.txt",
    "size": 20522,
    "description": "A Predicament, by Edgar Allan Poe (1838)"
  },
  {
    "filename": "poe-premature-700.txt",
    "size": 32122,
    "description": "The Premature Burial, by Edgar Allan Poe (1850)"
  },
  {
    "filename": "poe-purloined-701.txt",
    "size": 41289,
    "description": "The Purloined Letter, by Edgar Allan Poe (1845)"
  },
  {
    "filename": "poe-raven-702.txt",
    "size": 7105,
    "description": "The Raven, by Edgar Allan Poe (1845)"
  },
  {
    "filename": "poe-romance-563.txt",
    "size": 999,
    "description": "Romance, by Edgar Allan Poe (1829)"
  },
  {
    "filename": "poe-scenes-653.txt",
    "size": 31619,
    "description": "Scenes from Politian, by Edgar Allan Poe (1835"
  },
  {
    "filename": "poe-serenade-654.txt",
    "size": 1144,
    "description": "Serenade, by Edgar Allan Poe (1850)"
  },
  {
    "filename": "poe-shadow-655.txt",
    "size": 5836,
    "description": "Shadow, a Parable, by Edgar Allan Poe (1850)"
  },
  {
    "filename": "poe-silence-656.txt",
    "size": 7614,
    "description": "Silence: A Fable, by Edgar Allan Poe (1837)"
  },
  {
    "filename": "poe-sleeper-703.txt",
    "size": 2600,
    "description": "The Sleeper, by Edgar Allan Poe (1831)"
  },
  {
    "filename": "poe-some-657.txt",
    "size": 36724,
    "description": "Some Words With a Mummy, by Edgar Allan Poe (1850)"
  },
  {
    "filename": "poe-song-658.txt",
    "size": 783,
    "description": "Song, by Edgar Allan Poe (1827)"
  },
  {
    "filename": "poe-sonnet-659.txt",
    "size": 944,
    "description": "Sonnet: Silence, by Edgar Allan Poe (1840)"
  },
  {
    "filename": "poe-sonnet-660.txt",
    "size": 854,
    "description": "Sonnet: To Science, by Edgar Allan Poe (1829)"
  },
  {
    "filename": "poe-sonnet-661.txt",
    "size": 850,
    "description": "Sonnet: To Zante, by Edgar Allan Poe (1837)"
  },
  {
    "filename": "poe-spectacles-704.txt",
    "size": 54699,
    "description": "The Spectacle, by Edgar Allan Poe (1850)"
  },
  {
    "filename": "poe-sphinx-705.txt",
    "size": 10623,
    "description": "The Sphinx, by Edgar Allan Poe (1850)"
  },
  {
    "filename": "poe-spirits-662.txt",
    "size": 1280,
    "description": "Spirits of the Dead, by Edgar Allan Poe (1827)"
  },
  {
    "filename": "poe-stanzas-663.txt",
    "size": 2063,
    "description": "Stanzas, by Edgar Allan Poe (1827)"
  },
  {
    "filename": "poe-system-706.txt",
    "size": 39355,
    "description": "The System of Dr. Tarr and Prof. Fether, by Edgar Allan Poe (1850)"
  },
  {
    "filename": "poe-tale-422.txt",
    "size": 23520,
    "description": "A Tale of Ragged Mountains, by Edgar Allan Poe (1850)"
  },
  {
    "filename": "poe-tale-664.txt",
    "size": 8585,
    "description": "Tale of Jerusalem, by Edgar Allan Poe (1850)"
  },
  {
    "filename": "poe-tamerlane-665.txt",
    "size": 10085,
    "description": "Tamerlane, by Edgar Allan Poe (1827)"
  },
  {
    "filename": "poe-tell-707.txt",
    "size": 11543,
    "description": "The Tell-Tale Heart, by Edgar Allan Poe (1843)"
  },
  {
    "filename": "poe-thou-416.txt",
    "size": 34088,
    "description": "Thou Art the Man, by Edgar Allan Poe (1850)"
  },
  {
    "filename": "poe-thousand-708.txt",
    "size": 43737,
    "description": "The Thousand-and-Second Tale of Scheherazade, by Edgar Allan Poe (1850)"
  },
  {
    "filename": "poe-three-710.txt",
    "size": 13905,
    "description": "Three Sundays in a Week, by Edgar Allan Poe (1850)"
  },
  {
    "filename": "poe-to-711.txt",
    "size": 623,
    "description": "To --, by Edgar Allan Poe (1830)"
  },
  {
    "filename": "poe-to-712.txt",
    "size": 1507,
    "description": "To -- --, by Edgar Allan Poe (1829)"
  },
  {
    "filename": "poe-to-713.txt",
    "size": 715,
    "description": "To F--, by Edgar Allan Poe (1835)"
  },
  {
    "filename": "poe-to-714.txt",
    "size": 558,
    "description": "To F--S S. O--D, by Edgar Allan Poe (1835)"
  },
  {
    "filename": "poe-to-715.txt",
    "size": 773,
    "description": "To Helen, by Edgar Allan Poe (1831)"
  },
  {
    "filename": "poe-to-716.txt",
    "size": 3274,
    "description": "To Helen, by Edgar Allan Poe (1848)"
  },
  {
    "filename": "poe-to-717.txt",
    "size": 952,
    "description": "To M--, by Edgar Allan Poe (1830)"
  },
  {
    "filename": "poe-to-718.txt",
    "size": 1035,
    "description": "To M.L.S., by Edgar Allan Poe (1847)"
  },
  {
    "filename": "poe-to-719.txt",
    "size": 837,
    "description": "To My Mother, by Edgar Allan Poe (1849)"
  },
  {
    "filename": "poe-to-720.txt",
    "size": 1160,
    "description": "To One In Paradise, by Edgar Allan Poe (1834)"
  },
  {
    "filename": "poe-to-721.txt",
    "size": 718,
    "description": "To The River, by Edgar Allan Poe (1829)"
  },
  {
    "filename": "poe-ulalame-722.txt",
    "size": 4493,
    "description": "Ulalame, by Edgar Allan Poe (1847)"
  },
  {
    "filename": "poe-valentine-424.txt",
    "size": 1146,
    "description": "A Valentine, by Edgar Allan Poe (1846)"
  },
  {
    "filename": "poe-valley-709.txt",
    "size": 1256,
    "description": "The Valley of Unrest, by Edgar Allan Poe (1831)"
  },
  {
    "filename": "poe-von-723.txt",
    "size": 16135,
    "description": "Von Kempelen and his Discovery, by Edgar Allan Poe (1850)"
  },
  {
    "filename": "poe-why-724.txt",
    "size": 13123,
    "description": "Why The Little Frenchman Wears His Hand In a Sling, by Edgar Allan Poe (1850)"
  },
  {
    "filename": "poe-william-725.txt",
    "size": 46636,
    "description": "William Wilson, by Edgar Allan Poe (1839)"
  },
  {
    "filename": "poe-x-726.txt",
    "size": 14209,
    "description": "X-Ing a Paragrab, by Edgar Allan Poe (1850)"
  },
  {
    "filename": "raven.txt",
    "size": 7040,
    "description": "The Raven, by Edgar Allen Poe (1845)"
  },
  {
    "filename": "rue.poe",
    "size": 79042,
    "description": "The Murders in the Rue Morgue"
  },
  {
    "filename": "telltale.txt",
    "size": 11404,
    "description": "The Tell Tale Heart, by Edgar Allen Poe (May 1993)"
  },
  {
    "filename": "the_pit.txt",
    "size": 34485,
    "description": "The Pit and the Pendulum, by Edgar Allan Poe"
  },
  {
    "filename": "usher.poe",
    "size": 43416,
    "description": "The Fall of the House of Usher, by Edgar Allan Poe"
  }
]
