[
  {
    "filename": "gecaa-01",
    "size": 10260,
    "description": "Computing Across America by Steven K. Roberts: Bicycle Odyssey of a High Tech Nomad (1986)"
  },
  {
    "filename": "gecaa-02",
    "size": 12796,
    "description": "Computing Across America by Steven K. Roberts: Freedom Vs. Security: How to Beat the Tradeoff (1986)"
  },
  {
    "filename": "gecaa-03",
    "size": 8826,
    "description": "Computing Across America by Steven K. Roberts: Granby, Colorado (1986)"
  },
  {
    "filename": "gecaa-04",
    "size": 7861,
    "description": "Computing Across America by Steven K. Roberts: Bainbridge Island, WA (1986)"
  },
  {
    "filename": "gecaa-05",
    "size": 5524,
    "description": "Computing Across America by Steven K. Roberts: Music, Mosfests and Sunsets (1986)"
  },
  {
    "filename": "gecaa-06",
    "size": 4464,
    "description": "Computing Across America by Steven K. Roberts: The Debugging Marathon (1986)"
  },
  {
    "filename": "gecaa-07",
    "size": 4458,
    "description": "Computing Across America by Steven K. Roberts: A Bleary 3am Monologue (1986)"
  },
  {
    "filename": "gecaa-08",
    "size": 6071,
    "description": "Computing Across America by Steven K. Roberts: The First 100 Miles (1986)"
  },
  {
    "filename": "gecaa-09",
    "size": 4901,
    "description": "Computing Across America by Steven K. Roberts: Windows on Washington (1986)"
  },
  {
    "filename": "gecaa-10",
    "size": 7658,
    "description": "Computing Across America by Steven K. Roberts: Rain Country Hospitality (1986)"
  },
  {
    "filename": "gecaa-11",
    "size": 8508,
    "description": "Computing Across America by Steven K. Roberts: Strangeness and Halloween (1986)"
  },
  {
    "filename": "gecaa-12",
    "size": 7865,
    "description": "Computing Across America by Steven K. Roberts: Flying on the Coast (1986)"
  },
  {
    "filename": "gecaa-13",
    "size": 9660,
    "description": "Computing Across America by Steven K. Roberts: Arrival in the Promised Land (1986)"
  },
  {
    "filename": "gecaa-14",
    "size": 8475,
    "description": "Computing Across America by Steven K. Roberts: Adventures in South Ecotopia (1986)"
  },
  {
    "filename": "gecaa-15",
    "size": 10395,
    "description": "Computing Across America by Steven K. Roberts: Humboldt County Play (1986)"
  },
  {
    "filename": "gecaa-16",
    "size": 7265,
    "description": "Computing Across America by Steven K. Roberts: Computing Across Humboldt County? (1986)"
  },
  {
    "filename": "gecaa-17",
    "size": 19702,
    "description": "Computing Across America by Steven K. Roberts: 25 Years in an Afternoon (1986)"
  },
  {
    "filename": "gecaa-18",
    "size": 11420,
    "description": "Computing Across America by Steven K. Roberts: Be It Ever So Humboldt (1987)"
  },
  {
    "filename": "gecaa-19",
    "size": 13277,
    "description": "Computing Across America by Steven K. Roberts: A Week of Movement! (1987)"
  },
  {
    "filename": "gecaa-20",
    "size": 6941,
    "description": "Computing Across America by Steven K. Roberts: Changing the World in Mendocino (1987)"
  },
  {
    "filename": "gecaa-21",
    "size": 13089,
    "description": "Computing Across America by Steven K. Roberts: Accident and Aftermath (1987)"
  },
  {
    "filename": "gecaa-22",
    "size": 8394,
    "description": "Computing Across America by Steven K. Roberts: Sonomarin Snapshots (1987)"
  },
  {
    "filename": "gecaa-23",
    "size": 11746,
    "description": "Computing Across America by Steven K. Roberts: San Francisco En Passant (1987)"
  },
  {
    "filename": "gecaa-24",
    "size": 11659,
    "description": "Computing Across America by Steven K. Roberts: Taking Care of Business (1987)"
  },
  {
    "filename": "gecaa-25",
    "size": 8791,
    "description": "Computing Across America by Steven K. Roberts: Silicon Valley Delights (1987)"
  },
  {
    "filename": "gecaa-26",
    "size": 14009,
    "description": "Computing Across America by Steven K. Roberts: El Camino Reality (1987)"
  },
  {
    "filename": "gecaa-27",
    "size": 9988,
    "description": "Computing Across America by Steven K. Roberts: Roughing It In Palo Alto (1987)"
  },
  {
    "filename": "gecaa-28",
    "size": 9869,
    "description": "Computing Across America by Steven K. Roberts: Escape from the City (1987)"
  },
  {
    "filename": "gecaa-29",
    "size": 11743,
    "description": "Computing Across America by Steven K. Roberts: Kinetic Madness (1987)"
  },
  {
    "filename": "gecaa-30",
    "size": 10202,
    "description": "Computing Across America by Steven K. Roberts: Solstice on Cloud's Rest (1987)"
  },
  {
    "filename": "gecaa-31",
    "size": 16738,
    "description": "Computing Across America by Steven K. Roberts: Hiking Heaven, Hiking Hell (1987)"
  },
  {
    "filename": "gecaa-32",
    "size": 12559,
    "description": "Computing Across America by Steven K. Roberts: Snapshots of Absurdity (1987)"
  },
  {
    "filename": "gecaa-33",
    "size": 12117,
    "description": "Computing Across America by Steven K. Roberts: Notes from Ohio (1987)"
  },
  {
    "filename": "gecaa-34",
    "size": 7763,
    "description": "Computing Across America by Steven K. Roberts: The Other Woman (1987)"
  },
  {
    "filename": "gecaa-35",
    "size": 15966,
    "description": "Computing Across America by Steven K. Roberts: Notes from the Past (1987)"
  },
  {
    "filename": "gecaa-36",
    "size": 18613,
    "description": "Computing Across America by Steven K. Roberts: Junkyards and Tollbridges (1987)"
  },
  {
    "filename": "gecaa-37",
    "size": 11835,
    "description": "Computing Across America by Steven K. Roberts: Technology Update (1987)"
  },
  {
    "filename": "gecaa-38",
    "size": 11197,
    "description": "Computing Across America by Steven K. Roberts: Rocking Into the Bible Belt (1987)"
  },
  {
    "filename": "gecaa-39",
    "size": 16898,
    "description": "Computing Across America by Steven K. Roberts: Blood in the Spokes (1987)"
  },
  {
    "filename": "gecaa-40",
    "size": 20504,
    "description": "Computing Across America by Steven K. Roberts: And Now For Something Completely Different (1987)"
  },
  {
    "filename": "gecaa-41",
    "size": 20722,
    "description": "Computing Across America by Steven K. Roberts: The CAA Transit Authority (1987)"
  },
  {
    "filename": "gecaa-42",
    "size": 16028,
    "description": "Computing Across America by Steven K. Roberts: Key Wasted (1987)"
  },
  {
    "filename": "gecaa-43",
    "size": 20741,
    "description": "Computing Across America by Steven K. Roberts: Gambling, Gadgets and God (1987)"
  },
  {
    "filename": "gecaa-44",
    "size": 11915,
    "description": "Computing Across America by Steven K. Roberts: Born Toulouse (1988)"
  },
  {
    "filename": "gecaa-45",
    "size": 11589,
    "description": "Computing Across America by Steven K. Roberts: Pregnant Paws (1988)"
  },
  {
    "filename": "gecaa-46",
    "size": 23814,
    "description": "Computing Across America by Steven K. Roberts: The Hobo Concertio (1988)"
  },
  {
    "filename": "gecaa-47",
    "size": 13319,
    "description": "Computing Across America by Steven K. Roberts: Hackers 4.0 (1988)"
  },
  {
    "filename": "gecaa-48",
    "size": 8186,
    "description": "Computing Across America by Steven K. Roberts: Dangerous Influences (1988)"
  },
  {
    "filename": "gecaa-49",
    "size": 15784,
    "description": "Computing Across America by Steven K. Roberts: Nomadic Research Labs (1989)"
  },
  {
    "filename": "gecaa-50",
    "size": 23424,
    "description": "Computing Across America by Steven K. Roberts: Uh, Fairs of the Heart? (1989)"
  },
  {
    "filename": "gecaa-51",
    "size": 13141,
    "description": "Computing Across America by Steven K. Roberts: The Midnight Attack (1989)"
  },
  {
    "filename": "gecaa-52",
    "size": 4942,
    "description": "Computing Across America by Steven K. Roberts: Naked at the Epicenter (1989)"
  },
  {
    "filename": "gecaa-53",
    "size": 24490,
    "description": "Computing Across America by Steven K. Roberts: Call to Nomadness (1990)"
  },
  {
    "filename": "gecaa-54",
    "size": 14240,
    "description": "Computing Across America by Steven K. Roberts: Immersed in Santa Cruz (1990)"
  },
  {
    "filename": "gecaa-55",
    "size": 5558,
    "description": "Computing Across America by Steven K. Roberts: Tidal Passion (1990)"
  }
]
