[
  {
    "filename": "abe-anan.txt",
    "size": 2394,
    "description": "The Gettysburg Banana Address, from the Banana Republic BBS"
  },
  {
    "filename": "aptel89.txt",
    "size": 6913,
    "description": "Applied Telecommunications Goes to Computing '89, by Iceman of the Banana Republic BBS"
  },
  {
    "filename": "aptel90.txt",
    "size": 6919,
    "description": "Applied Telecommunications Goes to Computing '90, by Iceman of the Banana Republic BBS"
  },
  {
    "filename": "ban_relg.txt",
    "size": 3943,
    "description": "The Divine Inspiration of the Great Banana, from the Banana Republic BBS"
  },
  {
    "filename": "banana.txt",
    "size": 21858,
    "description": "Six Men and a Banana, from the Banana Republic BBS"
  },
  {
    "filename": "barri.txt",
    "size": 8194,
    "description": "The Story of Barri, an Unusual Banana, from the Banana Republic BBS"
  },
  {
    "filename": "beau.txt",
    "size": 3932,
    "description": "Baron Beauregard of the Baskervilles \"The Bastard\", from the Banana Republic BBS"
  },
  {
    "filename": "br_ode.txt",
    "size": 812,
    "description": "Ode to the Banana Republic BBS by The Great Rabbi Bajzheet"
  },
  {
    "filename": "brparty.txt",
    "size": 9389,
    "description": "Report from the BR Party, held by the Banana Republic BBS (November 27, 1989)"
  },
  {
    "filename": "card.txt",
    "size": 6734,
    "description": "A Brief Guide to Magentic Strip and Smart Cards, by Iceman of the Banana Republic BBS"
  },
  {
    "filename": "dictate.txt",
    "size": 7354,
    "description": "El Presidente's Tutorial for Sysops, by El Presidente of the Banana Republic BBS"
  },
  {
    "filename": "environ.txt",
    "size": 2496,
    "description": "What is \"Environmentally Friendly\"? by El Presidente of the Banana Republic BBS"
  },
  {
    "filename": "gbs.txt",
    "size": 16598,
    "description": "Metaphysical Ambience by A. McCully and Rez Errection of The Banana Republic BBS"
  },
  {
    "filename": "history.txt",
    "size": 36394,
    "description": "Iceman's History of the World, by Iceman of the Banana Republic BBS"
  },
  {
    "filename": "intrview.txt",
    "size": 2091,
    "description": "An Interview with El Presidente, by Iceman of the Banana Republic BBS"
  },
  {
    "filename": "logoff.001",
    "size": 883,
    "description": "Logoff Screen: Brought To you by the Letters B and R"
  },
  {
    "filename": "logoff.002",
    "size": 293,
    "description": "Logoff Screen: Thank You, Barri"
  },
  {
    "filename": "logoff.003",
    "size": 215,
    "description": "Logoff Screen: Oh, the Burden"
  },
  {
    "filename": "logoff.004",
    "size": 655,
    "description": "Logoff Screen: And Lo it Came to Pass"
  },
  {
    "filename": "logoff.005",
    "size": 4654,
    "description": "Logoff Screen: Roll the Credits (1990)"
  },
  {
    "filename": "nzfones.txt",
    "size": 7501,
    "description": "Phreaking in NZ by The Defecator of Banana Republic BBS (January 24, 1989)"
  },
  {
    "filename": "sph-1.txt",
    "size": 2985,
    "description": "The Story of the Sphereoids, by the Bat Bastard of Banana Republic BBS"
  },
  {
    "filename": "sph-2.txt",
    "size": 1990,
    "description": "The Spheroids, Part 2, by Bat Bastard of Banana Republic BBS"
  },
  {
    "filename": "sph-3.txt",
    "size": 3188,
    "description": "The Sphereoids Part 3, by Bat Bastard of Banana Republic BBS"
  },
  {
    "filename": "sph-4.txt",
    "size": 3157,
    "description": "The Sphereoids Part 4, by Bat Bastard of the Banana Republic BBS"
  },
  {
    "filename": "sph-5.txt",
    "size": 3399,
    "description": "The Sphereoids Part 5, by Bat Bastard of Banana Republic BBS"
  },
  {
    "filename": "sph-6.txt",
    "size": 4130,
    "description": "The Sphereoids Part VI, by Bat Bastard of Banana Republic BBS"
  },
  {
    "filename": "sph-7.txt",
    "size": 3279,
    "description": "The Spheroids Part 7 by Bat Bastard of Banana Republic BBS"
  },
  {
    "filename": "sph-8.txt",
    "size": 5508,
    "description": "The Sphereoids Part 8, by Bat Bastard of Banana Republic BBS"
  },
  {
    "filename": "stamps.txt",
    "size": 4029,
    "description": "Cheating Stamps version 2.0 by Pharlap Johnson of The Banana Republic BBS"
  },
  {
    "filename": "unixhack.txt",
    "size": 68012,
    "description": "The Iceman's Guide to UNIX Hacking by the Iceman of Banana Republic BBS (June 1, 1990)"
  },
  {
    "filename": "welcome.001",
    "size": 400,
    "description": "Welcome Screen: Please Bare With us"
  },
  {
    "filename": "welcome.002",
    "size": 632,
    "description": "Welcome Screen: It's Christmas Time"
  },
  {
    "filename": "welcome.003",
    "size": 683,
    "description": "Welcome Screen: Is This Fantasy Island?"
  },
  {
    "filename": "welcome.004",
    "size": 1310,
    "description": "Welcome Screen: Citizens of the Banana Republic!"
  },
  {
    "filename": "welcome.005",
    "size": 1054,
    "description": "Welcome Screen: Hello, you Sweet Lovely User Person!!!!!"
  },
  {
    "filename": "welcome.006",
    "size": 674,
    "description": "Welcome Screen: Picture It..."
  },
  {
    "filename": "welcome.007",
    "size": 910,
    "description": "Welcome Screen: Oh Woe!"
  },
  {
    "filename": "welcome.008",
    "size": 1119,
    "description": "Welcome Screen: El Presidente Seeks Your Help"
  },
  {
    "filename": "welcome.009",
    "size": 557,
    "description": "Welcome Screen: QUIET JOHNNY"
  },
  {
    "filename": "welcome.010",
    "size": 616,
    "description": "Welcome Screen: M U N J A"
  },
  {
    "filename": "welcome.011",
    "size": 1954,
    "description": "Welcome Screen: El Presidente, etc, etc"
  },
  {
    "filename": "welcome.012",
    "size": 936,
    "description": "Welcome Screen: Teenage Ninja Mutant Turtles"
  },
  {
    "filename": "welcome.013",
    "size": 808,
    "description": "Welcome Screen: The Spanish Civil War"
  },
  {
    "filename": "welcome.014",
    "size": 420,
    "description": "Welcome Screen: Sound the Alarm"
  },
  {
    "filename": "welcome.015",
    "size": 592,
    "description": "Welcome Screen: Radical Changes in Immigration"
  },
  {
    "filename": "welcome.016",
    "size": 787,
    "description": "Welcome Screen: Send in a Major Limb"
  },
  {
    "filename": "welcome.017",
    "size": 517,
    "description": "Welcome Screen: The Appeal to the United Nations"
  },
  {
    "filename": "welcome.018",
    "size": 2946,
    "description": "Welcome Screen: no no no no no"
  },
  {
    "filename": "welcome.019",
    "size": 648,
    "description": "Welcome Screen: It Works!"
  }
]
