[
  {
    "filename": "pppv01.txt",
    "size": 5525,
    "description": "Phucked Phreak Productions #1: Stuff About Stoners (January 28, 1991)"
  },
  {
    "filename": "pppv02.txt",
    "size": 5677,
    "description": "Phucked Phreak Productions #2: Cool Things To Do At Kmart And Othe Public Places (February 5, 1991)"
  },
  {
    "filename": "pppv03.txt",
    "size": 4720,
    "description": "Phucked Phreak Productions #3: The Shock Box (February 14, 1991)"
  },
  {
    "filename": "pppv06.txt",
    "size": 6869,
    "description": "Phucked Phreak Productions #6: Fighting to Win (February 22, 1991)"
  },
  {
    "filename": "pppv07.txt",
    "size": 6377,
    "description": "Phucked Phreak Productions #7: Alternatives to Psychedelics - Pt. 1   Lucid Dreaming (February 1991)"
  },
  {
    "filename": "pppv08.txt",
    "size": 9090,
    "description": "Phucked Phreak Productions #8: Computing Society Part II (March 15, 1991)"
  },
  {
    "filename": "pppv09.txt",
    "size": 66480,
    "description": "Phucked Phreak Productions #9: Civil Disobedience (January 28, 1991)"
  },
  {
    "filename": "pppv10.txt",
    "size": 3880,
    "description": "Phucked Phreak Productions #10: 50 Ways To Hate Your Neighbor (March 27, 1991)"
  },
  {
    "filename": "pppv11.txt",
    "size": 6872,
    "description": "Phucked Phreak Productions #11: Things Cool Stoners Know And So Should You (PT2) (March 27, 1991)"
  }
]
