[
  {
    "filename": "anon-mail.txt",
    "size": 3260,
    "description": "Hackerdevil's Guide to Sending Anonymous E-mails to Someone Without a Program"
  },
  {
    "filename": "arpa.man",
    "size": 86379,
    "description": "Arpanet Information Brochure (December 1985)"
  },
  {
    "filename": "arpanet.hac",
    "size": 4439,
    "description": "Screwing around with Arpanet, by Hackman"
  },
  {
    "filename": "arpanet.txt",
    "size": 4736,
    "description": "Attacking Arpanet by the Hackman of Hollow Hills"
  },
  {
    "filename": "arpanet1.con",
    "size": 4505,
    "description": "Hacking Arpanet, by The Hackman of The Hollow Hills"
  },
  {
    "filename": "arpanet1.txt",
    "size": 7040,
    "description": "Hacking ARPANET Part I, by The Source of The Listening Post"
  },
  {
    "filename": "arpanet2.txt",
    "size": 12160,
    "description": "Hacking ARPANET Part II by The Source of The Listening Post"
  },
  {
    "filename": "arpanet3.txt",
    "size": 7552,
    "description": "Hacking ARPANET Part III by The Source"
  },
  {
    "filename": "arpanet4.txt",
    "size": 4608,
    "description": "Hacking ARPANET Part IV by The Source"
  },
  {
    "filename": "arpanet5.txt",
    "size": 8064,
    "description": "Hacking ARPANET Part V by The Source"
  },
  {
    "filename": "arpanet6.txt",
    "size": 13824,
    "description": "Hacking ARPANET Part VI by The Source"
  },
  {
    "filename": "bctj1_04.txt",
    "size": 7457,
    "description": "Ethernet Fields"
  },
  {
    "filename": "bomb.txt",
    "size": 8594,
    "description": "How to Send Fake Mail Using SMTP Servers by Hunter"
  },
  {
    "filename": "bump.txt",
    "size": 8231,
    "description": "Things that go Bump in the Net, by David Chess of IBM"
  },
  {
    "filename": "denning.txt",
    "size": 58773,
    "description": "Concerning Hackers who Break into Computer Systems (October 1, 1990)"
  },
  {
    "filename": "dial_5",
    "size": 5766,
    "description": "Dialout List #5, by Spin-Doc (February 22, 1994)"
  },
  {
    "filename": "dialout.txt",
    "size": 1785,
    "description": "A Collection of Internet Dial-Outs"
  },
  {
    "filename": "dialout1.txt",
    "size": 68938,
    "description": "Novice Manual on Using Outdial Modems by Blue Adept"
  },
  {
    "filename": "dialoutslst.hac",
    "size": 29446,
    "description": "(I)nter(N)et->(T)ym(N)et List Version 1.0 - January 1991 -"
  },
  {
    "filename": "disabled",
    "size": 3072,
    "description": "Disabled Membership Guidelines and Rules for PC-Pursuit (April 13, 1992)"
  },
  {
    "filename": "dummy22.txt",
    "size": 423772,
    "description": "Big Dummy's Guide to the Internet, v.2.2 by the Electronic Frontier Foundation (1994)"
  },
  {
    "filename": "emsss.txt",
    "size": 10317,
    "description": "The Art of E-Mail Forging and Tracing Explained in one Simple Text"
  },
  {
    "filename": "engineer.rpt",
    "size": 19456,
    "description": "Recommendations Report for File Transfer Via PC Pursuit (January 3, 1989)"
  },
  {
    "filename": "equip",
    "size": 2048,
    "description": "PC Pursuit: Equipment and Software Requirements"
  },
  {
    "filename": "esnet.txt",
    "size": 58650,
    "description": "Terminal Servers and Network Security, by C.E. Bemis and Lynn Hyman (December 12, 1990)"
  },
  {
    "filename": "exploits.txt",
    "size": 3714,
    "description": "A Collection of Exploits from Legions of the Underground"
  },
  {
    "filename": "firewall.txt",
    "size": 5904,
    "description": "Internet Firewall by Darkstar of NFG"
  },
  {
    "filename": "ftpintro",
    "size": 7861,
    "description": "Anonymous FTP: Questions, Answers, Etc. by Odin (January 5, 1990)"
  },
  {
    "filename": "fwall.txt",
    "size": 5834,
    "description": "Internet Firewalls, by DARKSTAR of NFG"
  },
  {
    "filename": "gtmhh-bs1.txt",
    "size": 12168,
    "description": "The Guide to (Mostly) Harmless Hacking: Beginners' Series #1 by Carolyn Meinel"
  },
  {
    "filename": "gtmhh-cc1.txt",
    "size": 19786,
    "description": "The Guide to (Mostly) Harmless Hacking: Computer Crime Law Issue #1 by Peter Thiruselvam and Carolyn Meinel"
  },
  {
    "filename": "gtmhh1-1.txt",
    "size": 9089,
    "description": "The Guide to (Mostly) Harmless Hacking: Volume 1 Number 1"
  },
  {
    "filename": "gtmhh1-2.txt",
    "size": 21648,
    "description": "The Guide to (Mostly) Harmless Hacking: Volume 1 Number 2 (How to Forge E-Mail)"
  },
  {
    "filename": "gtmhh1-3.txt",
    "size": 9158,
    "description": "The Guide to (Mostly) Harmless Hacking: Volume 1 Number 3 (How Finger Can Be Used)"
  },
  {
    "filename": "gtmhh1-4.txt",
    "size": 21770,
    "description": "The Guide to (Mostly) Harmless Hacking: Volume 1 Number 4 (How to Get Usenet Spammers Kicked Off)"
  },
  {
    "filename": "gtmhh1-5.txt",
    "size": 12585,
    "description": "The Guide to (Mostly) Harmless Hacking: Volume 1 Number 5 (How to Get Email Spammers Kicked off Their ISPs)"
  },
  {
    "filename": "gtmhh1-6.txt",
    "size": 18850,
    "description": "The Guide to (Mostly) Harmless Hacking: Volume 1 Number 6 (How to Nuke Offensive Web Sites)"
  },
  {
    "filename": "gtmhh2-2.txt",
    "size": 13662,
    "description": "The Guide to (Mostly) Harmless Hacking: Volume 2 Number 2 (Linux)"
  },
  {
    "filename": "gtmhh2-4.txt",
    "size": 37561,
    "description": "The Guide to (Mostly) Harmless Hacking: Volume 2 Number 4 (Port Surfing)"
  },
  {
    "filename": "gtmhh_bs31.txt",
    "size": 24576,
    "description": "The Guide to (Mostly) Harmless Hacking: Volume 3 Number 1 (How to Get a Shell Account)"
  },
  {
    "filename": "gtmhh_bs32.txt",
    "size": 15961,
    "description": "The Guide to (Mostly) Harmless Hacking: Volume 3 Number 2 (How to Get a Good Shell Account)"
  },
  {
    "filename": "hackenc.txt",
    "size": 143731,
    "description": "The Hackers Encyclopedia by Logik Bomb (1995-1996 First Edition)"
  },
  {
    "filename": "hackfaq.hac",
    "size": 106697,
    "description": "FAQ to #hack IRC Channel, Beta .007"
  },
  {
    "filename": "hackirc.txt",
    "size": 14052,
    "description": "Hacking IRC: The Definitive Guide by Klider (1996)"
  },
  {
    "filename": "hackpage.txt",
    "size": 10379,
    "description": "Hacking Webpages: THe Ultimate Guide by Virtual Circuit and Psychotic"
  },
  {
    "filename": "hackwww.txt",
    "size": 2843,
    "description": "How to Hack the WWWboard Message Board 2.0 by kM of Hackers Club (May 12, 1997)"
  },
  {
    "filename": "haq.01",
    "size": 35596,
    "description": "The HAQ Frequently Asked Questions by Belisarius (June 11, 1994)"
  },
  {
    "filename": "haq.02",
    "size": 30544,
    "description": "The HAQ Frequently Asked Questions by Belisarius (June 11, 1994) (Part II)"
  },
  {
    "filename": "haq.03",
    "size": 43250,
    "description": "The HAQ Frequently Asked Questions by Belisarius (June 11, 1994) (Part III)"
  },
  {
    "filename": "hexedit.txt",
    "size": 3454,
    "description": "How to Hexedit mIRC - Flood Protection/Nuking by Lord Somer of The Hackers Layer"
  },
  {
    "filename": "hi.txt",
    "size": 6924,
    "description": "Introduction to Hacking by KwAnTAM_PoZeEtroN"
  },
  {
    "filename": "hotmail.txt",
    "size": 6827,
    "description": "The Hotmail Hack"
  },
  {
    "filename": "how-to",
    "size": 4096,
    "description": "How to use the PC-Pursuit Service"
  },
  {
    "filename": "hqm.txt",
    "size": 4040,
    "description": "Hacking Quickmail for Macintosh by The Brighter Buccaneer (February 28, 1995)"
  },
  {
    "filename": "hwp.txt",
    "size": 12966,
    "description": "Hacking Web Pages, by Goat"
  },
  {
    "filename": "iad.txt",
    "size": 2157,
    "description": "How to Advertise by Msging, Inviting, or Noticing Everyone on a Server by Lord Somer"
  },
  {
    "filename": "ib.txt",
    "size": 3046,
    "description": "The Infinite Mailbomb by OSPbaboon and KwAnTAM_PoZeEtroN"
  },
  {
    "filename": "inet2000.txt",
    "size": 3703,
    "description": "The iNET 2000 Online Service, by Deicide (April 5, 1993)"
  },
  {
    "filename": "inetsec.txt",
    "size": 8903,
    "description": "A Guide to Internet Security: Becoming an Ubercracker and Becoming an Uberadmin to Stop Ubercrackers v1.1 by Christopher Klaus (December 5, 1993)"
  },
  {
    "filename": "internet.doc",
    "size": 13018,
    "description": "The Beginner's Guide to the Internet by Weaons Master"
  },
  {
    "filename": "internet.hac",
    "size": 49024,
    "description": "A Hacker's Guide to the Internet, by Gatsby 1991"
  },
  {
    "filename": "ipd.hac",
    "size": 2004,
    "description": "Countries connected to the International Packet Switching Stream by The Force"
  },
  {
    "filename": "iphijack.txt",
    "size": 46396,
    "description": "A Simple Attack Against TCP, by Laurent Joncheray"
  },
  {
    "filename": "irc.txt",
    "size": 2703,
    "description": "How Do I Hack ChanOP on IRC by Lord Somer"
  },
  {
    "filename": "ircfaq.txt",
    "size": 16758,
    "description": "The IRC Frequently Asked Questions (FAQ) (Junary 15, 1996)"
  },
  {
    "filename": "irchack.hac",
    "size": 14381,
    "description": "Hacking IRC the Definitive Guide"
  },
  {
    "filename": "irk.txt",
    "size": 1739,
    "description": "Irc Bouncing Around Klines Using a unix Shell by Lord Somer (August 5, 1997)"
  },
  {
    "filename": "jul93blt.txt",
    "size": 16431,
    "description": "Connecting to the Internet: Security Considerations"
  },
  {
    "filename": "mnemonic.txt",
    "size": 9692,
    "description": "The PC-Pursuit Service Availability"
  },
  {
    "filename": "na.txt",
    "size": 247107,
    "description": "Anonymity on the Internet, by L. Detweiler (April 30, 1994)"
  },
  {
    "filename": "netcat.txt",
    "size": 63679,
    "description": "Netcat Rules the Net Version 1.0"
  },
  {
    "filename": "netware1.txt",
    "size": 5670,
    "description": "Stuboy's Netware Hacking Tips, Compliments of StuBoy (1997)"
  },
  {
    "filename": "new-user",
    "size": 2048,
    "description": "PC-Pursuit: New User Information"
  },
  {
    "filename": "pingdumb.txt",
    "size": 5851,
    "description": "Pinging For Dummies, by ESQ (2000)"
  },
  {
    "filename": "pod.txt",
    "size": 5746,
    "description": "Large Packet Attacks, A.K.A. the Ping of Death"
  },
  {
    "filename": "proxy.txt",
    "size": 3474,
    "description": "Using Web Proxies to Disguise your IP Address by Hardcore Pawn"
  },
  {
    "filename": "rates",
    "size": 3072,
    "description": "PC-Pursuit Rate Schedule (July 1, 1989)"
  },
  {
    "filename": "rvprimer.txt",
    "size": 10979,
    "description": "The Racal_Vadic Primer v1.0 (For PC-Pursuit)"
  },
  {
    "filename": "smtp.txt",
    "size": 2545,
    "description": "Mail Spoofing Explained for the Beginner"
  },
  {
    "filename": "sniffer.txt",
    "size": 19746,
    "description": "FAQ: The Sniffer Frequently Asked Questions Version 1.7"
  },
  {
    "filename": "spoof.txt",
    "size": 13411,
    "description": "Defending Against Sequence Number Attacks by S. Bellovin of AT&T Research (May 1996)"
  },
  {
    "filename": "spoofing.txt",
    "size": 22066,
    "description": "Web Spoofing: An Internet Con Game by Edward W. Felten, Dirk Balfanz, Drew Dean, and Dan S. Wallach"
  },
  {
    "filename": "tc",
    "size": 10240,
    "description": "Terms and Conditions of Use for PC-Pursuit Service"
  },
  {
    "filename": "td.txt",
    "size": 11195,
    "description": "Telenet dialups for the US by HackerZ Hideout"
  },
  {
    "filename": "tele_iti.txt",
    "size": 31420,
    "description": "Telenet ITI Parameters for PC-Pursuit"
  },
  {
    "filename": "terminal.txt",
    "size": 13342,
    "description": "Terminal Identifiers List"
  },
  {
    "filename": "tips.txt",
    "size": 17685,
    "description": "Troubleshooting PC Pursuit Calls (January 18, 1997)"
  },
  {
    "filename": "unixwrap.txt",
    "size": 25638,
    "description": "TCP Wrapper: Network Monitoring, Access Control, and Booby Traps, by Wietse Venema"
  },
  {
    "filename": "usa.asc",
    "size": 138303,
    "description": "List of Dial-In Numbers for PC Pursuit"
  },
  {
    "filename": "usenethi.txt",
    "size": 4277,
    "description": "Some Advanced Usenet Hi-Jynx"
  },
  {
    "filename": "waninfo.txt",
    "size": 9788,
    "description": "Jester Sluggo Presents an Insight on Wide Area Networks"
  },
  {
    "filename": "world.asc",
    "size": 171453,
    "description": "Worldwide Phone Numbers of Dial-In to PC-Pursuit"
  },
  {
    "filename": "yanoff.txt",
    "size": 44889,
    "description": "Special Internet Collections: Last Update 5/16/1994 by Scott Yanoff"
  }
]
