[
  {
    "filename": "808-elit.txt",
    "size":  5817,
    "description": "How to Be Elite, by 808 State (1991)"
  },
  {
    "filename": "anarch.hum",
    "size":  5680,
    "description": "Anarchists: What a bunch of Pussies! By Mr. Curious"
  },
  {
    "filename": "anarchy.hum",
    "size":  3125,
    "description": "How to be an Anarchist (Probably should be REAL ANARCHISTS...)"
  },
  {
    "filename": "anklebyt.txt",
    "size":  11102,
    "description": "The Real Anklebyter's Guide"
  },
  {
    "filename": "bangers.txt",
    "size":  3093,
    "description": "The Real Guide to Headbangers Volume 2: By Night Hawk and Night Ranger"
  },
  {
    "filename": "compnerd.hum",
    "size":  3930,
    "description": "How to be a Computer Nerd (Also known as \"REAL NERDS\")"
  },
  {
    "filename": "engineer.txt",
    "size":  1548,
    "description": "Real Engineers"
  },
  {
    "filename": "k00ld00d.txt",
    "size":  5069,
    "description": "The History of Real K-K00l D00Ds by The Edge"
  },
  {
    "filename": "killnerd.hum",
    "size":  5680,
    "description": "Spotting and Killing Nerds by John Smith and Sorcerer's Apprentice"
  },
  {
    "filename": "kooldoo4.txt",
    "size":  8409,
    "description": "K-K00L D00Ds Volume 4, by The Radioactive Snail"
  },
  {
    "filename": "lechhate.hum",
    "size":  6307,
    "description": "What Leeches Hate about AE Sysops"
  },
  {
    "filename": "leechdic.hum",
    "size":  8997,
    "description": "The Leech Dictionary, by the Blue Buccaneer"
  },
  {
    "filename": "leechus.hum",
    "size":  7259,
    "description": "A Lengthy Comparison of Real Users and Real Leeches"
  },
  {
    "filename": "losers.hum",
    "size":  4250,
    "description": "Real Losers Guide Volume 1, by The Enforcer"
  },
  {
    "filename": "mel-prog.txt",
    "size":  7805,
    "description": "The Story of a REAL Real Programmer: Mel"
  },
  {
    "filename": "melvins.gph",
    "size":  3328,
    "description": "Real Computer Melvins"
  },
  {
    "filename": "pirates.txt",
    "size":  13730,
    "description": "A Couple of Real Pirates Guides"
  },
  {
    "filename": "pirates2.txt",
    "size":  6066,
    "description": "The Real Pirates Guide Volume III V.2 Written by the Whip"
  },
  {
    "filename": "power.txt",
    "size":  7472,
    "description": "The Power User Guide to Power Users"
  },
  {
    "filename": "pyros.hum",
    "size":  4145,
    "description": "The Real Pyros Guide by The Locksmith"
  },
  {
    "filename": "quiche.txt",
    "size":  3588,
    "description": "Real Programmers Don't Eat Quiche"
  },
  {
    "filename": "real.pro",
    "size":  1809,
    "description": "Real Programmers Don't Eat Quiche"
  },
  {
    "filename": "real_p.rog",
    "size":  26141,
    "description": "Real Programmers Don't Use Pascal, by Ed Post, Tektronix"
  },
  {
    "filename": "real_pro.pas",
    "size":  24993,
    "description": "Real Programmers Don't Use PASCAL, by Ed Post, Tektronix"
  },
  {
    "filename": "real_pro.spe",
    "size":  6437,
    "description": "Real Porgrammers Don't Write Specs"
  },
  {
    "filename": "realcpnk.txt",
    "size":  11780,
    "description": "The Men from Mongo present Real Cyberpunks (September 24, 1991)"
  },
  {
    "filename": "realduh.txt",
    "size":  2300,
    "description": "The Real Deversi Dial Users Guide"
  },
  {
    "filename": "realeng.sof",
    "size":  3393,
    "description": "Real Software Engineers Don't Read Dumps"
  },
  {
    "filename": "realgame.hum",
    "size":  5398,
    "description": "A Guide to Real Gamers, by Fritz Mertens"
  },
  {
    "filename": "realhomo.hum",
    "size":  5065,
    "description": "The Guide to Real Homosexuals/Lesbians. I Suspect Fake."
  },
  {
    "filename": "realluze.hum",
    "size":  3709,
    "description": "The Real Luzer's Guide, by Jimmy the Phreak"
  },
  {
    "filename": "realmel.pro",
    "size":  9262,
    "description": "Real Programmers Write in Fortran"
  },
  {
    "filename": "realmen.txt",
    "size":  24689,
    "description": "Real Programmers Don't Write Pascal"
  },
  {
    "filename": "realops.txt",
    "size":  5248,
    "description": "The Real operator's Guide"
  },
  {
    "filename": "realpas.pro",
    "size":  25241,
    "description": "Real Programmers Don't Use PASCAL"
  },
  {
    "filename": "realphre.hum",
    "size":  6209,
    "description": "Real Phreaker's Guide Volume I, by Taran King"
  },
  {
    "filename": "realpir.hum",
    "size":  4039,
    "description": "Your Guide to Real Pirates Guides"
  },
  {
    "filename": "realpir.txt",
    "size":  9344,
    "description": "The Real Pirate's Guide, by Ctrl-Reset"
  },
  {
    "filename": "realpira.hum",
    "size":  6529,
    "description": "The Real Pirate's Guide, by Rabid Rasta"
  },
  {
    "filename": "realprgr.txt",
    "size":  3807,
    "description": "Another Real Progammers Guide"
  },
  {
    "filename": "realpro.hum",
    "size":  8713,
    "description": "Real Programmers Don't use Fortran!"
  },
  {
    "filename": "realprog.txt",
    "size":  2178,
    "description": "Real Programmers"
  },
  {
    "filename": "realrokr.txt",
    "size":  2202,
    "description": "A Real Rocker's Guide, by The Rocker"
  },
  {
    "filename": "realscie.hum",
    "size":  3529,
    "description": "Real Computer Scientists Don't Write Code"
  },
  {
    "filename": "realsoft.hum",
    "size":  3434,
    "description": "Real Software Engineers Don't Read Dumps"
  },
  {
    "filename": "realsoft.txt",
    "size":  9977,
    "description": "Real Software Engineers Don't Read Dumps"
  },
  {
    "filename": "realsurf.txt",
    "size":  2454,
    "description": "The Code of being a Real Surfer"
  },
  {
    "filename": "realsys.txt",
    "size":  2136,
    "description": "Real Sysops Don't Eat Quiche by Karl Kemerait and T. Badd"
  },
  {
    "filename": "realteac.hum",
    "size":  12156,
    "description": "Real Computer Teachers, by The Joker"
  },
  {
    "filename": "realuser.txt",
    "size":  3043,
    "description": "Real Sysops and Unreal Board Crashers, and Real BBS Users, by The Master Watchman"
  },
  {
    "filename": "realwork.hum",
    "size":  5001,
    "description": "Real Works Users, by Jason Scott"
  },
  {
    "filename": "rpg.001",
    "size":  7552,
    "description": "The Real Pirate's Guide"
  },
  {
    "filename": "rpg1.txt",
    "size":  6858,
    "description": "Being a Real Pirate."
  },
  {
    "filename": "rpg2.txt",
    "size":  7738,
    "description": "Real Pirate's Guide, 2nd Edition"
  },
  {
    "filename": "rpg3.txt",
    "size":  3302,
    "description": "Real Pirate's Guide, 3rd Edition"
  },
  {
    "filename": "ruggies.hum",
    "size":  5155,
    "description": "The Real Ruggie's Guide"
  },
  {
    "filename": "skimboar.hum",
    "size":  4192,
    "description": "A Guide to Real Skimboarders"
  },
  {
    "filename": "skinstud.hum",
    "size":  7733,
    "description": "Real Skins Versus Real Studs"
  },
  {
    "filename": "some.humor?",
    "size":  6362,
    "description": "Collection of Really Weird News Stories from 1976"
  },
  {
    "filename": "squid.hum",
    "size":  6850,
    "description": "The True Definition of a Squid"
  },
  {
    "filename": "ticool.txt",
    "size":  5016,
    "description": "The Real \"Cool Dudes\" Guide, by Red Phantom"
  },
  {
    "filename": "unrealus.hum",
    "size":  3594,
    "description": "The Unreal User and the Real User, by Floppie Freddie"
  }
]
