[
  {
    "filename": "v1no001",
    "size": 1965,
    "description": "Space Power Digest, Volume 1, Issue 1, March 26, 1993"
  },
  {
    "filename": "v1no002",
    "size": 1448,
    "description": "Space Power Digest, Volume 1, Issue 2, March 29, 1993"
  },
  {
    "filename": "v1no003",
    "size": 1372,
    "description": "Space Power Digest, Volume 1, Issue 3, March 31, 1993"
  },
  {
    "filename": "v1no004",
    "size": 6472,
    "description": "Space Power Digest, Volume 1, Issue 4, April 2, 1993"
  },
  {
    "filename": "v1no005",
    "size": 8152,
    "description": "Space Power Digest, Volume 1, Issue 5, April 7, 1993"
  },
  {
    "filename": "v1no006",
    "size": 1357,
    "description": "Space Power Digest, Volume 1, Issue 6, May 11, 1993"
  },
  {
    "filename": "v1no007",
    "size": 10278,
    "description": "Space Power Digest, Volume 1, Issue 7, May 21, 1993"
  },
  {
    "filename": "v1no008",
    "size": 5754,
    "description": "Space Power Digest, Volume 1, Issue 8, May 29, 1993"
  },
  {
    "filename": "v1no009",
    "size": 11271,
    "description": "Space Power Digest, Volume 1, Issue 9, june 4, 1993"
  }
]
