[
  {
    "filename": "hd01.txt",
    "size": 17107,
    "description": "Hackers' Directory Volume 1: 1-800 Extender Numbers by Ninja Squirrel and Logan5"
  },
  {
    "filename": "hd02.txt",
    "size": 14488,
    "description": "Hackers' Directory Volume 2: CN/A Bureau Telephone Numbers by Ninja Squirrel and Logan5"
  },
  {
    "filename": "hd03.txt",
    "size": 17211,
    "description": "Hackers' Directory Volume 3: Hacking Techniques by Logan 5"
  },
  {
    "filename": "hd04.txt",
    "size": 11756,
    "description": "Hackers' Directory Volume 4: Phone Taps"
  },
  {
    "filename": "hd05.txt",
    "size": 5295,
    "description": "Hackers' Directory Volume 5: Mainframes and Miscellaneous Numbers"
  },
  {
    "filename": "hd06.txt",
    "size": 6566,
    "description": "Hackers' Directory Volume 6: Giving TRW a Call"
  },
  {
    "filename": "hd07.txt",
    "size": 8435,
    "description": "Hackers' Directory Volume 7: TMC, an easy Extender to Hack"
  },
  {
    "filename": "hd08.txt",
    "size": 10213,
    "description": "Hackers' Directory Volume 8: The Library of Congress"
  },
  {
    "filename": "hd09.txt",
    "size": 10795,
    "description": "Hackers' Directory Volume 9: CCSN Card Holders"
  },
  {
    "filename": "hd10.txt",
    "size": 9946,
    "description": "Hackers' Directory Volume 10: Logan 5's Favorite Numbers"
  },
  {
    "filename": "hd11.txt",
    "size": 7927,
    "description": "Hackers' Directory Volume 11: Hacking Tymnet, by Silicon Rat"
  },
  {
    "filename": "hd12.txt",
    "size": 7597,
    "description": "Hackers' Directory Volume 12: Logan 5's Favorite Phone Numbers"
  },
  {
    "filename": "hd13.txt",
    "size": 15537,
    "description": "Hackers' Directory Volume 13: TAC Dialups by Location"
  },
  {
    "filename": "hd14.txt",
    "size": 13896,
    "description": "Hackers' Directory Volume 14: Hacking Telenet"
  },
  {
    "filename": "hd15.txt",
    "size": 9159,
    "description": "Hackers' Directory Volume 15: A Directory of Fortell Systems"
  },
  {
    "filename": "hd16.txt",
    "size": 11258,
    "description": "Hackers' Directory Volume 16: Information on RSTS"
  },
  {
    "filename": "hd17.txt",
    "size": 23117,
    "description": "Hackers' Directory Volume 17: Hacking the DEC-10 System"
  },
  {
    "filename": "hd18.txt",
    "size": 12773,
    "description": "Hackers' Directory Volume 18: Wide Area Networks"
  },
  {
    "filename": "hd19.txt",
    "size": 16433,
    "description": "Hackers' Directory Volume 19: Mobile Telephone Communications"
  },
  {
    "filename": "hd20.txt",
    "size": 13659,
    "description": "Hackers' Directory Volume 20: More of Logan 5's Favorite Hacking Numbers"
  },
  {
    "filename": "hd21.txt",
    "size": 12398,
    "description": "Hackers' Directory Volume 21: Hacking Defense Complexes"
  },
  {
    "filename": "hd22.txt",
    "size": 11405,
    "description": "Hackers' Directory Volume 22: Satellite Hacking, CB Info, Car Systems"
  },
  {
    "filename": "hd23.txt",
    "size": 13328,
    "description": "Hackers' Directory Volume 23: How to Be a Phreak"
  },
  {
    "filename": "hd24.txt",
    "size": 9277,
    "description": "Hackers' Directory Volume 24: Trashing!"
  },
  {
    "filename": "hd25.txt",
    "size": 15790,
    "description": "Hackers' Directory Volume 25: Bell's Identification Letter Codes and their Meanings"
  },
  {
    "filename": "hd26.txt",
    "size": 17459,
    "description": "Hackers' Directory Volume 26: Some Computer Lines"
  },
  {
    "filename": "hd27.txt",
    "size": 11001,
    "description": "Hackers' Directory Volume 27: Hacking GEnie by Silicon Rat"
  },
  {
    "filename": "hd28.txt",
    "size": 15795,
    "description": "Hackers' Directory Volume 28: Mainframes and Terminals"
  },
  {
    "filename": "hd29.txt",
    "size": 14567,
    "description": "Hackers' Directory Volume 29: 800 Extenders and other 800 Numbers"
  },
  {
    "filename": "hd30.txt",
    "size": 13925,
    "description": "Hackers' Directory Volume 30: Calling Bases"
  },
  {
    "filename": "hd31.txt",
    "size": 11485,
    "description": "Hackers' Directory Volume 31: Custom Calling Phone Tapping"
  },
  {
    "filename": "hd32.txt",
    "size": 14381,
    "description": "Hackers' Directory Volume 32: Bug Detection on Home Phones"
  },
  {
    "filename": "hd33.txt",
    "size": 14332,
    "description": "Hackers' Directory Volume 33: Some Interesting Facts about Ma Bell"
  },
  {
    "filename": "hd34.txt",
    "size": 10352,
    "description": "Hackers' Directory Volume 34: How to Connect to AUTONET"
  },
  {
    "filename": "hd35.txt",
    "size": 9785,
    "description": "Hackers' Directory Volume 35: The AUTONET Series Section 2"
  },
  {
    "filename": "hd36.txt",
    "size": 6106,
    "description": "Hackers' Directory Volume 36: The AUTONET Series Section 3"
  },
  {
    "filename": "hd37.txt",
    "size": 6315,
    "description": "Hackers' Directory Volume 37: The AUTONET Series Section 4"
  },
  {
    "filename": "hd38.txt",
    "size": 8447,
    "description": "Hackers' Directory Volume 38: The AUTONET Series Section 5"
  },
  {
    "filename": "hd39.txt",
    "size": 11874,
    "description": "Hackers' Directory Volume 39: The AUTONET Series Section 6"
  }
]
