[
  {
    "filename": "jauc01.txt",
    "size": 41501,
    "description": "The Journal of American Undergound Computing by Scott Davis #1 (March 19, 1994)"
  },
  {
    "filename": "jauc02.txt",
    "size": 151511,
    "description": "The Journal of American Undergound Computing by Scott Davis #2 (April 4, 1994)"
  },
  {
    "filename": "jauc03.txt",
    "size": 162068,
    "description": "The Journal of American Undergound Computing by Scott Davis #3 (April 30, 1994)"
  },
  {
    "filename": "jauc04.txt",
    "size": 161755,
    "description": "The Journal of American Undergound Computing by Scott Davis #4 (June 7, 1994)"
  },
  {
    "filename": "jauc05.txt",
    "size": 129878,
    "description": "The Journal of American Undergound Computing by Scott Davis #5 (August 1, 1994)"
  },
  {
    "filename": "jauc06.txt",
    "size": 292484,
    "description": "The Journal of American Undergound Computing by Scott Davis #6 (October 1, 1994)"
  },
  {
    "filename": "jauc07.txt",
    "size": 423078,
    "description": "The Journal of American Undergound Computing by Scott Davis #7 (January 7, 1994)"
  }
]
