[
  {
    "filename": "slap-01",
    "size": 13541,
    "description": "SLAP Issue #1 by Saiko-Chan"
  },
  {
    "filename": "slap-02",
    "size": 11674,
    "description": "Slap Issue #2 by Derek Gottfrid (February 28, 1994)"
  },
  {
    "filename": "slap-03",
    "size": 13588,
    "description": "Slap Issue #3 by Derek Gottfrid (1994)"
  }
]
