[
  {
    "filename": "unpl-1",
    "size": 29811,
    "description": "The Unplastic News Issue #1: July 20, 1991"
  },
  {
    "filename": "unpl-2",
    "size": 50897,
    "description": "The Unplastic News Issue #2: August 1991"
  },
  {
    "filename": "unpl-3",
    "size": 30823,
    "description": "The Unplastic News Issue #3: October 1991 (The Freedom Issue)"
  },
  {
    "filename": "unpl-5",
    "size": 16905,
    "description": "The Unplastic News Issue 5: November 1992"
  },
  {
    "filename": "unpl-6",
    "size": 29747,
    "description": "The Unplastic News Issue #6 (The Lopsided Issue)"
  },
  {
    "filename": "unplas-1.txt",
    "size": 30456,
    "description": "The Unplastic News Issue #1 (July 20, 1991)"
  },
  {
    "filename": "unplas-2.txt",
    "size": 51736,
    "description": "The Unplastic News Issue #2 (August 1991)"
  },
  {
    "filename": "unplas-3.txt",
    "size": 31661,
    "description": "The Unplastic News Issue #3 (October 1991)"
  },
  {
    "filename": "unplas-4.txt",
    "size": 16085,
    "description": "The Unplastic News Issue #4 (May 1992)"
  },
  {
    "filename": "unplas-5.txt",
    "size": 17461,
    "description": "The Unplastic News Issue #5 (November 1992)"
  },
  {
    "filename": "unplas-6.txt",
    "size": 30491,
    "description": "The Unplastic News Issue #6"
  },
  {
    "filename": "unplas-7.txt",
    "size": 20205,
    "description": "The Unplastic News Issue #7 (December 1992)"
  },
  {
    "filename": "unplas-8.txt",
    "size": 87931,
    "description": "The Unplastic News Issue #8 (January 1993)"
  },
  {
    "filename": "unplas-9",
    "size": 66554,
    "description": "The Unplastic News Issue #9 (April 1993)"
  },
  {
    "filename": "unplas10",
    "size": 24148,
    "description": "The Unplastic News Issue #10 (July 1993)"
  },
  {
    "filename": "unplas11",
    "size": 52215,
    "description": "The Unplastic News Issue #11 (January 1994)"
  },
  {
    "filename": "unplas12",
    "size": 63941,
    "description": "The Unplastic News Issue #12 (August 1994)"
  }
]
