[
  {
    "filename": "00info.txt",
    "size": 6822,
    "description": "General Information on the EJournal (June 1993)"
  },
  {
    "filename": "ej1-1.txt",
    "size": 24391,
    "description": "EJournal Volume 1, Issue 1, March 1991"
  },
  {
    "filename": "ej1-2-1.txt",
    "size": 24591,
    "description": "EJournal Volume 1, Issue 2-1, October 1991"
  },
  {
    "filename": "ej1-2.txt",
    "size": 30129,
    "description": "EJournal Volume 1, Issue 2, May 1991"
  },
  {
    "filename": "ej1-3-1.txt",
    "size": 29940,
    "description": "EJournal Volume 1, Issue 3-1, July 1992"
  },
  {
    "filename": "ej1-3-2.txt",
    "size": 24266,
    "description": "EJournal Volume 1, Issue 3-2, September 1992"
  },
  {
    "filename": "ej1-3.txt",
    "size": 54883,
    "description": "EJournal Volume 1, Issue 3, November 1991"
  },
  {
    "filename": "ej2-1.txt",
    "size": 20092,
    "description": "EJournal Volume 2, Issue 1, April 1992"
  },
  {
    "filename": "ej2-2.txt",
    "size": 44547,
    "description": "EJournal Volume 2, Issue 2, June 1992"
  },
  {
    "filename": "ej2-3.txt",
    "size": 36767,
    "description": "EJournal Volume 2, Issue 3 August 1992"
  },
  {
    "filename": "ej2-4.txt",
    "size": 28664,
    "description": "EJournal Volume 2, Issue 4, December 1992"
  },
  {
    "filename": "ej2-5.txt",
    "size": 55504,
    "description": "EJournal Volume 2, Issue 5, December 1992"
  },
  {
    "filename": "ej3-1.txt",
    "size": 53051,
    "description": "EJournal Volume 3, Number 1, July 1993"
  },
  {
    "filename": "ej3-2.txt",
    "size": 34200,
    "description": "EJournal Volume 3, Number 2, September 1993"
  },
  {
    "filename": "ej3-3.txt",
    "size": 51381,
    "description": "EJournal Volume 3, Number 3, November 1993"
  },
  {
    "filename": "ej4-1.txt",
    "size": 37137,
    "description": "EJournal Volume 4, Number 1, April 1994"
  },
  {
    "filename": "ej4-2.txt",
    "size": 50194,
    "description": "EJournal Volume 4, Number 2, June 1994"
  },
  {
    "filename": "ej4-3.txt",
    "size": 43839,
    "description": "EJournal Volume 4, Number 3, November 1994"
  },
  {
    "filename": "ej4-4.txt",
    "size": 40560,
    "description": "EJournal Volume 4, Number 4, December 1994"
  },
  {
    "filename": "ej5-1.txt",
    "size": 46996,
    "description": "EJournal Volume 5, Number 1, June 1995"
  },
  {
    "filename": "ej5-2.txt",
    "size": 34083,
    "description": "EJournal Volume 5, Number 2, December 1995"
  },
  {
    "filename": "ej6-1.txt",
    "size": 42195,
    "description": "EJournal Volume 6, Number 1, March 1996"
  },
  {
    "filename": "ej6-2.txt",
    "size": 49069,
    "description": "EJournal Volume 6, Number 2, April 1996"
  },
  {
    "filename": "ej6-3.txt",
    "size": 59620,
    "description": "EJournal Volume 6, Number 3, August 1996"
  }
]
