[
  {
    "filename": "tna000.txt",
    "size": 2530,
    "description": "Technical News Association Writer's Guide and Distribution Sites"
  },
  {
    "filename": "tna001.txt",
    "size": 8698,
    "description": "Technical News Association #1: The 486 Chips and How They Stack Up by Skyewalker"
  },
  {
    "filename": "tna002.txt",
    "size": 3385,
    "description": "Technical News Association #2: 486 Upgrades by Oreo"
  },
  {
    "filename": "tna003.txt",
    "size": 14219,
    "description": "Technical News Association #3: The Gravis Ultrasound by Mr. Wizzard"
  },
  {
    "filename": "tna004.txt",
    "size": 5297,
    "description": "Technical News Association #4: MS DOS 6.0 by Oreo"
  },
  {
    "filename": "tna005.txt",
    "size": 10300,
    "description": "Technical News Association #5: The $100,000 Diskette by Skyewalker and Mike Geraghty"
  },
  {
    "filename": "tna006.txt",
    "size": 2691,
    "description": "Technical News Association #6: Looking For Writers"
  },
  {
    "filename": "tna0113.grv",
    "size": 11743,
    "description": "Gravis UltraSound Application List 01/13/93 by Mr. Wizzard"
  }
]
