[
  {
    "filename": "synd-01.phk",
    "size": 6680,
    "description": "The Syndicate Report Issue #01"
  },
  {
    "filename": "synd-02.phk",
    "size": 6229,
    "description": "The Syndicate Report Issue #02"
  },
  {
    "filename": "synd-03.phk",
    "size": 5458,
    "description": "The Syndicate Report Issue #03"
  },
  {
    "filename": "synd-04.phk",
    "size": 8166,
    "description": "The Syndicate Report Issue #04 (August 10, 1986)"
  },
  {
    "filename": "synd-05.phk",
    "size": 8584,
    "description": "The Syndicate Report Issue #05 (August 26, 1986)"
  },
  {
    "filename": "synd-06.phk",
    "size": 11428,
    "description": "The Syndicate Report Issue #06 (September 28, 1986)"
  },
  {
    "filename": "synd-07.phk",
    "size": 9445,
    "description": "The Syndicate Report Issue #07 (October 30, 1986)"
  },
  {
    "filename": "synd-08.phk",
    "size": 11365,
    "description": "The Syndicate Report Issue #08 (November 24, 1986)"
  },
  {
    "filename": "synd-09.phk",
    "size": 11970,
    "description": "The Syndicate Report Issue #09 (February 16, 1987)"
  },
  {
    "filename": "synd-10.phk",
    "size": 11371,
    "description": "The Syndicate Report Issue #10 (August 16, 1987)"
  },
  {
    "filename": "synd-11.phk",
    "size": 10383,
    "description": "The Syndicate Report Issue #11 (May 19, 1987)"
  },
  {
    "filename": "synd-12.phk",
    "size": 11274,
    "description": "The Syndicate Report Issue #12 (June 21, 1987)"
  },
  {
    "filename": "synd-13a.phk",
    "size": 8245,
    "description": "The Syndicate Report Issue #13 (August 3, 1987)"
  },
  {
    "filename": "synd-13b.phk",
    "size": 14850,
    "description": "The Syndicate Report Issue #13 (July 21, 1987)"
  },
  {
    "filename": "synd-14.phk",
    "size": 17365,
    "description": "The Syndicate Report Issue #14 (August 21, 1987)"
  },
  {
    "filename": "synd-15a.phk",
    "size": 15540,
    "description": "The Syndicate Report Issue #15 (September 21, 1987)"
  },
  {
    "filename": "synd-15b.phk",
    "size": 13036,
    "description": "The Syndicate Report Issue #15 (September 21, 1987)"
  },
  {
    "filename": "synd-16a.phk",
    "size": 15181,
    "description": "The Syndicate Report Issue #16 (October 21, 1987)"
  },
  {
    "filename": "synd-17.phk",
    "size": 14446,
    "description": "The Syndicate Report Issue #17 (December 30, 1987)"
  },
  {
    "filename": "synd-20a.phk",
    "size": 20068,
    "description": "The Syndicate Report Issue #20 (January 31, 1989)"
  },
  {
    "filename": "synd-20b.phk",
    "size": 18740,
    "description": "The Syndicate Report Issue #20 (January 31, 1989)"
  },
  {
    "filename": "synd-21.phk",
    "size": 47975,
    "description": "The Syndicate Report Issue #21 (March 2, 1989)"
  },
  {
    "filename": "synd-23.phk",
    "size": 37628,
    "description": "The Syndicate Report Issue #23 (June 13, 1989)"
  },
  {
    "filename": "synd-25.phk",
    "size": 49182,
    "description": "The Syndicate Report Issue #25 (September 20, 1989)"
  },
  {
    "filename": "synd18a.txt",
    "size": 18776,
    "description": "The Syndicate Report Issue #18 (November 30, 1988)"
  },
  {
    "filename": "synd18b.txt",
    "size": 17172,
    "description": "The Syndicate Report Issue #18 (november 30, 1988)"
  },
  {
    "filename": "synd22a.txt",
    "size": 21865,
    "description": "The Syndicate Report Issue #22 (April 10, 1989)"
  },
  {
    "filename": "synd22b.txt",
    "size": 24817,
    "description": "The Syndicate Report Issue #22 (April 10, 1989)"
  },
  {
    "filename": "synd27a.txt",
    "size": 26345,
    "description": "The Syndicate Report Issue #27 (January 18, 1990)"
  },
  {
    "filename": "synd27b.txt",
    "size": 37560,
    "description": "The Syndicate Report Issue #27 (January 18, 1990)"
  },
  {
    "filename": "tsr-01.txt",
    "size": 6621,
    "description": "The Syndicate Report Issue #1 by the Sensei (May 18, 1986)"
  },
  {
    "filename": "tsr-02.txt",
    "size": 6050,
    "description": "The Syndicate Report Issue #2 by the Sensei (July 4, 1986)"
  },
  {
    "filename": "tsr-03.txt",
    "size": 5517,
    "description": "The Syndicate Report Issue #3 by the Sensei (July 30, 1986)"
  },
  {
    "filename": "tsr-04.txt",
    "size": 8324,
    "description": "The Syndicate Report Issue #4 by the Sensei (August 10, 1986)"
  },
  {
    "filename": "tsr-05.txt",
    "size": 8757,
    "description": "The Syndicate Report Issue #5 by the Sensei (August 26, 1986)"
  },
  {
    "filename": "tsr-06.txt",
    "size": 11597,
    "description": "The Syndicate Report Issue #6 by the Sensei (September 28, 1986)"
  },
  {
    "filename": "tsr-07.txt",
    "size": 9586,
    "description": "The Syndicate Report Issue #7 by the Sensei (October 31, 1986)"
  },
  {
    "filename": "tsr-08.txt",
    "size": 11450,
    "description": "The Syndicate Report Issue #8 by The Sensei (November 24, 1986)"
  },
  {
    "filename": "tsr-09.txt",
    "size": 11997,
    "description": "The Syndicate Report Issue #9 by The Sensei (February 16, 1987)"
  },
  {
    "filename": "tsr-10.txt",
    "size": 11368,
    "description": "The Syndicate Report Issue #10 by the Sensei (April 16, 1987)"
  },
  {
    "filename": "tsr-11.txt",
    "size": 10472,
    "description": "The Syndicate Report Issue #by the Sensei (May 19, 1987)"
  },
  {
    "filename": "tsr-12.txt",
    "size": 11214,
    "description": "The Syndicate Report Issue #12 by the Sensei (June 21, 1987)"
  },
  {
    "filename": "tsr-13.txt",
    "size": 23737,
    "description": "The Syndicate Report Issue #13 by The Sensei (July 21, 1987)"
  },
  {
    "filename": "tsr-14.txt",
    "size": 15864,
    "description": "The Syndicate Report Issue #14 by The Sensei (August 21, 1987)"
  },
  {
    "filename": "tsr-15.txt",
    "size": 22728,
    "description": "The Syndicate Report Issue #15 by the Sensei (September 21, 1987)"
  },
  {
    "filename": "tsr-16.txt",
    "size": 30928,
    "description": "The Syndicate Report Issue #16 (October 21, 1987)"
  },
  {
    "filename": "tsr-17.txt",
    "size": 14891,
    "description": "The Syndicate Report Issue #17 (December 30, 1987)"
  },
  {
    "filename": "tsr-20.txt",
    "size": 39169,
    "description": "The Syndicate Report Issue #20 by The Sensei (January 31, 1989)"
  },
  {
    "filename": "tsr-21.txt",
    "size": 45923,
    "description": "The Syndicate Report Issue #21 by the Sensei (March 2, 1989)"
  },
  {
    "filename": "tsr-22-1.txt",
    "size": 21446,
    "description": "The Syndicate Report Issue #22 by The Sensei (April 10, 1989)"
  },
  {
    "filename": "tsr-25-2.txt",
    "size": 22117,
    "description": "The Syndicate Report Issue #25 Part 2 by The Sensei (September 30, 1989)"
  },
  {
    "filename": "tsr-25.txt",
    "size": 26090,
    "description": "The Syndicate Report Issue #25 Part 1 by The Sensei (September 20, 1989)"
  }
]
