[
  {
    "filename": "1.strangeness",
    "size": 80885,
    "description": "Welcome to Strangeness Issue #1 (October 30, 1994)"
  },
  {
    "filename": "2.strangeness",
    "size": 40080,
    "description": "Welcome to Strangeness Issue #2"
  },
  {
    "filename": "3.strangeness",
    "size": 115514,
    "description": "Welcome to Strangeness Issue #3 (November 13, 1994)"
  },
  {
    "filename": "abuse-01.txt",
    "size": 46981,
    "description": "Abuse Magazine, Issue #1 (February 1993)"
  },
  {
    "filename": "alembic2.txt",
    "size": 82944,
    "description": "The Alembic, Second Edition Summer 1989 Issue"
  },
  {
    "filename": "alembic3.txt",
    "size": 73728,
    "description": "The Alembic, Third Edition Autumn 1989 Issue"
  },
  {
    "filename": "alf.nfo",
    "size": 7044,
    "description": "NFO: AC-Find v1.0 by the Anti-Lamers Foundation (July 23, 1994)"
  },
  {
    "filename": "alive_0.txt",
    "size": 24154,
    "description": "ALIVE (Virus Magazine) Issue #1, by Suzana Stojakovic-Celustka (March, 1994)"
  },
  {
    "filename": "alliance",
    "size": 89125,
    "description": "The Guide to a Better Society Volume #1 Issue #1 by Alliance Productions (August, 1991)"
  },
  {
    "filename": "alliance.000",
    "size": 37120,
    "description": "The Guide to a Better Society Volume #1 Issue #1 by Alliance Productions (Template)"
  },
  {
    "filename": "allnoall.001",
    "size": 19562,
    "description": "ALL Zine, Issue #1, (October 17, 1992)"
  },
  {
    "filename": "allnoall.002",
    "size": 27707,
    "description": "ALL Zine Issue #2, (April 13, 1993)"
  },
  {
    "filename": "anarchives_2_2_1.txt",
    "size": 26732,
    "description": "The Anarchives: Volume 2 Issue 2 Part 1"
  },
  {
    "filename": "anarchives_2_2_2.txt",
    "size": 15622,
    "description": "The Anarchives: Volume 2 Issue 2 Part 2"
  },
  {
    "filename": "anarchives_2_2_3.txt",
    "size": 31496,
    "description": "The Anarchives: Volume 2 Issue 2 Part 3"
  },
  {
    "filename": "apinews1.txt",
    "size": 7208,
    "description": "A.P.I: American Pirate Industries Volume 1, July 1989"
  },
  {
    "filename": "apinews2.txt",
    "size": 5724,
    "description": "API: American Pirate Newsletter Issue #2"
  },
  {
    "filename": "asian_voices93.stx",
    "size": 136160,
    "description": "Asian Voices Volume 6 (1993)"
  },
  {
    "filename": "assem1-1.txt",
    "size": 21486,
    "description": "Assemblage Issue #1 (November 1992)"
  },
  {
    "filename": "assem1-2.txt",
    "size": 24850,
    "description": "Assemblage Issue 2 (November 1992)"
  },
  {
    "filename": "assem1-3.txt",
    "size": 15028,
    "description": "Assemblage Issue 3 (November 1992)"
  },
  {
    "filename": "asylum.lit",
    "size": 4091,
    "description": "The first Asylum Literature Pack Introduction (August 6, 1994)"
  },
  {
    "filename": "at-01.txt",
    "size": 44063,
    "description": "Anarchy Today Issue #1 by Jack the Ripper: Acetone Peroxide Explosive"
  },
  {
    "filename": "barney1.txt",
    "size": 14332,
    "description": "ABL's Barney Must Die Newsletter #1"
  },
  {
    "filename": "bluebook.txt",
    "size": 170931,
    "description": "Project Bluebook Unknowns Part 1 by Don Allen (July 4, 1991)"
  },
  {
    "filename": "brain.nov",
    "size": 9344,
    "description": "Brain Waves Viewpoint, by Alex Jacobson, President of Inference Corportation (November 1986)"
  },
  {
    "filename": "break1n1.txt",
    "size": 34057,
    "description": "Breakaway: Debates on Modern Marxism Volume 1, Issue 1 (May 1994)"
  },
  {
    "filename": "break1n2.txt",
    "size": 34083,
    "description": "Breakaway: Debates on Modern Marxism Volume 1, Issue 2 (June/July 1994)"
  },
  {
    "filename": "break1n3.txt",
    "size": 41614,
    "description": "Breakaway: Debates on Modern Marxism Volume 1, Issue 3 (August/September 1994)"
  },
  {
    "filename": "break2n1.txt",
    "size": 30772,
    "description": "Breakaway: Debates on Modern Marxism Volume 2, Issue 1 (November 1994)"
  },
  {
    "filename": "bs0294.txt",
    "size": 26220,
    "description": "Bad Section Issue #1 (February 1994)"
  },
  {
    "filename": "bs0594t.txt",
    "size": 23085,
    "description": "Bad Sector Volume 1 Issue 4 Series 1 (May 1994)"
  },
  {
    "filename": "btw.app",
    "size": 3017,
    "description": "Application to Join Bizzare Types of Wares"
  },
  {
    "filename": "btw.nfo",
    "size": 8586,
    "description": "BEER Issue #1 by Bizzare Types of Warez"
  },
  {
    "filename": "callanon.ant",
    "size": 6163,
    "description": "Calling Anonymously, by Antediluvian (1994)"
  },
  {
    "filename": "cd02jan.txt",
    "size": 52648,
    "description": "Carrier Detect: The PC Communications Journal for Every Modem User (Volume 2, Winter 1992)"
  },
  {
    "filename": "combat.gÝd",
    "size": 2784,
    "description": "How to Win in a Combat Situation, by Iceman of GiD Productions"
  },
  {
    "filename": "contact",
    "size": 796,
    "description": "How to Contact the Bizzare Types of Warez"
  },
  {
    "filename": "core2.04",
    "size": 27752,
    "description": "CORE: Volume 2, Issue 4: An Electronic Journal of Poetry, Fiction, Essays and Criticism"
  },
  {
    "filename": "core2.05",
    "size": 28763,
    "description": "CORE Volume #2 Issue #5 (April 24, 1993)"
  },
  {
    "filename": "cropd-01.txt",
    "size": 36412,
    "description": "Cropduster Issue #1 (1992)"
  },
  {
    "filename": "cropd-02.txt",
    "size": 138653,
    "description": "Cropduster Issue 2 (1993)"
  },
  {
    "filename": "cvm0201.txt",
    "size": 198704,
    "description": "Cyberspace Vanguard (Volume 2, Issue 1) (January 21, 1994)"
  },
  {
    "filename": "cvm0202.txt",
    "size": 183671,
    "description": "Cyberspace Vanguard (Volume 2, Issue 2) (March 31, 1994)"
  },
  {
    "filename": "cyber.v3",
    "size": 91335,
    "description": "Cyberspace Vanguard: News and Views of the Science Fiction and Fantasy Universe Issue #3 (March 5, 1993)"
  },
  {
    "filename": "das-007.txt",
    "size": 15686,
    "description": "The Digital Anarchists' Society File #7: Renegade Hack by Mad Arab"
  },
  {
    "filename": "daskvote.txt",
    "size": 2885,
    "description": "Voting for the Demo Scene (Application)"
  },
  {
    "filename": "db10.txt",
    "size": 11641,
    "description": "Dreamboy! Issue #10 (march 1, 1995)"
  },
  {
    "filename": "db5.txt",
    "size": 22165,
    "description": "Dreamboy! Issue #5 (October 1994)"
  },
  {
    "filename": "db7.txt",
    "size": 12853,
    "description": "Dreamboy! Issue #7 (December 1994)"
  },
  {
    "filename": "db8.txt",
    "size": 16680,
    "description": "Dreamboy! Issue #8 (January 1995)"
  },
  {
    "filename": "db9.txt",
    "size": 17081,
    "description": "Dreamboy! Issue #9 (February 1995)"
  },
  {
    "filename": "deton.bom",
    "size": 3530,
    "description": "Digital Detonators by Balin of BOM Squad (April 22, 1993)"
  },
  {
    "filename": "dgrd--01.txt",
    "size": 25422,
    "description": "Digital Games Review Digest, Number 1 (April 17, 1990)"
  },
  {
    "filename": "dgrd--02.txt",
    "size": 36052,
    "description": "Digital Games Review Digest, Number 2 (April 26, 1990)"
  },
  {
    "filename": "dgrd--03.txt",
    "size": 34188,
    "description": "Digital Games Review Digest, Number 3 (May 16th, 1990)"
  },
  {
    "filename": "difi-1.txt",
    "size": 29704,
    "description": "Dial 'I' for Information, Issue #1, by The Phone Phantom (July 31, 1993)"
  },
  {
    "filename": "digital.asc",
    "size": 4434,
    "description": "Neil Sorenson Announces the Digital Edition of The Mouth of Xibalba"
  },
  {
    "filename": "dishnews.504",
    "size": 42480,
    "description": "Dishcetera: The Satellite TV Industry Online Magazines Volume 5 Issue 4 (February 1, 1993)"
  },
  {
    "filename": "dm-001.txt",
    "size": 9647,
    "description": "Dancing Monica Issue #1"
  },
  {
    "filename": "dm-002.txt",
    "size": 8312,
    "description": "Damaged Mind Issue #2"
  },
  {
    "filename": "dna.nfo",
    "size": 5377,
    "description": "DnA Magazine by Pazuzu (August 3, 1993)"
  },
  {
    "filename": "dose002.txt",
    "size": 5147,
    "description": "Dose Issue #2: \"The Evils of Business Corporations\" by RAGE (December 1, 1994)"
  },
  {
    "filename": "drain100.txt",
    "size": 25856,
    "description": "The Drain Ezine Issue #1 (December 1, 1992)"
  },
  {
    "filename": "dst.nfo",
    "size": 5358,
    "description": "NFO: Distortion Membership List (1994)"
  },
  {
    "filename": "emc-1.txt",
    "size": 15984,
    "description": "The Martian Chronicle, Issue #1, March 1990"
  },
  {
    "filename": "emc-2.txt",
    "size": 17024,
    "description": "The Martian Chronicle, Issue #2, April 1990"
  },
  {
    "filename": "emc-3.txt",
    "size": 12928,
    "description": "The Martian Chronicle, Issue #3, July 1990"
  },
  {
    "filename": "emc-4.txt",
    "size": 8576,
    "description": "The Martian Chronicle, Issue #4, August 1990"
  },
  {
    "filename": "emc-5.txt",
    "size": 11136,
    "description": "The Martian Chronicle, Issue #5, October 1990"
  },
  {
    "filename": "f5930411.txt",
    "size": 61237,
    "description": "Fringe, conspiracy and SubGenius zine reviews by Jerod Pore (March 11, 1993)"
  },
  {
    "filename": "f5930421.txt",
    "size": 136914,
    "description": "Factsheet 5 Electric Political Zine Reviews (March 21, 1993)"
  },
  {
    "filename": "flam-f01.txt",
    "size": 101496,
    "description": "Toxic Shock: The Fetus by Bloody Afterbirth"
  },
  {
    "filename": "flam-f2.txt",
    "size": 266785,
    "description": "Toxic Shock: The Flaming Fetus (October 19, 199))"
  },
  {
    "filename": "fognewsl.001",
    "size": 22517,
    "description": "Fist of God News Issue #1"
  },
  {
    "filename": "funhou02.txt",
    "size": 166131,
    "description": "FUNHOUSE: The Cyberzine of Degenerate Pop Culture (June 22, 1993)"
  },
  {
    "filename": "fyi22.txt",
    "size": 116625,
    "description": "FYI On Questions and Answers: Answers to Commonly Asked Primary and Secondary School Internet User Questions (February 1994)"
  },
  {
    "filename": "greetz.lit",
    "size": 5428,
    "description": "Greets from the Asylum Staff to all their IRC Friends (August 6, 1994)"
  },
  {
    "filename": "grim1.txt",
    "size": 68113,
    "description": "The Grimore: Your On-Line Guide to Magic the Gathering"
  },
  {
    "filename": "grim2.txt",
    "size": 109321,
    "description": "The Grimore: Your On-Line Guide to Magic the Gathering"
  },
  {
    "filename": "groups.paw",
    "size": 3752,
    "description": "Pirates Analyze Warez Announce a new Magazine"
  },
  {
    "filename": "history.txt",
    "size": 20700,
    "description": "The Insomnia Electronic Magazine Interface History by Fade of REM"
  },
  {
    "filename": "iafl-001.txt",
    "size": 35467,
    "description": "In a Free Land Issue #1 (Winter 1993) by Rageboy Publications"
  },
  {
    "filename": "iafl-002.txt",
    "size": 41347,
    "description": "In a Free Land Issue #2 (January 25th, 1994) by Rageboy Publications"
  },
  {
    "filename": "iface5",
    "size": 15334,
    "description": "Interface Issue #5 (Summer 1993) by Benjamin Henry"
  },
  {
    "filename": "index",
    "size": 2594,
    "description": "Index to the Silicon Vortex"
  },
  {
    "filename": "inews493.txt",
    "size": 31138,
    "description": "International Sysop's Guild Newsletter (April 1993)"
  },
  {
    "filename": "interz02.txt",
    "size": 15880,
    "description": "Interzine Issue #2: Peter Meyer"
  },
  {
    "filename": "intzine.2",
    "size": 15801,
    "description": "Interzine Issue #2: Peter Meyer (June 11, 1993)"
  },
  {
    "filename": "itt0206.nfo",
    "size": 3251,
    "description": "The Internet Takeover Team .NFO File (February 6, 1995)"
  },
  {
    "filename": "itt0213.nfo",
    "size": 5572,
    "description": "The Internet Takeover Team (February 13, 1995)"
  },
  {
    "filename": "kaos01.txt",
    "size": 86656,
    "description": "The Chaos Advocate, Issue 1, by Mark Tanner"
  },
  {
    "filename": "lch2-001.txt",
    "size": 5231,
    "description": "Leech Issue #2 (November 1994)"
  },
  {
    "filename": "legalhi.bom",
    "size": 7283,
    "description": "Should Drugs Be Legal? By Mr. Sandman of the BOM Squad (October 14, 1993)"
  },
  {
    "filename": "legion-06",
    "size": 76830,
    "description": "The Legion of Bitter Alumni Issue #6 (November 26, 1993)"
  },
  {
    "filename": "legion-07",
    "size": 61639,
    "description": "The Legion of Bitter Alumni Issue #7 (1993)"
  },
  {
    "filename": "liminal-1.0",
    "size": 25293,
    "description": "The Liminal Group Presents Liminal 1.0 (1992)"
  },
  {
    "filename": "liminal.v1",
    "size": 23626,
    "description": "Liminal Issue #1, The Alternative Scholarly Culture Studies Magazine (April 17, 1993)"
  },
  {
    "filename": "liminal_1.1",
    "size": 59398,
    "description": "The Liminal Group Presents Liminal 1.1 (1992)"
  },
  {
    "filename": "lost01.hac",
    "size": 68449,
    "description": "Legion of Schram Today Newsletter #1"
  },
  {
    "filename": "lost02.hac",
    "size": 20927,
    "description": "Legion of Schram Today Newsletter #2"
  },
  {
    "filename": "majority.txt",
    "size": 33853,
    "description": "Operation Majority Final Release by Milton William Cooper (1989)"
  },
  {
    "filename": "message",
    "size": 1352,
    "description": "INFO: Necronomicon Logo"
  },
  {
    "filename": "mjir93-1",
    "size": 47821,
    "description": "The Mini-Journal of Irreproducible Results (November, 1993)"
  },
  {
    "filename": "mjir93-2",
    "size": 19358,
    "description": "The mini-Journal of Irreproducible Results (December, 1993)"
  },
  {
    "filename": "mjir94-1",
    "size": 21093,
    "description": "The mini-Journal of Irreproducible Results (January, 1994)"
  },
  {
    "filename": "mjir94-2",
    "size": 15535,
    "description": "The mini-Journal of Irreproducible Results (February, 1994)"
  },
  {
    "filename": "mjir94-4",
    "size": 19367,
    "description": "The mini-Journal of Irreproducible Results (April, 1994)"
  },
  {
    "filename": "necronomicon.1",
    "size": 13544,
    "description": "Necronomicon Press Issue #1"
  },
  {
    "filename": "net11.txt",
    "size": 22107,
    "description": "Noted on the Net, Issue #11"
  },
  {
    "filename": "neurosis.nfo",
    "size": 2456,
    "description": "Introduction to the First Issue of Neurosis Magazine by GH"
  },
  {
    "filename": "newmag.008",
    "size": 974,
    "description": "Newmag Issue #8 by Pip the Angry Youth"
  },
  {
    "filename": "newmag.009",
    "size": 986,
    "description": "Newmag Issue #2 by Pip the Angry Youth"
  },
  {
    "filename": "newmag.010",
    "size": 2382,
    "description": "Newmag Issue #10 by Pip the Angry Youth"
  },
  {
    "filename": "news-001.nfo",
    "size": 3042,
    "description": "The UsU Newsletter #1 by CyberGlitch (October 20, 1994)"
  },
  {
    "filename": "nfx-001.txt",
    "size": 16768,
    "description": "The New Fone Express #1"
  },
  {
    "filename": "nfx_001.txt",
    "size": 16768,
    "description": "The New Fone Express Issue #1"
  },
  {
    "filename": "nwoissue.001",
    "size": 6268,
    "description": "The New World Order Computer Underground Magazine Issue #1"
  },
  {
    "filename": "obscure-03",
    "size": 11359,
    "description": "Obscure Electronic #3 (June 1, 1993)"
  },
  {
    "filename": "obscure-04",
    "size": 13167,
    "description": "Obscure Electric #4 (June 8, 1993)"
  },
  {
    "filename": "orgt-1.txt",
    "size": 28037,
    "description": "Organized Thoughts Magazine, Issue 1, June 5, 1992"
  },
  {
    "filename": "orgt-3.txt",
    "size": 29266,
    "description": "Organized Thoughts Magazine, Issue 3, September 7, 1992"
  },
  {
    "filename": "orgt-4.txt",
    "size": 40290,
    "description": "Organized Thoughts Magazine, Issue 4, October 30, 1992"
  },
  {
    "filename": "out3.txt",
    "size": 29048,
    "description": "Out of Step Magazine, Volume 1, Issue 3, March 1992"
  },
  {
    "filename": "outofs2.txt",
    "size": 36256,
    "description": "Out of Step Magazine, Issue 2, by Quadrac"
  },
  {
    "filename": "p-m-s-1.txt",
    "size": 18157,
    "description": "Paranoia Media Scrutinization Volume 1,  Number 1  March 1992"
  },
  {
    "filename": "p11mag1.txt",
    "size": 56128,
    "description": "Pandemonium Magazine: Issue #1: October 31, 1993"
  },
  {
    "filename": "paj1.02",
    "size": 48747,
    "description": "The Phantom Access Journal Volume 1 Issue 2 (March 3, 1993)"
  },
  {
    "filename": "paov1n2.txt",
    "size": 13446,
    "description": "Practical Anarchy Online Issue 2.1 (January 1993)"
  },
  {
    "filename": "paw.nfo",
    "size": 4779,
    "description": "Pirates Analyze Warez Issue #4 - March 29th, 1993"
  },
  {
    "filename": "pci.nfo",
    "size": 8158,
    "description": "NFO: International Tennis, from Power Crisis International (December 5, 1993)"
  },
  {
    "filename": "pcro6-91.txt",
    "size": 39061,
    "description": "PC Review Online Issue #5 (June 1991)"
  },
  {
    "filename": "pep1.txt",
    "size": 6512,
    "description": "Public Enema Productions Issue #1"
  },
  {
    "filename": "pfa5.txt",
    "size": 24487,
    "description": "People's Freedom Association Issue #5 by Dr. Menace and Angel of Death"
  },
  {
    "filename": "pfa6.txt",
    "size": 15250,
    "description": "People's Freedom Association Issue #6 by Dr. Menace and Angel of Death"
  },
  {
    "filename": "pfa7.txt",
    "size": 28176,
    "description": "People's Freedom Association Issue #7 by Dr. Menace and Angel of Death"
  },
  {
    "filename": "pfa8.txt",
    "size": 82284,
    "description": "People's Freedom Association Issue #8 by Dr. Menace and Angel of Death"
  },
  {
    "filename": "phanews1.txt",
    "size": 35673,
    "description": "Phreakers Hackers Anarchists Newsletter #1 (May 14, 1990)"
  },
  {
    "filename": "phanews2.txt",
    "size": 123519,
    "description": "Phreakers/Hackers/Anarchists Newsletter Issue #2 (July 26, 1990)"
  },
  {
    "filename": "phate101.hpa",
    "size": 55018,
    "description": "Phreakers Hackers and Terrorists Issue #1 (December 15, 1992)"
  },
  {
    "filename": "phire1.txt",
    "size": 17153,
    "description": "Phreakin' Hackin' Informational Recreation Encyclopedia issue #1 by Kid Kopy and Ditto"
  },
  {
    "filename": "phire2.txt",
    "size": 17793,
    "description": "Phreakin' Hackin' Informational Recreation Encyclopedia issue #2 by Kid Kopy and Ditto"
  },
  {
    "filename": "phirst01.txt",
    "size": 81288,
    "description": "Phirst Amendment Issue #1 (November 7th, 1993)"
  },
  {
    "filename": "phirst04.txt",
    "size": 113733,
    "description": "Phirst Amendment Issue #4 (December 1st, 1992)"
  },
  {
    "filename": "phirst09.txt",
    "size": 112873,
    "description": "Phirst Amendment Issue #9 (January 1st, 1993)"
  },
  {
    "filename": "phylox.res",
    "size": 6060,
    "description": "The Hack Report: Volume 2 Number 5, April 27, 1993"
  },
  {
    "filename": "picric.gÝd",
    "size": 3627,
    "description": "How to make Picric Acid, by Iceman of GiD"
  },
  {
    "filename": "pirate1doc.hac",
    "size": 94272,
    "description": "PIRATE Volume #1 Issue #1"
  },
  {
    "filename": "plstique.txt",
    "size": 3075,
    "description": "Quick and Dirty Plastique, by Adam Selene"
  },
  {
    "filename": "plum_is1.txt",
    "size": 11366,
    "description": "Acid Plum Issue #1"
  },
  {
    "filename": "plum_is2.txt",
    "size": 16249,
    "description": "Acid Plum Issue #2"
  },
  {
    "filename": "plum_is3.txt",
    "size": 16347,
    "description": "Acid Plum Issue #3"
  },
  {
    "filename": "pot_1994.app",
    "size": 2727,
    "description": "APPLICATION: The Preachers of Texts"
  },
  {
    "filename": "pot_elt.txt",
    "size": 2595,
    "description": "Preachers of Texts: How to Become Elite in Days by Suicidal"
  },
  {
    "filename": "pot_hckr.txt",
    "size": 3375,
    "description": "Preachers of Texts: The Easiest and Fastest Way to Become a K-Rad Hacker, by Suicidal"
  },
  {
    "filename": "pot_hscl.txt",
    "size": 4443,
    "description": "Preachers of Texts: Hacking School Computers for Dummies, by Suicidal"
  },
  {
    "filename": "pot_new.txt",
    "size": 2390,
    "description": "Preachers of Texts: Newcomers to the HPACTV Scene... What's Happening? by Suicidal"
  },
  {
    "filename": "privatel.txt",
    "size": 97240,
    "description": "General Information on Private Line Magazine (1994)"
  },
  {
    "filename": "privl2n1",
    "size": 91929,
    "description": "Private Line: A Journal of Inquiry into the Telephone System #4 (1994)"
  },
  {
    "filename": "privl2n2",
    "size": 76257,
    "description": "Private Line: A Journal of Inquiry into the Telephone System #5 (1994)"
  },
  {
    "filename": "proj01.txt",
    "size": 30614,
    "description": "The Project Newsletter - 1 of 4 (Spring 1991)"
  },
  {
    "filename": "proj02.txt",
    "size": 64529,
    "description": "The Project Newsletter - 2 of 4 (Summer-Fall 1991)"
  },
  {
    "filename": "proj03.txt",
    "size": 34156,
    "description": "The Project Newsletter - 3 of 4 (Winter 1990-1991)"
  },
  {
    "filename": "proj04.txt",
    "size": 162959,
    "description": "The Project Newsletter - 4 of 4 (Winter-Spring-Summer 1991-92)"
  },
  {
    "filename": "psy4.nfo",
    "size": 1620,
    "description": "Psychosis Issue #4 Information"
  },
  {
    "filename": "qbnws103.nws",
    "size": 110691,
    "description": "QBNews: International QuickBasic Electronic Newsletter #3 (May 22, 1990)"
  },
  {
    "filename": "rcdstore.bom",
    "size": 4313,
    "description": "Stealing from Record Stores by Cop Killer of BOM"
  },
  {
    "filename": "reb.dpe",
    "size": 10187,
    "description": "Field Phreaking for the Absolute Moron by Rebel Angel"
  },
  {
    "filename": "report.txt",
    "size": 3979,
    "description": "The Official Party Report From The Computer CrossRoad '93"
  },
  {
    "filename": "rrg-1.hac",
    "size": 5036,
    "description": "Rebel's Riting Guild Volume 001"
  },
  {
    "filename": "schidt.3",
    "size": 14162,
    "description": "The Schidt Magazine Issue #3 (Thanksgiving 1992) by Scott T. Anderson and Dale L. Houston"
  },
  {
    "filename": "schidt.4",
    "size": 18707,
    "description": "The Schidt Issue #4 by Scott T. Anderson and Dale L. Houston (Christmas 1992)"
  },
  {
    "filename": "schidt.5",
    "size": 20926,
    "description": "The Schidt Issue #5 by Scott T. Anderson and Dale L. Houston (January 1993)"
  },
  {
    "filename": "schidt.6",
    "size": 24876,
    "description": "The Schidt Issue #6 by Scott T. Anderson and Dale L. Houston (Jan-Feb 1993)"
  },
  {
    "filename": "schidt.7",
    "size": 12709,
    "description": "The Schidt Issue #7 by Scott T. Anderson and Dale L. Houston (March 1993)"
  },
  {
    "filename": "skipmisc.028",
    "size": 45532,
    "description": "Skip's Computer Miscellanea #28 (1989)"
  },
  {
    "filename": "skwl001.pt3",
    "size": 20073,
    "description": "Sqweril Issue #1 Part 3"
  },
  {
    "filename": "soapbox.2a",
    "size": 40820,
    "description": "Soapbox Issue #2 (February, 1993) by Chad Skelton"
  },
  {
    "filename": "soapbox.2b",
    "size": 30912,
    "description": "Soapbox Issue #2 (March 30, 1993) by Chad Shelton"
  },
  {
    "filename": "speeding.bom",
    "size": 8373,
    "description": "Hints Towards Successful Speeding by Mr. Sandman of the BOM Squad"
  },
  {
    "filename": "ssm-0001.txt",
    "size": 16089,
    "description": "Sabotage and Social Engineering Monthly Issue #1 (November, 1994)"
  },
  {
    "filename": "storm000.txt",
    "size": 9932,
    "description": "Subliminal Takeover of Your Mind (STORM) Issue #1"
  },
  {
    "filename": "storm001.txt",
    "size": 6791,
    "description": "Subliminal Takeover of Your Mind (STORM) Issue #1"
  },
  {
    "filename": "storm002.txt",
    "size": 6841,
    "description": "Subliminal Takeover of Your Mind (STORM) Issue #2"
  },
  {
    "filename": "story1.bom",
    "size": 13372,
    "description": "HIM: A Story, by Mr. Sandman of the BOM Squad"
  },
  {
    "filename": "submission_guidelines",
    "size": 1362,
    "description": "CORE: Submission Guidelines"
  },
  {
    "filename": "swat.nfo",
    "size": 5045,
    "description": "SWAT: Membership List and Invitation to Join"
  },
  {
    "filename": "taep-1.txt",
    "size": 14880,
    "description": "The Acid Enema Press, Volume 1, Issue 1, August 26, 1991"
  },
  {
    "filename": "takeoff!.002",
    "size": 37525,
    "description": "Take Off! April Edition Volume 2"
  },
  {
    "filename": "tbcore001.hac",
    "size": 12743,
    "description": "Taco Bell Core Issue #1, May, 1993"
  },
  {
    "filename": "tcsb.01",
    "size": 3595,
    "description": "Telecom Computer Security Bulletin, Volume 1, Issue 1"
  },
  {
    "filename": "tcsb.02",
    "size": 5484,
    "description": "Telecom Computer Security Bulletin, Volume 1, Issue 2"
  },
  {
    "filename": "tdkeb-1.txt",
    "size": 123055,
    "description": "TDKEB Issue #1 (March 1995)"
  },
  {
    "filename": "telegra1.txt",
    "size": 46959,
    "description": "Telegraph Issue #1 (June 1994)"
  },
  {
    "filename": "telegra2.txt",
    "size": 42007,
    "description": "Telegraph Issue 2 (September 1994)"
  },
  {
    "filename": "tides.nfo",
    "size": 2013,
    "description": "BBS: Tides of Corruption BBS"
  },
  {
    "filename": "tno-001.txt",
    "size": 22341,
    "description": "The Network Observer (January 1994) Volume 1, Number 1"
  },
  {
    "filename": "tno-003.txt",
    "size": 31964,
    "description": "The Network Observer (March 1994) Volume 1, Number 3"
  },
  {
    "filename": "tno01n02.txt",
    "size": 37230,
    "description": "The Network Observer (February 1994) Volume 1, Number 2"
  },
  {
    "filename": "tno01n04.txt",
    "size": 31159,
    "description": "The Network Observer (April 1994) Volume 1, Number 4"
  },
  {
    "filename": "tollscam.bom",
    "size": 3893,
    "description": "The Toll Booth Scam, by Mr. Sandman (July 15, 1993)"
  },
  {
    "filename": "tos1a.txt",
    "size": 15083,
    "description": "The Tower of Song Canadian Culture E-Zine by Mike Winter Issue #1"
  },
  {
    "filename": "tos2.txt",
    "size": 32785,
    "description": "The Tower of Song Canadian Culture E-zine by Mike Winter Issue #2 (September 26, 1994)"
  },
  {
    "filename": "tr-0.txt",
    "size": 18717,
    "description": "TapRoot Issue #0 (August 1992)"
  },
  {
    "filename": "tr-11.txt",
    "size": 50735,
    "description": "TapRoot Issue 1.1 (December 1992)"
  },
  {
    "filename": "tr-12.txt",
    "size": 52511,
    "description": "TapRoot Issue 1.2 (December 1992)"
  },
  {
    "filename": "tr-20a.txt",
    "size": 59878,
    "description": "TapRoot Issue 2.0 (April 1993)"
  },
  {
    "filename": "tr-20b.txt",
    "size": 42936,
    "description": "Taperoot Issue 2.0 b (April 1993)"
  },
  {
    "filename": "tr_chapb.txt",
    "size": 58710,
    "description": "TapRoot Issue 3.0 (September 1993)"
  },
  {
    "filename": "tr_zines.txt",
    "size": 65554,
    "description": "TapRoot Issue 3.0 a (September 1993)"
  },
  {
    "filename": "triad.6",
    "size": 24947,
    "description": "TRIAD: Newsletter of the Syectic Underground #6 (May 20, 1989)"
  },
  {
    "filename": "triad6.txt",
    "size": 23427,
    "description": "TRIAD: Newsletter of the Systemic Undergound: Issue #6 (May 20, 1989)"
  },
  {
    "filename": "trl-001.txt",
    "size": 13136,
    "description": "Renegade Legions Technical Reports"
  },
  {
    "filename": "trl-002.txt",
    "size": 16813,
    "description": "Renegade Legions Technical Reports"
  },
  {
    "filename": "trw___10.rl",
    "size": 10999,
    "description": "The Renegade Legion Technical Reports (January 1991)"
  },
  {
    "filename": "ttp-1",
    "size": 7818,
    "description": "THe Thrashing Pirana Issue #1 (February 22, 1994)"
  },
  {
    "filename": "ttp-2",
    "size": 3534,
    "description": "The Thrashing Pirana Issue #2 (February 27, 1994)"
  },
  {
    "filename": "ttt-001.txt",
    "size": 27051,
    "description": "Thinking to Text Issue #1 by Ideal"
  },
  {
    "filename": "ttt-002.txt",
    "size": 26398,
    "description": "Thinking to Text Issue #2 by Ideal"
  },
  {
    "filename": "tzs-01.txt",
    "size": 34041,
    "description": "This Zine Sucks Issue #1 by Sed"
  },
  {
    "filename": "udp-003.txt",
    "size": 49105,
    "description": "Underground Digital Press (Issue #3) January 1993"
  },
  {
    "filename": "v3i81.txt",
    "size": 7346,
    "description": "The Teleputing Hotline Volume 3 Number 81 (October 16, 1990)"
  },
  {
    "filename": "v3i83.txt",
    "size": 7473,
    "description": "The Teleputing Hotline Volume 3 Number 83 (October 23, 1990)"
  },
  {
    "filename": "v3i87.txt",
    "size": 7430,
    "description": "The Teleputing Hotline Volume 3 Number 87 (November 6, 1990)"
  },
  {
    "filename": "v3i93.txt",
    "size": 7468,
    "description": "The Teleputing Hotline Volume 3 Number 93 (November 27, 1990)"
  },
  {
    "filename": "v3i95.txt",
    "size": 7431,
    "description": "The Teleputing Hotline Volume 3 Number 95 (December 3, 1990)"
  },
  {
    "filename": "v3i97.txt",
    "size": 7395,
    "description": "The Teleputing Hotline Volume 3 Number 97 (December 11, 1990)"
  },
  {
    "filename": "v3i99.txt",
    "size": 7474,
    "description": "The Teleputing Hotline Volume 3 Number 99 (December 18, 1990)"
  },
  {
    "filename": "voices1.1",
    "size": 96507,
    "description": "Voices from the Net Issue #1"
  },
  {
    "filename": "watcher.v05",
    "size": 47719,
    "description": "The Watcher: The New Zealand Voice of the Left Hand Path (November 1990) #5"
  },
  {
    "filename": "watcher.v06",
    "size": 45038,
    "description": "The Watcher: The New Zealand Voice of the Left Hand Path (February 1991) #6"
  },
  {
    "filename": "watcher.v07",
    "size": 43492,
    "description": "The Watcher: The New Zealand Voice of the Left Hand Path (May 1991) #7"
  },
  {
    "filename": "watcher.v08",
    "size": 60738,
    "description": "The Watcher: The New Zealand Voice of the Left Hand Path (May 1991) #8"
  },
  {
    "filename": "watcher.v09",
    "size": 37678,
    "description": "The Watcher: The New Zealand Voice of the Left Hand Path (November 1991) #9"
  },
  {
    "filename": "watcher.v10",
    "size": 38547,
    "description": "The Watcher: The New Zealand Voice of the Left Hand Path (February 1992) #10"
  },
  {
    "filename": "watcher.v11",
    "size": 46163,
    "description": "The Watcher: The New Zealand Voice of the Left Hand Path (April 1992) #11"
  },
  {
    "filename": "we17-1",
    "size": 3023,
    "description": "WE Magazine Issue 17"
  },
  {
    "filename": "weekly11.txt",
    "size": 7525,
    "description": "The Weekly Something or Rather Magazine, Volume 1, Issue 1"
  },
  {
    "filename": "whirl1.txt",
    "size": 145020,
    "description": "Whirlwind Magazine, Volume 1, Issue 1, March 1, 1994"
  },
  {
    "filename": "wwivnew6.txt",
    "size": 20387,
    "description": "WWIV News Volume 1, Issue 6, June/July 1991"
  },
  {
    "filename": "yizz2.nfo",
    "size": 2014,
    "description": "BBS: YIZZ BBS"
  },
  {
    "filename": "zine.n21",
    "size": 130560,
    "description": "Homebrewed: The Network 21 Wireheads Information Zine, June 7, 1993, Issue 1"
  }
]
