[
  {
    "filename": "rrr199112.txt",
    "size": 15411,
    "description": "Randy's Rumor Rag (December, 1991)"
  },
  {
    "filename": "rrr199201.txt",
    "size": 17348,
    "description": "Randy's Rumor Rag (January 1992)"
  },
  {
    "filename": "rrr199202.txt",
    "size": 24138,
    "description": "Randy's Rumor Rag (February, 1992)"
  },
  {
    "filename": "rrr199203.txt",
    "size": 36085,
    "description": "Randy's Rumor Rag (March, 1992)"
  },
  {
    "filename": "rrr199204.txt",
    "size": 20091,
    "description": "Randy's Rumor Rag (April, 1992)"
  },
  {
    "filename": "rrr199205.txt",
    "size": 20773,
    "description": "Randy's Rumor Rag (May, 1992)"
  },
  {
    "filename": "rrr199206.txt",
    "size": 29201,
    "description": "Randy's Rumor Rag (June, 1992)"
  },
  {
    "filename": "rrr199207.txt",
    "size": 33043,
    "description": "Randy's Rumor Rag (July, 1992)"
  },
  {
    "filename": "rrr199208.txt",
    "size": 17404,
    "description": "Randy's Rumor Rag (August, 1992)"
  },
  {
    "filename": "rrr199209.txt",
    "size": 14645,
    "description": "Randy's Rumor Rag (September, 1992)"
  },
  {
    "filename": "rrr199210.txt",
    "size": 17093,
    "description": "Randy's Rumor Rag (October, 1992)"
  },
  {
    "filename": "rrr199211.txt",
    "size": 25181,
    "description": "Randy's Rumor Rag (November, 1992)"
  },
  {
    "filename": "rrr199212.txt",
    "size": 24333,
    "description": "Randy's Rumor Rag (December, 1992)"
  },
  {
    "filename": "rrr199301.txt",
    "size": 17289,
    "description": "Randy's Rumor Rag (January, 1993)"
  },
  {
    "filename": "rrr199302.txt",
    "size": 27692,
    "description": "Randy's Rumor Rag (February, 1993)"
  },
  {
    "filename": "rrr199303.txt",
    "size": 17833,
    "description": "Randy's Rumor Rag (March, 1993)"
  },
  {
    "filename": "rrr199304.txt",
    "size": 20240,
    "description": "Randy's Rumor Rag (April, 1993)"
  },
  {
    "filename": "rrr199305.txt",
    "size": 17354,
    "description": "Randy's Rumor Rag (May, 1993)"
  },
  {
    "filename": "rrr199306.txt",
    "size": 12311,
    "description": "Randy's Rumor Rag (June, 1993)"
  },
  {
    "filename": "rrr199307.txt",
    "size": 25583,
    "description": "Randy's Rumor Rag (July, 1993)"
  },
  {
    "filename": "rrr199308.txt",
    "size": 40018,
    "description": "Randy's Rumor Rag (August, 1993)"
  },
  {
    "filename": "rrr199309.txt",
    "size": 9210,
    "description": "Randy's Rumor Rag (September, 1993)"
  },
  {
    "filename": "rrr199310.txt",
    "size": 18947,
    "description": "Randy's Rumor Rag (October, 1993)"
  },
  {
    "filename": "rrr199312.txt",
    "size": 13050,
    "description": "Randy's Rumor Rag (December, 1993)"
  },
  {
    "filename": "rrr199401.txt",
    "size": 15480,
    "description": "Randy's Rumor Rag (January, 1994)"
  },
  {
    "filename": "rrr199402.txt",
    "size": 18513,
    "description": "Randy's Rumor Rag (February, 1994)"
  },
  {
    "filename": "rrr199403.txt",
    "size": 12965,
    "description": "Randy's Rumor Rag (March, 1994)"
  },
  {
    "filename": "rrr199404.txt",
    "size": 13610,
    "description": "Randy's Rumor Rag (April, 1994)"
  },
  {
    "filename": "rrr199405.txt",
    "size": 9037,
    "description": "Randy's Rumor Rag (May, 1994)"
  },
  {
    "filename": "rrr199406.txt",
    "size": 13950,
    "description": "Randy's Rumor Rag (June, 1994)"
  },
  {
    "filename": "rrr199407.txt",
    "size": 15101,
    "description": "Randy's Rumor Rag (July 1994)"
  },
  {
    "filename": "rrr199408.txt",
    "size": 17409,
    "description": "Randy's Rumor Rag (August, 1994)"
  },
  {
    "filename": "rrr199409.txt",
    "size": 17824,
    "description": "Randy's Rumor Rag (September, 1994)"
  },
  {
    "filename": "rrr199410.txt",
    "size": 18656,
    "description": "Randy's Rumor Rag (October, 1994)"
  },
  {
    "filename": "rrr199411.txt",
    "size": 21046,
    "description": "Randy's Rumor Rag (November, 1994)"
  },
  {
    "filename": "rrr199412.txt",
    "size": 20117,
    "description": "Randy's Rumor Rag (December, 1994)"
  },
  {
    "filename": "rrr199501.txt",
    "size": 22199,
    "description": "Randy's Rumor Rag (January, 1995)"
  },
  {
    "filename": "rrr199502.txt",
    "size": 13751,
    "description": "Randy's Rumor Rag (February, 1995)"
  }
]
