[
  {
    "filename": "phuk1-00.phk",
    "size": 2692,
    "description": ""
  },
  {
    "filename": "phuk1-01.phk",
    "size": 3599,
    "description": ""
  },
  {
    "filename": "phuk1-02.phk",
    "size": 7868,
    "description": ""
  },
  {
    "filename": "phuk1-03.phk",
    "size": 19039,
    "description": ""
  },
  {
    "filename": "phuk1-04.phk",
    "size": 17226,
    "description": ""
  },
  {
    "filename": "phuk1-05.phk",
    "size": 3246,
    "description": ""
  },
  {
    "filename": "phuk1-06.phk",
    "size": 2285,
    "description": ""
  },
  {
    "filename": "phuk1-07.phk",
    "size": 4018,
    "description": ""
  },
  {
    "filename": "phuk1-08.phk",
    "size": 89859,
    "description": ""
  },
  {
    "filename": "phuk1-09.phk",
    "size": 4845,
    "description": ""
  },
  {
    "filename": "phuk1-10.phk",
    "size": 1255,
    "description": ""
  },
  {
    "filename": "phuk_01.txt",
    "size": 155935,
    "description": "PHUK Magazine Issue #1 (July, 1994)"
  },
  {
    "filename": "phuk_02.txt",
    "size": 159603,
    "description": "PHUK Magazine Issue #2 (January, 1995)"
  }
]
