[
  {
    "filename": "abba1.txt",
    "size": 15285,
    "description": "ABBA Issue #1 by Dr. Menace and the Angel of Death"
  },
  {
    "filename": "abba2.txt",
    "size": 18536,
    "description": "ABBA Issue #2 by Dr. Menace and the Angel of Death"
  },
  {
    "filename": "abba3.txt",
    "size": 20030,
    "description": "ABBA Issue #3 by Dr. Menace and the Angel of Death"
  },
  {
    "filename": "abba4.txt",
    "size": 10828,
    "description": "ABBA Issue #4 by Dr. Menace and the Angel of Death"
  },
  {
    "filename": "pfa5.txt",
    "size": 24514,
    "description": "People's Freedom Association Issue #5"
  },
  {
    "filename": "pfa6.txt",
    "size": 15247,
    "description": "People's Freedom Association Issue #6"
  },
  {
    "filename": "pfa7.txt",
    "size": 28173,
    "description": "People's Freedom Association Issue #7"
  },
  {
    "filename": "pfa8.txt",
    "size": 81489,
    "description": "People's Freedom Association Issue #8"
  }
]
