[
  {
    "filename": "angst-001.txt",
    "size": 93421,
    "description": "ANGST E-Zine Issue #1 (1994)"
  },
  {
    "filename": "angst-002.txt",
    "size": 66386,
    "description": "Angst E-Zine Issue #2 (1994)"
  },
  {
    "filename": "angst001.txt",
    "size": 73403,
    "description": "ANGST E-Zine Issue #1 (1994)"
  },
  {
    "filename": "angst002.txt",
    "size": 47151,
    "description": "Angst E-Zine Issue #2 (1994)"
  },
  {
    "filename": "angst003.txt",
    "size": 95234,
    "description": "Angst E-Zine Issue #3 (1994)"
  }
]
