[
  {
    "filename": "rvlcissd.001",
    "size": 38399,
    "description": "Revival Magazine Issue #1 (January 1993)"
  },
  {
    "filename": "rvlcissd.002",
    "size": 120034,
    "description": "Revival Magazine Issue #2 (March 1994)"
  },
  {
    "filename": "rvlcissd.003",
    "size": 169092,
    "description": "Revival Magazine Issue #3 (May 1994)"
  }
]
