[
  {
    "filename": "money001.txt",
    "size": 2079,
    "description": ""
  },
  {
    "filename": "money002.txt",
    "size": 3137,
    "description": ""
  },
  {
    "filename": "money003.txt",
    "size": 3033,
    "description": ""
  },
  {
    "filename": "money004.txt",
    "size": 1684,
    "description": ""
  },
  {
    "filename": "money005.txt",
    "size": 4548,
    "description": ""
  },
  {
    "filename": "money006.txt",
    "size": 2645,
    "description": ""
  },
  {
    "filename": "money007.txt",
    "size": 1482,
    "description": ""
  },
  {
    "filename": "money008.txt",
    "size": 7297,
    "description": ""
  },
  {
    "filename": "money009.txt",
    "size": 4303,
    "description": ""
  },
  {
    "filename": "money010.txt",
    "size": 1695,
    "description": ""
  },
  {
    "filename": "money012.txt",
    "size": 9484,
    "description": ""
  },
  {
    "filename": "money013.txt",
    "size": 5755,
    "description": ""
  },
  {
    "filename": "money014.txt",
    "size": 35142,
    "description": ""
  },
  {
    "filename": "money020.txt",
    "size": 1041,
    "description": ""
  },
  {
    "filename": "money021.txt",
    "size": 2920,
    "description": ""
  },
  {
    "filename": "money022.txt",
    "size": 4119,
    "description": ""
  },
  {
    "filename": "money023.txt",
    "size": 4436,
    "description": ""
  },
  {
    "filename": "money024.txt",
    "size": 2421,
    "description": ""
  },
  {
    "filename": "money025.txt",
    "size": 17135,
    "description": ""
  },
  {
    "filename": "money026.txt",
    "size": 3249,
    "description": ""
  },
  {
    "filename": "money027.txt",
    "size": 5396,
    "description": ""
  },
  {
    "filename": "money028.txt",
    "size": 1849,
    "description": ""
  },
  {
    "filename": "money029.txt",
    "size": 0,
    "description": "(Removed; Was a List of Names and Addresses to \"Scam\")"
  },
  {
    "filename": "money030.txt",
    "size": 4795,
    "description": ""
  },
  {
    "filename": "money031.txt",
    "size": 29116,
    "description": ""
  },
  {
    "filename": "money032.txt",
    "size": 5162,
    "description": ""
  },
  {
    "filename": "money033.txt",
    "size": 6352,
    "description": ""
  },
  {
    "filename": "money034.txt",
    "size": 2761,
    "description": ""
  },
  {
    "filename": "money035.txt",
    "size": 8100,
    "description": ""
  },
  {
    "filename": "money036.txt",
    "size": 18345,
    "description": ""
  },
  {
    "filename": "money037.txt",
    "size": 28465,
    "description": ""
  },
  {
    "filename": "money038.txt",
    "size": 6775,
    "description": ""
  },
  {
    "filename": "money039.txt",
    "size": 2793,
    "description": ""
  },
  {
    "filename": "money040.txt",
    "size": 15505,
    "description": ""
  },
  {
    "filename": "money041.txt",
    "size": 10595,
    "description": ""
  },
  {
    "filename": "money042.txt",
    "size": 4109,
    "description": ""
  },
  {
    "filename": "money043.txt",
    "size": 4329,
    "description": ""
  },
  {
    "filename": "money044.txt",
    "size": 3534,
    "description": ""
  },
  {
    "filename": "money045.txt",
    "size": 12892,
    "description": ""
  },
  {
    "filename": "money046.txt",
    "size": 9840,
    "description": ""
  },
  {
    "filename": "money047.txt",
    "size": 7712,
    "description": ""
  },
  {
    "filename": "money048.txt",
    "size": 2225,
    "description": ""
  },
  {
    "filename": "money049.txt",
    "size": 21627,
    "description": ""
  },
  {
    "filename": "money050.txt",
    "size": 7993,
    "description": ""
  },
  {
    "filename": "money051.txt",
    "size": 4905,
    "description": ""
  },
  {
    "filename": "money052.txt",
    "size": 3079,
    "description": ""
  },
  {
    "filename": "money053.txt",
    "size": 123367,
    "description": ""
  },
  {
    "filename": "money054.txt",
    "size": 28615,
    "description": ""
  },
  {
    "filename": "money055.txt",
    "size": 2751,
    "description": ""
  },
  {
    "filename": "money056.txt",
    "size": 2294,
    "description": ""
  },
  {
    "filename": "mycindex.txt",
    "size": 3190,
    "description": ""
  }
]
