[
  {
    "filename": "hu1-1.phk",
    "size": 150677,
    "description": "Hackers Unlimited Magazine, Volume 1, Issue 1, October 2, 1989"
  },
  {
    "filename": "hu1-2.phk",
    "size": 79611,
    "description": "Hackers Unlimited Magazine, Volume 1, Issue 2, December 22, 1989"
  },
  {
    "filename": "huv1-2.2nd",
    "size": 6410,
    "description": "A Call from Hackers Unlimited for Reader Input, plus bonus files"
  }
]
