[
  {
    "filename": "serenia.1",
    "size": 22555,
    "description": "The Scrolls of Serenia: The First Issue by Warlock"
  },
  {
    "filename": "serenia.2",
    "size": 23632,
    "description": "The Scrolls of Serenia: Issue #2 by Warlock"
  },
  {
    "filename": "serenia.3",
    "size": 17105,
    "description": "The Scrolls of Serenia: Issue #3 by The Warlock"
  }
]
