[
  {
    "filename": "aftershk001.phk",
    "size": 4703,
    "description": "Issue #1: Grettings, by Nitro-187, 01/01/1993"
  },
  {
    "filename": "aftershk002.phk",
    "size": 3393,
    "description": "Issue #2, Libraries can be Fun, 02/12/1993"
  },
  {
    "filename": "aftershk003.phk",
    "size": 11555,
    "description": "Issue #3: Miscellaneous VAX/VMS Text, by Nitro-187"
  },
  {
    "filename": "aftershk004.phk",
    "size": 7116,
    "description": "Issue #4: Absolutely NOTHING!! by Meaty Smurf, 04/26/1993"
  },
  {
    "filename": "aftershk005.phk",
    "size": 10217,
    "description": "Issue #5: Guide to the IRIS System, by Nitro-187, 05/04/1993"
  },
  {
    "filename": "aftershk006.phk",
    "size": 10856,
    "description": "Issue #6: The BLAH/Aftershock Twit of the Month, by Lord Gee"
  },
  {
    "filename": "aftershk007.phk",
    "size": 10631,
    "description": "Issue #7: Guide to BBS Abusing, by Meaty Smurf, 05/08/1993"
  },
  {
    "filename": "aftershk008.phk",
    "size": 37396,
    "description": "Issue #8: General Info on Linux, by Nitro-187, 05/08/1993"
  },
  {
    "filename": "aftershk009.phk",
    "size": 9888,
    "description": "Issue #9: Source for MGRMAIL(c) by Nitro-187, 05/08/1993"
  },
  {
    "filename": "aftershk011.phk",
    "size": 40532,
    "description": "Issue #11: Davidian Search Warrant, by Some ATF Guy, 05/16/1993"
  },
  {
    "filename": "aftershk012.phk",
    "size": 5144,
    "description": "Issue #12: The Fundamentalist Christian File, by Meaty Smurf, 05/16/1993"
  },
  {
    "filename": "aftershk013.phk",
    "size": 18410,
    "description": "Issue #13: Body Count (Lyrics), by Meaty/N-187, 05/18/1993"
  }
]
