[
  {
    "filename": "impr2110.txt",
    "size": 31738,
    "description": "Imprimis, On Line -- October, 1992"
  },
  {
    "filename": "impr9202.txt",
    "size": 21938,
    "description": "Imprimis, On Line -- February 1992"
  },
  {
    "filename": "impr9203.txt",
    "size": 26179,
    "description": "Imprimis, On Line -- March 1992"
  },
  {
    "filename": "impr9204.txt",
    "size": 42263,
    "description": "Imprimis, On Line -- April 1992"
  },
  {
    "filename": "impr9205.txt",
    "size": 47720,
    "description": "Imprimis, On Line -- May 1992"
  },
  {
    "filename": "impr9206.txt",
    "size": 22105,
    "description": "Imprimis, On Line -- June 1992"
  },
  {
    "filename": "impr9207.txt",
    "size": 39025,
    "description": "Imprimis, On Line -- July, 1992"
  },
  {
    "filename": "impr9208.txt",
    "size": 22056,
    "description": "Imprimis, On Line -- August 1992"
  },
  {
    "filename": "impr9209.txt",
    "size": 24045,
    "description": "Imprimis, On Line -- September 1992"
  },
  {
    "filename": "impr9210.txt",
    "size": 22940,
    "description": "Imprimis, On Line -- October, 1992"
  },
  {
    "filename": "impr9211.txt",
    "size": 36949,
    "description": "Imprimis, On Line -- November, 1992"
  },
  {
    "filename": "impr9212.txt",
    "size": 21487,
    "description": "Imprimis, On Line -- December 1992"
  },
  {
    "filename": "impr9301.txt",
    "size": 13165,
    "description": "Imprimis, On Line -- January, 1993"
  },
  {
    "filename": "impr9302.txt",
    "size": 14331,
    "description": "Imprimis, On Line -- February, 1993"
  },
  {
    "filename": "impr9303.txt",
    "size": 17566,
    "description": "Imprimis, On Line -- March, 1993"
  },
  {
    "filename": "impr9304.txt",
    "size": 25097,
    "description": "Imprimis, On Line -- April, 1993"
  },
  {
    "filename": "impr9309.txt",
    "size": 22645,
    "description": "Imprimis, On Line -- September, 1993"
  },
  {
    "filename": "impr9310.txt",
    "size": 22574,
    "description": "Imprimis, On Line -- October, 1993"
  },
  {
    "filename": "impr9311.txt",
    "size": 29420,
    "description": "Imprimis, On Line -- November, 1993"
  },
  {
    "filename": "impr9312.txt",
    "size": 30562,
    "description": "Imprimis, On Line -- December, 1993"
  },
  {
    "filename": "impr9503.txt",
    "size": 26127,
    "description": "Imprimis, On Line -- March, 1995"
  },
  {
    "filename": "impr9504.txt",
    "size": 35502,
    "description": "Imprimis, On Line -- April, 1995"
  },
  {
    "filename": "impr9505.txt",
    "size": 38151,
    "description": "Imprimis, On Line -- May, 1995"
  }
]
