[
  {
    "filename": "atmo6.txt",
    "size": 61910,
    "description": "Atmospherics Issue #6 (Fall, 1995)"
  },
  {
    "filename": "atmo7.txt",
    "size": 54048,
    "description": "Atmospherics Issue #7 (Winter, 1996)"
  },
  {
    "filename": "atmos5.txt",
    "size": 91250,
    "description": "Atmospherics Issue #5 (Summer, 1995)"
  },
  {
    "filename": "atmospherics-1.1",
    "size": 161203,
    "description": "Atmospherics Issue #1 (Summer, 1994)"
  },
  {
    "filename": "atmospherics-1.2",
    "size": 23143,
    "description": "Atmospherics Issue #2 (Fall, 1994)"
  },
  {
    "filename": "atmospherics-1.3",
    "size": 47223,
    "description": "Atmospherics Issue #3 (Winter, 1994)"
  },
  {
    "filename": "atmospherics-1.4",
    "size": 25245,
    "description": "Atmospherics Issue #4 (Spring, 1995)"
  },
  {
    "filename": "atmospherics4",
    "size": 25245,
    "description": "Atmospherics Issue #4 (Spring, 1995)"
  }
]
