[
  {
    "filename": "cotno01.phk",
    "size": 71017,
    "description": "Communications of the New Order, Issue #1, Summer 1993"
  },
  {
    "filename": "cotno02.phk",
    "size": 108051,
    "description": "Communications of the New Order, Issue #2, September/October 1993"
  },
  {
    "filename": "cotno03.phk",
    "size": 104393,
    "description": "Communications of the New Order, Issue #3, November/December 1993"
  },
  {
    "filename": "cotno04.phk",
    "size": 204069,
    "description": "Communications of the New Order, Issue #4, Spring/Summer 1994"
  },
  {
    "filename": "cotno05.txt",
    "size": 83667,
    "description": "Communications of the New Order, Issue #5, Fall 1994"
  },
  {
    "filename": "cotno06.phk",
    "size": 171352,
    "description": "Communications of the New Order, Issue #6, Fall 1995"
  },
  {
    "filename": "cotnoidx.phk",
    "size": 6290,
    "description": "Index of the first 5 issues of the COTNO"
  }
]
