[
  {
    "filename": "jauc1-1.phk",
    "size": 41499,
    "description": "The Journal of American Underground Computing Issue #1, March 19, 1994"
  },
  {
    "filename": "jauc1-2.phk",
    "size": 151508,
    "description": "The Journal of American Underground Computing Issue #2, April 4, 1994"
  },
  {
    "filename": "jauc1-3.phk",
    "size": 162065,
    "description": "The Journal of American Underground Computing Issue #3, April 30, 1994"
  },
  {
    "filename": "jauc1-4.phk",
    "size": 161752,
    "description": "The Journal of American Underground Computing Issue #4, June 7, 1994"
  },
  {
    "filename": "jauc1-5.phk",
    "size": 129875,
    "description": "The Journal of American Underground Computing Issue #5, August 1, 1994"
  },
  {
    "filename": "jauc1-6.phk",
    "size": 292482,
    "description": "The Journal of American Underground Computing Issue #6, October 1, 1994"
  },
  {
    "filename": "jauc1-7.phk",
    "size": 429021,
    "description": "The Journal of American Underground Computing Issue #7, January 17, 1995"
  },
  {
    "filename": "readme.phk",
    "size": 494,
    "description": "Introduction to The Journal Of American Underground Computing"
  }
]
