[
  {
    "filename": "nc-001.txt",
    "size": 16913,
    "description": "Neurocactus Bulletin Issue #1 (1993)"
  },
  {
    "filename": "nc-002.txt",
    "size": 58255,
    "description": "Neurocactus Bulletin Issue #2"
  },
  {
    "filename": "nc-004.txt",
    "size": 33649,
    "description": "Neurocactus Bulletin Issue #4"
  },
  {
    "filename": "nc-005.txt",
    "size": 50564,
    "description": "Neurocactus Bulletin Issue #5"
  },
  {
    "filename": "nc-006.txt",
    "size": 57157,
    "description": "Neurocactus Bulletin Issue #6"
  },
  {
    "filename": "nc-007.txt",
    "size": 45118,
    "description": "Neurocactus Bulletin Issue #7"
  },
  {
    "filename": "nc-008.txt",
    "size": 107113,
    "description": "Neurocactus Bulletin Issue #8"
  },
  {
    "filename": "nc-index.txt",
    "size": 6973,
    "description": "Neurocactus Bulletin Index"
  }
]
