[
  {
    "filename": "1-1.s",
    "size": 30596,
    "description": "Bottom, by Adrian Edmondson and Rik Mayall (Series 1, Episode 1) \"Smells\""
  },
  {
    "filename": "1-2.s",
    "size": 33250,
    "description": "Bottom, by Adrian Edmondson and Rik Mayall (Series 1, Episode 2) \"Gas\""
  },
  {
    "filename": "1-3.c",
    "size": 29205,
    "description": "Bottom, by Adrian Edmondson and Rik Mayall (Series 1, Episode 3) \"Contest\""
  },
  {
    "filename": "1-4.a",
    "size": 32668,
    "description": "Bottom, by Adrian Edmondson and Rik Mayall (Series 1, Episode 4) \"Apocalypse\""
  },
  {
    "filename": "1-5.a",
    "size": 34219,
    "description": "Bottom, by Adrian Edmondson and Rik Mayall (Series 1, Episode 5) \"'S Up\""
  },
  {
    "filename": "1-6.a",
    "size": 31604,
    "description": "Bottom, by Adrian Edmondson and Rik Mayall (Series 1, Episode 6) \"Accident\""
  },
  {
    "filename": "2.1_d",
    "size": 27641,
    "description": "Bottom, by Adrian Edmondson and Rik Mayall (Series 2, Episode 1) \"Digger\""
  },
  {
    "filename": "2.2_c",
    "size": 29390,
    "description": "Bottom, by Adrian Edmondson and Rik Mayall (Series 2, Episode 2) \"Culture\""
  },
  {
    "filename": "2.3_b",
    "size": 31649,
    "description": "Bottom, by Adrian Edmondson and Rik Mayall (Series 2, Episode 3) \"Burglary\""
  },
  {
    "filename": "2.4_p",
    "size": 38021,
    "description": "Bottom, by Adrian Edmondson and Rik Mayall (Series 2, Episode 4) \"Parade\""
  },
  {
    "filename": "2.5_h",
    "size": 31151,
    "description": "Bottom, by Adrian Edmondson and Rik Mayall (Series 2, Episode 5) \"Holy\""
  },
  {
    "filename": "2.6_s",
    "size": 31576,
    "description": "Bottom, by Adrian Edmondson and Rik Mayall (Series 2, Episode 6) \"'S Out\""
  },
  {
    "filename": "a_touch_.cla",
    "size": 45848,
    "description": "Fawlty Towers: A Touch of Class, by John Cleese and Connie Booth (Series 1, Episode 1)"
  },
  {
    "filename": "airplane",
    "size": 64096,
    "description": "SCRIPT: Airplane! by Jim Abrahams, David & Jerry Zucker"
  },
  {
    "filename": "aliens",
    "size": 265144,
    "description": "Script: Aliens, by James Cameron (May 28th, 1985)"
  },
  {
    "filename": "army_of.dar",
    "size": 152605,
    "description": "Script to Evil Dead III: The Army of Darkness, by Sam Raimi and Ivan Raimi (January 3, 1991)"
  },
  {
    "filename": "ba-quote.txt",
    "size": 60905,
    "description": "The Black Adder Series Quotes List"
  },
  {
    "filename": "brian",
    "size": 28239,
    "description": "Script to Monty Python's Life of Brian"
  },
  {
    "filename": "cash",
    "size": 39178,
    "description": "The Young Ones: \"Cash\" Transcription by Kristen"
  },
  {
    "filename": "erikvikg.txt",
    "size": 122593,
    "description": "Transcription of the movie Erik the Viking"
  },
  {
    "filename": "german",
    "size": 40842,
    "description": "Monty Python's Fliegender Zirkus - 1972 German Special (Script)"
  },
  {
    "filename": "ghostscr.hum",
    "size": 60262,
    "description": "Schript from The Real Ghostbusters \"Knock Knock\""
  },
  {
    "filename": "giants.hum",
    "size": 15197,
    "description": "Play by Play of Superbowl XXI"
  },
  {
    "filename": "grail",
    "size": 74635,
    "description": "Monty Python and the Holy Grail: The Film Script"
  },
  {
    "filename": "grail.sub",
    "size": 2067,
    "description": "The Subtitles from Monty Python and the Holy Grail"
  },
  {
    "filename": "happy",
    "size": 8168,
    "description": "The Young Ones: \"All the Little Ones are Happy\" Transcribed by Greg O'Beirne"
  },
  {
    "filename": "holygral.txt",
    "size": 63588,
    "description": "SCRIPT: Monty Python and the Holy Grail, by AHH (January 25, 1989)"
  },
  {
    "filename": "nycscrip.txt",
    "size": 76544,
    "description": "Complete Script and Catcall Selection for the Rocky Horror Picture Show"
  },
  {
    "filename": "rhps.fun",
    "size": 73257,
    "description": "Complete Scripts and Suggested Reponses to Rocky Horror Picture Show from Dartmouth College Computing Center"
  },
  {
    "filename": "rhps.txt",
    "size": 79762,
    "description": "Rocky Horror Picture Show Audience Participant Script, Dartmouth Version"
  },
  {
    "filename": "twnpks.txt",
    "size": 4690,
    "description": "Twin Peaks: Summary of First Show"
  }
]
