[
  {
    "filename": "bw1help.txt",
    "size": 1477,
    "description": ""
  },
  {
    "filename": "bw2help.txt",
    "size": 2925,
    "description": ""
  },
  {
    "filename": "bw2man.htm",
    "size": 76701,
    "description": ""
  },
  {
    "filename": "bw820320.txt",
    "size": 32733,
    "description": ""
  },
  {
    "filename": "bw820514.txt",
    "size": 26681,
    "description": ""
  },
  {
    "filename": "bw820517.txt",
    "size": 26616,
    "description": ""
  },
  {
    "filename": "bw820730.txt",
    "size": 35038,
    "description": ""
  },
  {
    "filename": "bw820809.txt",
    "size": 36608,
    "description": ""
  },
  {
    "filename": "bw821105.txt",
    "size": 38897,
    "description": ""
  },
  {
    "filename": "bw821116.txt",
    "size": 39236,
    "description": ""
  },
  {
    "filename": "bw821123.txt",
    "size": 36211,
    "description": ""
  },
  {
    "filename": "bw821205.txt",
    "size": 42112,
    "description": ""
  },
  {
    "filename": "bw821214.txt",
    "size": 32256,
    "description": ""
  },
  {
    "filename": "bw821222.txt",
    "size": 34816,
    "description": ""
  },
  {
    "filename": "bw830105.txt",
    "size": 36342,
    "description": ""
  },
  {
    "filename": "bw830109.txt",
    "size": 28543,
    "description": ""
  },
  {
    "filename": "bw830120.txt",
    "size": 29312,
    "description": ""
  },
  {
    "filename": "bw830203.txt",
    "size": 35455,
    "description": ""
  },
  {
    "filename": "bw830219.txt",
    "size": 26496,
    "description": ""
  },
  {
    "filename": "bw830306.txt",
    "size": 32767,
    "description": ""
  },
  {
    "filename": "bw830322.txt",
    "size": 32640,
    "description": ""
  },
  {
    "filename": "bw830325.txt",
    "size": 36608,
    "description": ""
  },
  {
    "filename": "bw830328.txt",
    "size": 35328,
    "description": ""
  },
  {
    "filename": "bw830403.txt",
    "size": 40576,
    "description": ""
  },
  {
    "filename": "bw830418.txt",
    "size": 41216,
    "description": ""
  },
  {
    "filename": "bw830426.txt",
    "size": 38905,
    "description": ""
  },
  {
    "filename": "bw830506.txt",
    "size": 38528,
    "description": ""
  },
  {
    "filename": "bw830516.txt",
    "size": 29619,
    "description": ""
  },
  {
    "filename": "bw830520.txt",
    "size": 31770,
    "description": ""
  },
  {
    "filename": "bw830525.txt",
    "size": 31205,
    "description": ""
  },
  {
    "filename": "bw830530.txt",
    "size": 32550,
    "description": ""
  },
  {
    "filename": "bw830602.txt",
    "size": 31771,
    "description": ""
  },
  {
    "filename": "bw830604.txt",
    "size": 35156,
    "description": ""
  },
  {
    "filename": "bw830611.txt",
    "size": 35758,
    "description": ""
  },
  {
    "filename": "bw830616.txt",
    "size": 32512,
    "description": ""
  },
  {
    "filename": "bw830622.txt",
    "size": 37872,
    "description": ""
  },
  {
    "filename": "bw830626.txt",
    "size": 33721,
    "description": ""
  },
  {
    "filename": "bw830703.txt",
    "size": 30313,
    "description": ""
  },
  {
    "filename": "bw830706.txt",
    "size": 35381,
    "description": ""
  },
  {
    "filename": "bw830709.txt",
    "size": 29921,
    "description": ""
  },
  {
    "filename": "bw830712.txt",
    "size": 32041,
    "description": ""
  },
  {
    "filename": "bw830717.txt",
    "size": 32746,
    "description": ""
  },
  {
    "filename": "bw830721.txt",
    "size": 26827,
    "description": ""
  },
  {
    "filename": "bw830723.txt",
    "size": 35322,
    "description": ""
  },
  {
    "filename": "bw830730.txt",
    "size": 31488,
    "description": ""
  },
  {
    "filename": "bw830801.txt",
    "size": 27068,
    "description": ""
  },
  {
    "filename": "bw830803.txt",
    "size": 33170,
    "description": ""
  },
  {
    "filename": "bw830806.txt",
    "size": 36661,
    "description": ""
  },
  {
    "filename": "bw830811.txt",
    "size": 35561,
    "description": ""
  },
  {
    "filename": "bw830813.txt",
    "size": 34520,
    "description": ""
  },
  {
    "filename": "bw830815.txt",
    "size": 41308,
    "description": ""
  },
  {
    "filename": "bw830818.txt",
    "size": 36300,
    "description": ""
  },
  {
    "filename": "bw830821.txt",
    "size": 36474,
    "description": ""
  },
  {
    "filename": "bw830824.txt",
    "size": 40582,
    "description": ""
  },
  {
    "filename": "bw830827.txt",
    "size": 39349,
    "description": ""
  },
  {
    "filename": "bw830830.txt",
    "size": 37732,
    "description": ""
  },
  {
    "filename": "bw830902.txt",
    "size": 35945,
    "description": ""
  },
  {
    "filename": "bw830906.txt",
    "size": 35403,
    "description": ""
  },
  {
    "filename": "bw830908.txt",
    "size": 27755,
    "description": ""
  },
  {
    "filename": "bw830911.txt",
    "size": 35724,
    "description": ""
  },
  {
    "filename": "bw830913.txt",
    "size": 39043,
    "description": ""
  },
  {
    "filename": "bw830915.txt",
    "size": 39730,
    "description": ""
  },
  {
    "filename": "bw830918.txt",
    "size": 33825,
    "description": ""
  },
  {
    "filename": "bw830920.txt",
    "size": 40437,
    "description": ""
  },
  {
    "filename": "bw830923.txt",
    "size": 40085,
    "description": ""
  },
  {
    "filename": "bw830925.txt",
    "size": 37358,
    "description": ""
  },
  {
    "filename": "bw830927.txt",
    "size": 36736,
    "description": ""
  },
  {
    "filename": "bw830929.txt",
    "size": 35909,
    "description": ""
  },
  {
    "filename": "bw831002.txt",
    "size": 36078,
    "description": ""
  },
  {
    "filename": "bw831014.txt",
    "size": 32255,
    "description": ""
  },
  {
    "filename": "bw831016.txt",
    "size": 41900,
    "description": ""
  },
  {
    "filename": "bw831019.txt",
    "size": 40747,
    "description": ""
  },
  {
    "filename": "bw831021.txt",
    "size": 42575,
    "description": ""
  },
  {
    "filename": "bw831023.txt",
    "size": 35669,
    "description": ""
  },
  {
    "filename": "bw831025.txt",
    "size": 43221,
    "description": ""
  },
  {
    "filename": "bw831027.txt",
    "size": 39508,
    "description": ""
  },
  {
    "filename": "bw831029.txt",
    "size": 40034,
    "description": ""
  },
  {
    "filename": "bw831101.txt",
    "size": 40414,
    "description": ""
  },
  {
    "filename": "bw831104.txt",
    "size": 38285,
    "description": ""
  },
  {
    "filename": "bw831107.txt",
    "size": 42394,
    "description": ""
  },
  {
    "filename": "bw831110.txt",
    "size": 39166,
    "description": ""
  },
  {
    "filename": "bw831112.txt",
    "size": 38279,
    "description": ""
  },
  {
    "filename": "bw831113.txt",
    "size": 35867,
    "description": ""
  },
  {
    "filename": "bw831116.txt",
    "size": 40034,
    "description": ""
  },
  {
    "filename": "bw831120.txt",
    "size": 38301,
    "description": ""
  },
  {
    "filename": "bw831122.txt",
    "size": 34482,
    "description": ""
  },
  {
    "filename": "bw831125.txt",
    "size": 32512,
    "description": ""
  },
  {
    "filename": "bw831127.txt",
    "size": 34570,
    "description": ""
  },
  {
    "filename": "bw831130.txt",
    "size": 32511,
    "description": ""
  },
  {
    "filename": "bw831203.txt",
    "size": 34885,
    "description": ""
  },
  {
    "filename": "bw831207.txt",
    "size": 34841,
    "description": ""
  },
  {
    "filename": "bw831210.txt",
    "size": 34872,
    "description": ""
  },
  {
    "filename": "bw831213.txt",
    "size": 32204,
    "description": ""
  },
  {
    "filename": "bw831215.txt",
    "size": 35065,
    "description": ""
  },
  {
    "filename": "bw831216.txt",
    "size": 38376,
    "description": ""
  },
  {
    "filename": "bw831219.txt",
    "size": 40974,
    "description": ""
  },
  {
    "filename": "bw831222.txt",
    "size": 43452,
    "description": ""
  },
  {
    "filename": "bw831224.txt",
    "size": 32477,
    "description": ""
  },
  {
    "filename": "bw831228.txt",
    "size": 32502,
    "description": ""
  },
  {
    "filename": "bw831231.txt",
    "size": 34120,
    "description": ""
  },
  {
    "filename": "bw840101.txt",
    "size": 34180,
    "description": ""
  },
  {
    "filename": "bw840104.txt",
    "size": 29179,
    "description": ""
  },
  {
    "filename": "bw840105.txt",
    "size": 37726,
    "description": ""
  },
  {
    "filename": "bw840107.txt",
    "size": 34905,
    "description": ""
  },
  {
    "filename": "bw840109.txt",
    "size": 36383,
    "description": ""
  },
  {
    "filename": "bw840112.txt",
    "size": 36577,
    "description": ""
  },
  {
    "filename": "bw840114.txt",
    "size": 35777,
    "description": ""
  },
  {
    "filename": "bw840116.txt",
    "size": 36461,
    "description": ""
  },
  {
    "filename": "bw840118.txt",
    "size": 40002,
    "description": ""
  },
  {
    "filename": "bw840119.txt",
    "size": 38407,
    "description": ""
  },
  {
    "filename": "bw840121.txt",
    "size": 32343,
    "description": ""
  },
  {
    "filename": "bw840125.txt",
    "size": 37644,
    "description": ""
  },
  {
    "filename": "bw840128.txt",
    "size": 34348,
    "description": ""
  },
  {
    "filename": "bw840129.txt",
    "size": 36065,
    "description": ""
  },
  {
    "filename": "bw840130.txt",
    "size": 37441,
    "description": ""
  },
  {
    "filename": "bw840201.txt",
    "size": 37787,
    "description": ""
  },
  {
    "filename": "bw840204.txt",
    "size": 38330,
    "description": ""
  },
  {
    "filename": "bw840206.txt",
    "size": 35818,
    "description": ""
  },
  {
    "filename": "bw840208.txt",
    "size": 39869,
    "description": ""
  },
  {
    "filename": "bw840210.txt",
    "size": 39779,
    "description": ""
  },
  {
    "filename": "bw840211.txt",
    "size": 34273,
    "description": ""
  },
  {
    "filename": "bw840213.txt",
    "size": 34401,
    "description": ""
  },
  {
    "filename": "bw840215.txt",
    "size": 35704,
    "description": ""
  },
  {
    "filename": "bw840218.txt",
    "size": 32162,
    "description": ""
  },
  {
    "filename": "bw840220.txt",
    "size": 31888,
    "description": ""
  },
  {
    "filename": "bw840222.txt",
    "size": 34214,
    "description": ""
  },
  {
    "filename": "bw840224.txt",
    "size": 36495,
    "description": ""
  },
  {
    "filename": "bw840226.txt",
    "size": 33469,
    "description": ""
  },
  {
    "filename": "bw840228.txt",
    "size": 32701,
    "description": ""
  },
  {
    "filename": "bw840229.txt",
    "size": 32977,
    "description": ""
  },
  {
    "filename": "bw840302.txt",
    "size": 33256,
    "description": ""
  },
  {
    "filename": "bw840304.txt",
    "size": 32344,
    "description": ""
  },
  {
    "filename": "bw840306.txt",
    "size": 36225,
    "description": ""
  },
  {
    "filename": "bw840308.txt",
    "size": 33117,
    "description": ""
  },
  {
    "filename": "bw840311.txt",
    "size": 33722,
    "description": ""
  },
  {
    "filename": "bw840313.txt",
    "size": 35505,
    "description": ""
  },
  {
    "filename": "bw840315.txt",
    "size": 31272,
    "description": ""
  },
  {
    "filename": "bw840317.txt",
    "size": 33794,
    "description": ""
  },
  {
    "filename": "bw840319.txt",
    "size": 33403,
    "description": ""
  },
  {
    "filename": "bw840321.txt",
    "size": 35518,
    "description": ""
  },
  {
    "filename": "bw840323.txt",
    "size": 33209,
    "description": ""
  },
  {
    "filename": "bw840325.txt",
    "size": 35300,
    "description": ""
  },
  {
    "filename": "bw840328.txt",
    "size": 27029,
    "description": ""
  },
  {
    "filename": "bw840330.txt",
    "size": 36386,
    "description": ""
  },
  {
    "filename": "bw840402.txt",
    "size": 38563,
    "description": ""
  },
  {
    "filename": "bw840403.txt",
    "size": 28594,
    "description": ""
  },
  {
    "filename": "bw840405.txt",
    "size": 41026,
    "description": ""
  },
  {
    "filename": "bw840408.txt",
    "size": 36926,
    "description": ""
  },
  {
    "filename": "bw840411.txt",
    "size": 39244,
    "description": ""
  },
  {
    "filename": "bw840413.txt",
    "size": 39703,
    "description": ""
  },
  {
    "filename": "bw840415.txt",
    "size": 35116,
    "description": ""
  },
  {
    "filename": "bw840417.txt",
    "size": 35020,
    "description": ""
  },
  {
    "filename": "bw840419.txt",
    "size": 40220,
    "description": ""
  },
  {
    "filename": "bw840421.txt",
    "size": 36570,
    "description": ""
  },
  {
    "filename": "bw840423.txt",
    "size": 37859,
    "description": ""
  },
  {
    "filename": "bw840425.txt",
    "size": 36636,
    "description": ""
  },
  {
    "filename": "bw840427.txt",
    "size": 37506,
    "description": ""
  },
  {
    "filename": "bw840430.txt",
    "size": 35759,
    "description": ""
  },
  {
    "filename": "bw840501.txt",
    "size": 36977,
    "description": ""
  },
  {
    "filename": "bw840503.txt",
    "size": 40223,
    "description": ""
  },
  {
    "filename": "bw840505.txt",
    "size": 33879,
    "description": ""
  },
  {
    "filename": "bw840506.txt",
    "size": 32326,
    "description": ""
  },
  {
    "filename": "bw840509.txt",
    "size": 36390,
    "description": ""
  },
  {
    "filename": "bw840510.txt",
    "size": 36944,
    "description": ""
  },
  {
    "filename": "bw840511.txt",
    "size": 32462,
    "description": ""
  },
  {
    "filename": "bw840514.txt",
    "size": 41558,
    "description": ""
  },
  {
    "filename": "bw840516.txt",
    "size": 40268,
    "description": ""
  },
  {
    "filename": "bw840518.txt",
    "size": 33083,
    "description": ""
  },
  {
    "filename": "bw840520.txt",
    "size": 41930,
    "description": ""
  },
  {
    "filename": "bw840523.txt",
    "size": 40217,
    "description": ""
  },
  {
    "filename": "bw840524.txt",
    "size": 42904,
    "description": ""
  },
  {
    "filename": "bw840526.txt",
    "size": 36211,
    "description": ""
  },
  {
    "filename": "bw840528.txt",
    "size": 41832,
    "description": ""
  },
  {
    "filename": "bw840529.txt",
    "size": 40965,
    "description": ""
  },
  {
    "filename": "bw840531.txt",
    "size": 43399,
    "description": ""
  },
  {
    "filename": "bw840602.txt",
    "size": 45531,
    "description": ""
  },
  {
    "filename": "bw840605.txt",
    "size": 41983,
    "description": ""
  },
  {
    "filename": "bw840607.txt",
    "size": 43700,
    "description": ""
  },
  {
    "filename": "bw840609.txt",
    "size": 41721,
    "description": ""
  },
  {
    "filename": "bw840611.txt",
    "size": 39497,
    "description": ""
  },
  {
    "filename": "bw840612.txt",
    "size": 34931,
    "description": ""
  },
  {
    "filename": "bw840614.txt",
    "size": 36401,
    "description": ""
  },
  {
    "filename": "bw840615.txt",
    "size": 38256,
    "description": ""
  },
  {
    "filename": "bw840618.txt",
    "size": 35614,
    "description": ""
  },
  {
    "filename": "bw840620.txt",
    "size": 39510,
    "description": ""
  },
  {
    "filename": "bw840622.txt",
    "size": 37635,
    "description": ""
  },
  {
    "filename": "bw840624.txt",
    "size": 38278,
    "description": ""
  },
  {
    "filename": "bw840625.txt",
    "size": 39317,
    "description": ""
  },
  {
    "filename": "bw840627.txt",
    "size": 37474,
    "description": ""
  },
  {
    "filename": "bw840628.txt",
    "size": 34303,
    "description": ""
  },
  {
    "filename": "bw840630.txt",
    "size": 33823,
    "description": ""
  },
  {
    "filename": "bw840703.txt",
    "size": 37830,
    "description": ""
  },
  {
    "filename": "bw840706.txt",
    "size": 39292,
    "description": ""
  },
  {
    "filename": "bw840708.txt",
    "size": 46171,
    "description": ""
  },
  {
    "filename": "bw840711.txt",
    "size": 45305,
    "description": ""
  },
  {
    "filename": "bw840712.txt",
    "size": 38935,
    "description": ""
  },
  {
    "filename": "bw840714.txt",
    "size": 38887,
    "description": ""
  },
  {
    "filename": "bw840715.txt",
    "size": 41515,
    "description": ""
  },
  {
    "filename": "bw840717.txt",
    "size": 32804,
    "description": ""
  },
  {
    "filename": "bw840718.txt",
    "size": 40355,
    "description": ""
  },
  {
    "filename": "bw840719.txt",
    "size": 41733,
    "description": ""
  },
  {
    "filename": "bw840720.txt",
    "size": 42021,
    "description": ""
  },
  {
    "filename": "bw840723.txt",
    "size": 41035,
    "description": ""
  },
  {
    "filename": "bw840724.txt",
    "size": 40824,
    "description": ""
  },
  {
    "filename": "bw840726.txt",
    "size": 36880,
    "description": ""
  },
  {
    "filename": "bw840728.txt",
    "size": 37451,
    "description": ""
  },
  {
    "filename": "bw840730.txt",
    "size": 35853,
    "description": ""
  },
  {
    "filename": "bw840801.txt",
    "size": 33902,
    "description": ""
  },
  {
    "filename": "bw840803.txt",
    "size": 37433,
    "description": ""
  },
  {
    "filename": "bw840805.txt",
    "size": 39374,
    "description": ""
  },
  {
    "filename": "bw840807.txt",
    "size": 41847,
    "description": ""
  },
  {
    "filename": "bw840809.txt",
    "size": 37640,
    "description": ""
  },
  {
    "filename": "bw840811.txt",
    "size": 37118,
    "description": ""
  },
  {
    "filename": "bw840814.txt",
    "size": 36946,
    "description": ""
  },
  {
    "filename": "bw840815.txt",
    "size": 41658,
    "description": ""
  },
  {
    "filename": "bw840817.txt",
    "size": 38992,
    "description": ""
  },
  {
    "filename": "bw840819.txt",
    "size": 40188,
    "description": ""
  },
  {
    "filename": "bw840822.txt",
    "size": 36778,
    "description": ""
  },
  {
    "filename": "bw840824.txt",
    "size": 38370,
    "description": ""
  },
  {
    "filename": "bw840825.txt",
    "size": 34732,
    "description": ""
  },
  {
    "filename": "bw840828.txt",
    "size": 37219,
    "description": ""
  },
  {
    "filename": "bw840830.txt",
    "size": 35757,
    "description": ""
  },
  {
    "filename": "bw840901.txt",
    "size": 36155,
    "description": ""
  },
  {
    "filename": "bw840903.txt",
    "size": 35929,
    "description": ""
  },
  {
    "filename": "bw840906.txt",
    "size": 38985,
    "description": ""
  },
  {
    "filename": "bw840908.txt",
    "size": 36468,
    "description": ""
  },
  {
    "filename": "bw840910.txt",
    "size": 37694,
    "description": ""
  },
  {
    "filename": "bw840912.txt",
    "size": 37755,
    "description": ""
  },
  {
    "filename": "bw840914.txt",
    "size": 34195,
    "description": ""
  },
  {
    "filename": "bw840917.txt",
    "size": 39431,
    "description": ""
  },
  {
    "filename": "bw840920.txt",
    "size": 42246,
    "description": ""
  },
  {
    "filename": "bw840922.txt",
    "size": 35171,
    "description": ""
  },
  {
    "filename": "bw840925.txt",
    "size": 36128,
    "description": ""
  },
  {
    "filename": "bw840927.txt",
    "size": 38230,
    "description": ""
  },
  {
    "filename": "bw840928.txt",
    "size": 37031,
    "description": ""
  },
  {
    "filename": "bw840929.txt",
    "size": 34511,
    "description": ""
  },
  {
    "filename": "bw840931.txt",
    "size": 34511,
    "description": ""
  },
  {
    "filename": "bw841001.txt",
    "size": 45452,
    "description": ""
  },
  {
    "filename": "bw841005.txt",
    "size": 46748,
    "description": ""
  },
  {
    "filename": "bw841008.txt",
    "size": 46887,
    "description": ""
  },
  {
    "filename": "bw841010.txt",
    "size": 42892,
    "description": ""
  },
  {
    "filename": "bw841013.txt",
    "size": 42031,
    "description": ""
  },
  {
    "filename": "bw841016.txt",
    "size": 42383,
    "description": ""
  },
  {
    "filename": "bw841020.txt",
    "size": 46875,
    "description": ""
  },
  {
    "filename": "bw841023.txt",
    "size": 45153,
    "description": ""
  },
  {
    "filename": "bw841025.txt",
    "size": 43608,
    "description": ""
  },
  {
    "filename": "bw841028.txt",
    "size": 36777,
    "description": ""
  },
  {
    "filename": "bw841031.txt",
    "size": 42515,
    "description": ""
  },
  {
    "filename": "bw841103.txt",
    "size": 35901,
    "description": ""
  },
  {
    "filename": "bw841105.txt",
    "size": 42202,
    "description": ""
  },
  {
    "filename": "bw841108.txt",
    "size": 42655,
    "description": ""
  },
  {
    "filename": "bw841110.txt",
    "size": 40215,
    "description": ""
  },
  {
    "filename": "bw841112.txt",
    "size": 38848,
    "description": ""
  },
  {
    "filename": "bw841117.txt",
    "size": 38545,
    "description": ""
  },
  {
    "filename": "bw841119.txt",
    "size": 38940,
    "description": ""
  },
  {
    "filename": "bw841121.txt",
    "size": 41935,
    "description": ""
  },
  {
    "filename": "bw841123.txt",
    "size": 34196,
    "description": ""
  },
  {
    "filename": "bw841125.txt",
    "size": 37469,
    "description": ""
  },
  {
    "filename": "bw841126.txt",
    "size": 41767,
    "description": ""
  },
  {
    "filename": "bw841128.txt",
    "size": 39710,
    "description": ""
  },
  {
    "filename": "bw841130.txt",
    "size": 36925,
    "description": ""
  },
  {
    "filename": "bw841202.txt",
    "size": 39185,
    "description": ""
  },
  {
    "filename": "bw841204.txt",
    "size": 44290,
    "description": ""
  },
  {
    "filename": "bw841206.txt",
    "size": 40799,
    "description": ""
  },
  {
    "filename": "bw841208.txt",
    "size": 43480,
    "description": ""
  },
  {
    "filename": "bw841210.txt",
    "size": 42338,
    "description": ""
  },
  {
    "filename": "bw841212.txt",
    "size": 42635,
    "description": ""
  },
  {
    "filename": "bw841214.txt",
    "size": 39102,
    "description": ""
  },
  {
    "filename": "bw841216.txt",
    "size": 43765,
    "description": ""
  },
  {
    "filename": "bw841218.txt",
    "size": 41183,
    "description": ""
  },
  {
    "filename": "bw841221.txt",
    "size": 40048,
    "description": ""
  },
  {
    "filename": "bw841223.txt",
    "size": 38453,
    "description": ""
  },
  {
    "filename": "bw841224.txt",
    "size": 39002,
    "description": ""
  },
  {
    "filename": "bw841226.txt",
    "size": 39763,
    "description": ""
  },
  {
    "filename": "bw841228.txt",
    "size": 42564,
    "description": ""
  },
  {
    "filename": "bw841229.txt",
    "size": 42999,
    "description": ""
  },
  {
    "filename": "bw841230.txt",
    "size": 44018,
    "description": ""
  },
  {
    "filename": "bw850101.txt",
    "size": 42738,
    "description": ""
  },
  {
    "filename": "bw850102.txt",
    "size": 40350,
    "description": ""
  },
  {
    "filename": "bw850104.txt",
    "size": 42056,
    "description": ""
  },
  {
    "filename": "bw850105.txt",
    "size": 41956,
    "description": ""
  },
  {
    "filename": "bw850107.txt",
    "size": 42472,
    "description": ""
  },
  {
    "filename": "bw850109.txt",
    "size": 40569,
    "description": ""
  },
  {
    "filename": "bw850111.txt",
    "size": 33954,
    "description": ""
  },
  {
    "filename": "bw850112.txt",
    "size": 43920,
    "description": ""
  },
  {
    "filename": "bw850114.txt",
    "size": 40513,
    "description": ""
  },
  {
    "filename": "bw850116.txt",
    "size": 40699,
    "description": ""
  },
  {
    "filename": "bw850117.txt",
    "size": 43247,
    "description": ""
  },
  {
    "filename": "bw850119.txt",
    "size": 40987,
    "description": ""
  },
  {
    "filename": "bw850120.txt",
    "size": 41607,
    "description": ""
  },
  {
    "filename": "bw850122.txt",
    "size": 40748,
    "description": ""
  },
  {
    "filename": "bw850123.txt",
    "size": 38397,
    "description": ""
  },
  {
    "filename": "bw850125.txt",
    "size": 43203,
    "description": ""
  },
  {
    "filename": "bw850127.txt",
    "size": 39114,
    "description": ""
  },
  {
    "filename": "bw850129.txt",
    "size": 47253,
    "description": ""
  },
  {
    "filename": "bw850131.txt",
    "size": 41293,
    "description": ""
  },
  {
    "filename": "bw850202.txt",
    "size": 43717,
    "description": ""
  },
  {
    "filename": "bw850204.txt",
    "size": 37977,
    "description": ""
  },
  {
    "filename": "bw850205.txt",
    "size": 37921,
    "description": ""
  },
  {
    "filename": "bw850207.txt",
    "size": 40964,
    "description": ""
  },
  {
    "filename": "bw850209.txt",
    "size": 44059,
    "description": ""
  },
  {
    "filename": "bw850210.txt",
    "size": 37882,
    "description": ""
  },
  {
    "filename": "bw850211.txt",
    "size": 37814,
    "description": ""
  },
  {
    "filename": "bw850214.txt",
    "size": 44854,
    "description": ""
  },
  {
    "filename": "bw850215.txt",
    "size": 38320,
    "description": ""
  },
  {
    "filename": "bw850217.txt",
    "size": 41776,
    "description": ""
  },
  {
    "filename": "bw850218.txt",
    "size": 37244,
    "description": ""
  },
  {
    "filename": "bw850221.txt",
    "size": 37288,
    "description": ""
  },
  {
    "filename": "bw850223.txt",
    "size": 43330,
    "description": ""
  },
  {
    "filename": "bw850225.txt",
    "size": 38874,
    "description": ""
  },
  {
    "filename": "bw850227.txt",
    "size": 39982,
    "description": ""
  },
  {
    "filename": "bw850301.txt",
    "size": 40057,
    "description": ""
  },
  {
    "filename": "bw850302.txt",
    "size": 39226,
    "description": ""
  },
  {
    "filename": "bw850305.txt",
    "size": 40993,
    "description": ""
  },
  {
    "filename": "bw850308.txt",
    "size": 36171,
    "description": ""
  },
  {
    "filename": "bw850310.txt",
    "size": 41855,
    "description": ""
  },
  {
    "filename": "bw850312.txt",
    "size": 36359,
    "description": ""
  },
  {
    "filename": "bw850314.txt",
    "size": 42942,
    "description": ""
  },
  {
    "filename": "bw850316.txt",
    "size": 40836,
    "description": ""
  },
  {
    "filename": "bw850318.txt",
    "size": 41307,
    "description": ""
  },
  {
    "filename": "bw850321.txt",
    "size": 34990,
    "description": ""
  },
  {
    "filename": "bw850323.txt",
    "size": 34210,
    "description": ""
  },
  {
    "filename": "bw850326.txt",
    "size": 38667,
    "description": ""
  },
  {
    "filename": "bw850328.txt",
    "size": 43827,
    "description": ""
  },
  {
    "filename": "bw850330.txt",
    "size": 44051,
    "description": ""
  },
  {
    "filename": "bw850331.txt",
    "size": 36801,
    "description": ""
  },
  {
    "filename": "bw850403.txt",
    "size": 40338,
    "description": ""
  },
  {
    "filename": "bw850406.txt",
    "size": 41740,
    "description": ""
  },
  {
    "filename": "bw850408.txt",
    "size": 41900,
    "description": ""
  },
  {
    "filename": "bw850410.txt",
    "size": 40532,
    "description": ""
  },
  {
    "filename": "bw850412.txt",
    "size": 37385,
    "description": ""
  },
  {
    "filename": "bw850416.txt",
    "size": 38419,
    "description": ""
  },
  {
    "filename": "bw850418.txt",
    "size": 42314,
    "description": ""
  },
  {
    "filename": "bw850421.txt",
    "size": 41202,
    "description": ""
  },
  {
    "filename": "bw850423.txt",
    "size": 37156,
    "description": ""
  },
  {
    "filename": "bw850425.txt",
    "size": 36825,
    "description": ""
  },
  {
    "filename": "bw850428.txt",
    "size": 35766,
    "description": ""
  },
  {
    "filename": "bw850430.txt",
    "size": 33099,
    "description": ""
  },
  {
    "filename": "bw850503.txt",
    "size": 38391,
    "description": ""
  },
  {
    "filename": "bw850505.txt",
    "size": 34805,
    "description": ""
  },
  {
    "filename": "bw850507.txt",
    "size": 41744,
    "description": ""
  },
  {
    "filename": "bw850509.txt",
    "size": 39355,
    "description": ""
  },
  {
    "filename": "bw850512.txt",
    "size": 34006,
    "description": ""
  },
  {
    "filename": "bw850514.txt",
    "size": 36973,
    "description": ""
  },
  {
    "filename": "bw850517.txt",
    "size": 37614,
    "description": ""
  },
  {
    "filename": "bw850520.txt",
    "size": 33046,
    "description": ""
  },
  {
    "filename": "bw850524.txt",
    "size": 35823,
    "description": ""
  },
  {
    "filename": "bw850527.txt",
    "size": 36033,
    "description": ""
  },
  {
    "filename": "bw850531.txt",
    "size": 31542,
    "description": ""
  },
  {
    "filename": "bw850603.txt",
    "size": 31450,
    "description": ""
  },
  {
    "filename": "bw850608.txt",
    "size": 36490,
    "description": ""
  },
  {
    "filename": "bw850610.txt",
    "size": 38837,
    "description": ""
  },
  {
    "filename": "bw850614.txt",
    "size": 38386,
    "description": ""
  },
  {
    "filename": "bw850619.txt",
    "size": 33823,
    "description": ""
  },
  {
    "filename": "bw850623.txt",
    "size": 32341,
    "description": ""
  },
  {
    "filename": "bw850625.txt",
    "size": 32351,
    "description": ""
  },
  {
    "filename": "bw850627.txt",
    "size": 35405,
    "description": ""
  },
  {
    "filename": "bw850630.txt",
    "size": 38834,
    "description": ""
  },
  {
    "filename": "bw850703.txt",
    "size": 33316,
    "description": ""
  },
  {
    "filename": "bw850705.txt",
    "size": 33458,
    "description": ""
  },
  {
    "filename": "bw850709.txt",
    "size": 33871,
    "description": ""
  },
  {
    "filename": "bw850711.txt",
    "size": 36599,
    "description": ""
  },
  {
    "filename": "bw850714.txt",
    "size": 34399,
    "description": ""
  },
  {
    "filename": "bw850717.txt",
    "size": 37971,
    "description": ""
  },
  {
    "filename": "bw850720.txt",
    "size": 31707,
    "description": ""
  },
  {
    "filename": "bw850723.txt",
    "size": 39902,
    "description": ""
  },
  {
    "filename": "bw850727.txt",
    "size": 37752,
    "description": ""
  },
  {
    "filename": "bw850729.txt",
    "size": 35728,
    "description": ""
  },
  {
    "filename": "bw850731.txt",
    "size": 39299,
    "description": ""
  },
  {
    "filename": "bw850802.txt",
    "size": 34046,
    "description": ""
  },
  {
    "filename": "bw850807.txt",
    "size": 34472,
    "description": ""
  },
  {
    "filename": "bw850808.txt",
    "size": 38917,
    "description": ""
  },
  {
    "filename": "bw850811.txt",
    "size": 39610,
    "description": ""
  },
  {
    "filename": "bw850816.txt",
    "size": 40055,
    "description": ""
  },
  {
    "filename": "bw850820.txt",
    "size": 40627,
    "description": ""
  },
  {
    "filename": "bw850824.txt",
    "size": 39019,
    "description": ""
  },
  {
    "filename": "bw850827.txt",
    "size": 40156,
    "description": ""
  },
  {
    "filename": "bw850831.txt",
    "size": 39615,
    "description": ""
  },
  {
    "filename": "bw850903.txt",
    "size": 40781,
    "description": ""
  },
  {
    "filename": "bw850906.txt",
    "size": 36086,
    "description": ""
  },
  {
    "filename": "bw850910.txt",
    "size": 39503,
    "description": ""
  },
  {
    "filename": "bw850912.txt",
    "size": 45794,
    "description": ""
  },
  {
    "filename": "bw850914.txt",
    "size": 40899,
    "description": ""
  },
  {
    "filename": "bw850917.txt",
    "size": 36099,
    "description": ""
  },
  {
    "filename": "bw850922.txt",
    "size": 37828,
    "description": ""
  },
  {
    "filename": "bw850924.txt",
    "size": 32888,
    "description": ""
  },
  {
    "filename": "bw850928.txt",
    "size": 36555,
    "description": ""
  },
  {
    "filename": "bw850930.txt",
    "size": 39594,
    "description": ""
  },
  {
    "filename": "bw851004.txt",
    "size": 39055,
    "description": ""
  },
  {
    "filename": "bw851006.txt",
    "size": 36646,
    "description": ""
  },
  {
    "filename": "bw851009.txt",
    "size": 37926,
    "description": ""
  },
  {
    "filename": "bw851011.txt",
    "size": 39812,
    "description": ""
  },
  {
    "filename": "bw851014.txt",
    "size": 36851,
    "description": ""
  },
  {
    "filename": "bw851019.txt",
    "size": 31667,
    "description": ""
  },
  {
    "filename": "bw851021.txt",
    "size": 40393,
    "description": ""
  },
  {
    "filename": "bw851024.txt",
    "size": 40024,
    "description": ""
  },
  {
    "filename": "bw851028.txt",
    "size": 33548,
    "description": ""
  },
  {
    "filename": "bw851031.txt",
    "size": 38153,
    "description": ""
  },
  {
    "filename": "bw851104.txt",
    "size": 40120,
    "description": ""
  },
  {
    "filename": "bw851106.txt",
    "size": 39748,
    "description": ""
  },
  {
    "filename": "bw851109.txt",
    "size": 38035,
    "description": ""
  },
  {
    "filename": "bw851110.txt",
    "size": 41340,
    "description": ""
  },
  {
    "filename": "bw851111.txt",
    "size": 41608,
    "description": ""
  },
  {
    "filename": "bw851114.txt",
    "size": 42803,
    "description": ""
  },
  {
    "filename": "bw851115.txt",
    "size": 42293,
    "description": ""
  },
  {
    "filename": "bw851119.txt",
    "size": 42622,
    "description": ""
  },
  {
    "filename": "bw851121.txt",
    "size": 40893,
    "description": ""
  },
  {
    "filename": "bw851123.txt",
    "size": 37962,
    "description": ""
  },
  {
    "filename": "bw851124.txt",
    "size": 38789,
    "description": ""
  },
  {
    "filename": "bw851126.txt",
    "size": 34663,
    "description": ""
  },
  {
    "filename": "bw851128.txt",
    "size": 36257,
    "description": ""
  },
  {
    "filename": "bw851203.txt",
    "size": 39133,
    "description": ""
  },
  {
    "filename": "bw851206.txt",
    "size": 40406,
    "description": ""
  },
  {
    "filename": "bw851209.txt",
    "size": 41346,
    "description": ""
  },
  {
    "filename": "bw851212.txt",
    "size": 40358,
    "description": ""
  },
  {
    "filename": "bw851215.txt",
    "size": 41588,
    "description": ""
  },
  {
    "filename": "bw851220.txt",
    "size": 39882,
    "description": ""
  },
  {
    "filename": "bw851223.txt",
    "size": 41257,
    "description": ""
  },
  {
    "filename": "bw851227.txt",
    "size": 35165,
    "description": ""
  },
  {
    "filename": "bw851230.txt",
    "size": 39055,
    "description": ""
  },
  {
    "filename": "bw860101.txt",
    "size": 41084,
    "description": ""
  },
  {
    "filename": "bw860104.txt",
    "size": 38313,
    "description": ""
  },
  {
    "filename": "bw860106.txt",
    "size": 30794,
    "description": ""
  },
  {
    "filename": "bw860109.txt",
    "size": 41301,
    "description": ""
  },
  {
    "filename": "bw860111.txt",
    "size": 34832,
    "description": ""
  },
  {
    "filename": "bw860113.txt",
    "size": 35925,
    "description": ""
  },
  {
    "filename": "bw860116.txt",
    "size": 38803,
    "description": ""
  },
  {
    "filename": "bw860119.txt",
    "size": 41488,
    "description": ""
  },
  {
    "filename": "bw860122.txt",
    "size": 42874,
    "description": ""
  },
  {
    "filename": "bw860125.txt",
    "size": 44479,
    "description": ""
  },
  {
    "filename": "bw860129.txt",
    "size": 44759,
    "description": ""
  },
  {
    "filename": "bw860202.txt",
    "size": 41878,
    "description": ""
  },
  {
    "filename": "bw860205.txt",
    "size": 40780,
    "description": ""
  },
  {
    "filename": "bw860208.txt",
    "size": 39225,
    "description": ""
  },
  {
    "filename": "bw860213.txt",
    "size": 38691,
    "description": ""
  },
  {
    "filename": "bw860217.txt",
    "size": 40229,
    "description": ""
  },
  {
    "filename": "bw860222.txt",
    "size": 39799,
    "description": ""
  },
  {
    "filename": "bw860226.txt",
    "size": 43636,
    "description": ""
  },
  {
    "filename": "bw860304.txt",
    "size": 44436,
    "description": ""
  },
  {
    "filename": "bw860308.txt",
    "size": 40930,
    "description": ""
  },
  {
    "filename": "bw860312.txt",
    "size": 42231,
    "description": ""
  },
  {
    "filename": "bw860315.txt",
    "size": 42818,
    "description": ""
  },
  {
    "filename": "bw860318.txt",
    "size": 42998,
    "description": ""
  },
  {
    "filename": "bw860322.txt",
    "size": 36203,
    "description": ""
  },
  {
    "filename": "bw860325.txt",
    "size": 36155,
    "description": ""
  },
  {
    "filename": "bw860328.txt",
    "size": 34873,
    "description": ""
  },
  {
    "filename": "bw860330.txt",
    "size": 36802,
    "description": ""
  },
  {
    "filename": "bw860402.txt",
    "size": 37869,
    "description": ""
  },
  {
    "filename": "bw860405.txt",
    "size": 34806,
    "description": ""
  },
  {
    "filename": "bw860409.txt",
    "size": 39149,
    "description": ""
  },
  {
    "filename": "bw860414.txt",
    "size": 29125,
    "description": ""
  },
  {
    "filename": "bw860417.txt",
    "size": 36998,
    "description": ""
  },
  {
    "filename": "bw860421.txt",
    "size": 33498,
    "description": ""
  },
  {
    "filename": "bw860425.txt",
    "size": 36955,
    "description": ""
  },
  {
    "filename": "bw860501.txt",
    "size": 37744,
    "description": ""
  },
  {
    "filename": "bw860505.txt",
    "size": 37251,
    "description": ""
  },
  {
    "filename": "bw860509.txt",
    "size": 44159,
    "description": ""
  },
  {
    "filename": "bw860514.txt",
    "size": 46597,
    "description": ""
  },
  {
    "filename": "bw860520.txt",
    "size": 34613,
    "description": ""
  },
  {
    "filename": "bw860529.txt",
    "size": 38583,
    "description": ""
  },
  {
    "filename": "bw860604.txt",
    "size": 43414,
    "description": ""
  },
  {
    "filename": "bw860609.txt",
    "size": 34274,
    "description": ""
  },
  {
    "filename": "bw860616.txt",
    "size": 40326,
    "description": ""
  },
  {
    "filename": "bw860623.txt",
    "size": 39058,
    "description": ""
  },
  {
    "filename": "bw860629.txt",
    "size": 38107,
    "description": ""
  },
  {
    "filename": "bw860716.txt",
    "size": 39192,
    "description": ""
  },
  {
    "filename": "bw860722.txt",
    "size": 39293,
    "description": ""
  },
  {
    "filename": "bw860729.txt",
    "size": 32894,
    "description": ""
  },
  {
    "filename": "bw860805.txt",
    "size": 33275,
    "description": ""
  },
  {
    "filename": "bw860811.txt",
    "size": 29632,
    "description": ""
  },
  {
    "filename": "bw860819.txt",
    "size": 38296,
    "description": ""
  },
  {
    "filename": "bw860824.txt",
    "size": 34095,
    "description": ""
  },
  {
    "filename": "bw860827.txt",
    "size": 35607,
    "description": ""
  },
  {
    "filename": "bw860830.txt",
    "size": 31454,
    "description": ""
  },
  {
    "filename": "bw860904.txt",
    "size": 33995,
    "description": ""
  },
  {
    "filename": "bw860907.txt",
    "size": 34118,
    "description": ""
  },
  {
    "filename": "bw860917.txt",
    "size": 34527,
    "description": ""
  },
  {
    "filename": "bw860924.txt",
    "size": 33195,
    "description": ""
  },
  {
    "filename": "bw860929.txt",
    "size": 29619,
    "description": ""
  },
  {
    "filename": "bw861004.txt",
    "size": 34431,
    "description": ""
  },
  {
    "filename": "bw861007.txt",
    "size": 33417,
    "description": ""
  },
  {
    "filename": "bw861011.txt",
    "size": 34744,
    "description": ""
  },
  {
    "filename": "bw861014.txt",
    "size": 32516,
    "description": ""
  },
  {
    "filename": "bw861023.txt",
    "size": 29093,
    "description": ""
  },
  {
    "filename": "bw861029.txt",
    "size": 29810,
    "description": ""
  },
  {
    "filename": "bw861106.txt",
    "size": 35339,
    "description": ""
  },
  {
    "filename": "bw861111.txt",
    "size": 31072,
    "description": ""
  },
  {
    "filename": "bw861117.txt",
    "size": 28059,
    "description": ""
  },
  {
    "filename": "bw861122.txt",
    "size": 35223,
    "description": ""
  },
  {
    "filename": "bw861127.txt",
    "size": 35487,
    "description": ""
  },
  {
    "filename": "bw861201.txt",
    "size": 38381,
    "description": ""
  },
  {
    "filename": "bw861206.txt",
    "size": 36934,
    "description": ""
  },
  {
    "filename": "bw861210.txt",
    "size": 31615,
    "description": ""
  },
  {
    "filename": "bw861213.txt",
    "size": 31171,
    "description": ""
  },
  {
    "filename": "bw861215.txt",
    "size": 30298,
    "description": ""
  },
  {
    "filename": "bw861219.txt",
    "size": 38851,
    "description": ""
  },
  {
    "filename": "bw861222.txt",
    "size": 30155,
    "description": ""
  },
  {
    "filename": "bw861225.txt",
    "size": 31584,
    "description": ""
  },
  {
    "filename": "bw870101.txt",
    "size": 39772,
    "description": ""
  },
  {
    "filename": "bw870107.txt",
    "size": 38435,
    "description": ""
  },
  {
    "filename": "bw870112.txt",
    "size": 37899,
    "description": ""
  },
  {
    "filename": "bw870115.txt",
    "size": 35858,
    "description": ""
  },
  {
    "filename": "bw870118.txt",
    "size": 38072,
    "description": ""
  },
  {
    "filename": "bw870124.txt",
    "size": 37755,
    "description": ""
  },
  {
    "filename": "bw870203.txt",
    "size": 39140,
    "description": ""
  },
  {
    "filename": "bw870211.txt",
    "size": 33338,
    "description": ""
  },
  {
    "filename": "bw870218.txt",
    "size": 39721,
    "description": ""
  },
  {
    "filename": "bw870226.txt",
    "size": 35721,
    "description": ""
  },
  {
    "filename": "bw870305.txt",
    "size": 34017,
    "description": ""
  },
  {
    "filename": "bw870315.txt",
    "size": 32804,
    "description": ""
  },
  {
    "filename": "bw870323.dev",
    "size": 31871,
    "description": ""
  },
  {
    "filename": "bw870329.txt",
    "size": 37404,
    "description": ""
  },
  {
    "filename": "bw870404.dev",
    "size": 49364,
    "description": ""
  },
  {
    "filename": "bw870409.txt",
    "size": 36087,
    "description": ""
  },
  {
    "filename": "bw870419.txt",
    "size": 36085,
    "description": ""
  },
  {
    "filename": "bw870423.txt",
    "size": 38230,
    "description": ""
  },
  {
    "filename": "bw870428.txt",
    "size": 38725,
    "description": ""
  },
  {
    "filename": "bw870505.dev",
    "size": 10277,
    "description": ""
  },
  {
    "filename": "bw870505.txt",
    "size": 37588,
    "description": ""
  },
  {
    "filename": "bw870516.txt",
    "size": 25494,
    "description": ""
  },
  {
    "filename": "bw870517.txt",
    "size": 66917,
    "description": ""
  },
  {
    "filename": "bw870530.txt",
    "size": 63008,
    "description": ""
  },
  {
    "filename": "bw870610.txt",
    "size": 65302,
    "description": ""
  },
  {
    "filename": "bw870630.txt",
    "size": 65223,
    "description": ""
  },
  {
    "filename": "bw870731.txt",
    "size": 60651,
    "description": ""
  },
  {
    "filename": "bw870803.txt",
    "size": 60580,
    "description": ""
  },
  {
    "filename": "bw870922.txt",
    "size": 66972,
    "description": ""
  },
  {
    "filename": "bw871006.txt",
    "size": 66817,
    "description": ""
  },
  {
    "filename": "bw871014.txt",
    "size": 68642,
    "description": ""
  },
  {
    "filename": "bw871024.txt",
    "size": 66044,
    "description": ""
  },
  {
    "filename": "bw871118.txt",
    "size": 65881,
    "description": ""
  },
  {
    "filename": "bw871210.txt",
    "size": 58481,
    "description": ""
  },
  {
    "filename": "bw871229.txt",
    "size": 65401,
    "description": ""
  },
  {
    "filename": "bw880123.txt",
    "size": 61760,
    "description": ""
  },
  {
    "filename": "bw880213.txt",
    "size": 65797,
    "description": ""
  },
  {
    "filename": "bw880302.txt",
    "size": 66441,
    "description": ""
  },
  {
    "filename": "bw880319.txt",
    "size": 66324,
    "description": ""
  },
  {
    "filename": "bw880409.txt",
    "size": 61175,
    "description": ""
  },
  {
    "filename": "bw880517.txt",
    "size": 55896,
    "description": ""
  },
  {
    "filename": "bw880605.txt",
    "size": 54885,
    "description": ""
  },
  {
    "filename": "bw880626.txt",
    "size": 59135,
    "description": ""
  },
  {
    "filename": "bw880705.txt",
    "size": 59826,
    "description": ""
  },
  {
    "filename": "bw880713.txt",
    "size": 53910,
    "description": ""
  },
  {
    "filename": "bw880720.txt",
    "size": 54957,
    "description": ""
  },
  {
    "filename": "bw880729.txt",
    "size": 55603,
    "description": ""
  },
  {
    "filename": "bw880806.txt",
    "size": 54047,
    "description": ""
  },
  {
    "filename": "bw880811.txt",
    "size": 59223,
    "description": ""
  },
  {
    "filename": "bw880819.txt",
    "size": 59589,
    "description": ""
  },
  {
    "filename": "bw880831.txt",
    "size": 53607,
    "description": ""
  },
  {
    "filename": "bw880907.txt",
    "size": 55093,
    "description": ""
  },
  {
    "filename": "bw880915.txt",
    "size": 50845,
    "description": ""
  },
  {
    "filename": "bw880924.txt",
    "size": 55306,
    "description": ""
  },
  {
    "filename": "bw880930.txt",
    "size": 59680,
    "description": ""
  },
  {
    "filename": "bw881027.txt",
    "size": 56871,
    "description": ""
  },
  {
    "filename": "bw881112.txt",
    "size": 53569,
    "description": ""
  },
  {
    "filename": "bw881209.txt",
    "size": 56574,
    "description": ""
  },
  {
    "filename": "bw881230.txt",
    "size": 54418,
    "description": ""
  },
  {
    "filename": "bw890111.txt",
    "size": 56263,
    "description": ""
  },
  {
    "filename": "bw890118.txt",
    "size": 52905,
    "description": ""
  },
  {
    "filename": "bw890126.txt",
    "size": 53160,
    "description": ""
  },
  {
    "filename": "bw890205.txt",
    "size": 58125,
    "description": ""
  },
  {
    "filename": "bw890212.txt",
    "size": 51130,
    "description": ""
  },
  {
    "filename": "bw890218.txt",
    "size": 51658,
    "description": ""
  },
  {
    "filename": "bw890227.txt",
    "size": 50528,
    "description": ""
  },
  {
    "filename": "bw890304.txt",
    "size": 56185,
    "description": ""
  },
  {
    "filename": "bw890312.txt",
    "size": 59003,
    "description": ""
  },
  {
    "filename": "bw890318.txt",
    "size": 56278,
    "description": ""
  },
  {
    "filename": "bw890324.txt",
    "size": 57089,
    "description": ""
  },
  {
    "filename": "bw890331.txt",
    "size": 51165,
    "description": ""
  },
  {
    "filename": "bw890411.txt",
    "size": 53023,
    "description": ""
  },
  {
    "filename": "bw890420.txt",
    "size": 52719,
    "description": ""
  },
  {
    "filename": "bw890424.txt",
    "size": 57624,
    "description": ""
  },
  {
    "filename": "bw890502.txt",
    "size": 59974,
    "description": ""
  },
  {
    "filename": "bw890507.txt",
    "size": 53655,
    "description": ""
  },
  {
    "filename": "bw890513.txt",
    "size": 57790,
    "description": ""
  },
  {
    "filename": "bw890523.txt",
    "size": 56936,
    "description": ""
  },
  {
    "filename": "bw890608.txt",
    "size": 60192,
    "description": ""
  },
  {
    "filename": "bw890616.txt",
    "size": 59025,
    "description": ""
  },
  {
    "filename": "bw890625.txt",
    "size": 58998,
    "description": ""
  },
  {
    "filename": "bw890709.txt",
    "size": 67393,
    "description": ""
  },
  {
    "filename": "bw890718.txt",
    "size": 64182,
    "description": ""
  },
  {
    "filename": "bw890726.txt",
    "size": 62096,
    "description": ""
  },
  {
    "filename": "bw890803.txt",
    "size": 65562,
    "description": ""
  },
  {
    "filename": "bw890813.txt",
    "size": 64367,
    "description": ""
  },
  {
    "filename": "bw890828.txt",
    "size": 63477,
    "description": ""
  },
  {
    "filename": "bw890908.txt",
    "size": 60073,
    "description": ""
  },
  {
    "filename": "bw890916.txt",
    "size": 64584,
    "description": ""
  },
  {
    "filename": "bw891003.txt",
    "size": 67941,
    "description": ""
  },
  {
    "filename": "bw891011.txt",
    "size": 61555,
    "description": ""
  },
  {
    "filename": "bw891027.txt",
    "size": 64910,
    "description": ""
  },
  {
    "filename": "bw891115.txt",
    "size": 65898,
    "description": ""
  },
  {
    "filename": "bw891202.txt",
    "size": 62113,
    "description": ""
  },
  {
    "filename": "bw891229.txt",
    "size": 62799,
    "description": ""
  },
  {
    "filename": "bw900126.txt",
    "size": 60061,
    "description": ""
  },
  {
    "filename": "bw900304.txt",
    "size": 54132,
    "description": ""
  },
  {
    "filename": "bw900321.txt",
    "size": 61871,
    "description": ""
  },
  {
    "filename": "bw900406.txt",
    "size": 64998,
    "description": ""
  },
  {
    "filename": "bw900423.txt",
    "size": 61272,
    "description": ""
  },
  {
    "filename": "bw900523.txt",
    "size": 59105,
    "description": ""
  },
  {
    "filename": "bw900610.txt",
    "size": 64401,
    "description": ""
  },
  {
    "filename": "bw900627.txt",
    "size": 67356,
    "description": ""
  },
  {
    "filename": "bw900718.txt",
    "size": 63298,
    "description": ""
  },
  {
    "filename": "bw900814.txt",
    "size": 55719,
    "description": ""
  },
  {
    "filename": "bw901005.txt",
    "size": 55022,
    "description": ""
  },
  {
    "filename": "bw901103.txt",
    "size": 56485,
    "description": ""
  },
  {
    "filename": "bw901119.txt",
    "size": 49501,
    "description": ""
  },
  {
    "filename": "bw901224.txt",
    "size": 61198,
    "description": ""
  },
  {
    "filename": "bw910213.txt",
    "size": 58242,
    "description": ""
  },
  {
    "filename": "bw910325.txt",
    "size": 54486,
    "description": ""
  },
  {
    "filename": "bw910505.txt",
    "size": 58920,
    "description": ""
  },
  {
    "filename": "bw910607.txt",
    "size": 57829,
    "description": ""
  },
  {
    "filename": "bw910724.txt",
    "size": 60198,
    "description": ""
  },
  {
    "filename": "bw910824.txt",
    "size": 59096,
    "description": ""
  },
  {
    "filename": "bw910905.txt",
    "size": 56716,
    "description": ""
  },
  {
    "filename": "bw910923.txt",
    "size": 62167,
    "description": ""
  },
  {
    "filename": "bw911004.txt",
    "size": 58459,
    "description": ""
  },
  {
    "filename": "bw911104.txt",
    "size": 55863,
    "description": ""
  },
  {
    "filename": "bw911206.txt",
    "size": 59225,
    "description": ""
  },
  {
    "filename": "bw911216.txt",
    "size": 56202,
    "description": ""
  },
  {
    "filename": "bw911226.txt",
    "size": 57600,
    "description": ""
  },
  {
    "filename": "bw920204.txt",
    "size": 61024,
    "description": ""
  },
  {
    "filename": "bw920320.txt",
    "size": 64515,
    "description": ""
  },
  {
    "filename": "bw920427.txt",
    "size": 49153,
    "description": ""
  },
  {
    "filename": "bw920729.txt",
    "size": 52197,
    "description": ""
  },
  {
    "filename": "bw921028.txt",
    "size": 54146,
    "description": ""
  },
  {
    "filename": "bw930318.txt",
    "size": 46203,
    "description": ""
  },
  {
    "filename": "bw940101.txt",
    "size": 49279,
    "description": ""
  },
  {
    "filename": "bw940602.txt",
    "size": 57258,
    "description": ""
  },
  {
    "filename": "bw941206.txt",
    "size": 53083,
    "description": ""
  },
  {
    "filename": "bwladies.txt",
    "size": 6590,
    "description": ""
  },
  {
    "filename": "bwmall.txt",
    "size": 11326,
    "description": ""
  },
  {
    "filename": "bwman.htm",
    "size": 76701,
    "description": ""
  },
  {
    "filename": "bwmen.txt",
    "size": 13445,
    "description": ""
  }
]
