[
  {
    "filename": "00readme.txt",
    "size": 3027,
    "description": "The Computer Music File Formats Collection 10 by Jamal Hannah (May 2, 1994)"
  },
  {
    "filename": "669-form.txt",
    "size": 6348,
    "description": "FORMAT: 669 and Extended 669"
  },
  {
    "filename": "am.txt",
    "size": 3528,
    "description": "FORMAT: The AM Module Format Description, by THOR (1995)"
  },
  {
    "filename": "amsfrm22.txt",
    "size": 19866,
    "description": "FORMAT: Velvet Studio AMS Format v2.2"
  },
  {
    "filename": "binhex4.inf",
    "size": 2157,
    "description": "FORMAT: HQX7: Macintosh 7 & 8 bit File Transfer Format"
  },
  {
    "filename": "d00.txt",
    "size": 9341,
    "description": "FORMAT: The D00 Music Format Explained, by Joachim Fenkes"
  },
  {
    "filename": "dmf-efx.txt",
    "size": 10507,
    "description": "FORMAT: Delusion Extended Musical Effects (Partly German)"
  },
  {
    "filename": "dmf-efx2.txt",
    "size": 2863,
    "description": "FORMAT: DMF Player Ver 0.52B: Effect Commands"
  },
  {
    "filename": "dmf-form.txt",
    "size": 10544,
    "description": "FORMAT: Delusion Digital Music Fileformat v0.16B1 (December 25, 1993)"
  },
  {
    "filename": "dtm.txt",
    "size": 14929,
    "description": "MODULE FORMAT: Digitrekker Modeule Format Version 1.0"
  },
  {
    "filename": "far-form.txt",
    "size": 18679,
    "description": "FORMAT: Farandole .FAR File Format, by Daniel Potter"
  },
  {
    "filename": "ftk-form.txt",
    "size": 2404,
    "description": "FORMAT: Fastracker v1.00 Music Format (December 13, 1992)"
  },
  {
    "filename": "med-efx.txt",
    "size": 84125,
    "description": "FORMAT: MED Music Editor v3.2 File Format and Documentation (1991)"
  },
  {
    "filename": "med-form.txt",
    "size": 27479,
    "description": "FORMAT: MED/OctaMED File Formats (MMD0 and MMD1) by Teijo Kinnunen (April 25, 1992)"
  },
  {
    "filename": "mid-frm1.txt",
    "size": 29104,
    "description": "FORMAT: MIDI: Standard Midi Files and Format by the International Midi Association 0.6 (March 1, 1988)"
  },
  {
    "filename": "mid-frm2.txt",
    "size": 8914,
    "description": "FORMAT: MIDI 1.0 Specification"
  },
  {
    "filename": "mid-frm3.txt",
    "size": 12517,
    "description": "FORMAT: Brief Overview of Proposed General MIDI Level 1 Spec from Jeff Mallory (January 14, 1992)"
  },
  {
    "filename": "mid-frm4.txt",
    "size": 8607,
    "description": "FORMAT: MIDI Sample Dump Standard"
  },
  {
    "filename": "midiprim.txt",
    "size": 27734,
    "description": "FORMAT: The Usenet MIDI Primer, by Bob McQueer"
  },
  {
    "filename": "mod-form.txt",
    "size": 19787,
    "description": "FORMAT: The Noisetracker/Soundtracker/Protracker File Format v1.0"
  },
  {
    "filename": "mtm-efx.txt",
    "size": 45534,
    "description": "FORMAT: Multitracker Module Editor Format by Daniel Goldstein (1993)"
  },
  {
    "filename": "mtm-form.txt",
    "size": 4431,
    "description": "FORMAT: Summary of the MultiTracker Module (MTM) Format"
  },
  {
    "filename": "okt-form.txt",
    "size": 12930,
    "description": "FORMAT: Oktalizer Format (April 6, 1994)"
  },
  {
    "filename": "okt-frm2.txt",
    "size": 1573,
    "description": "FORMAT: Oktalyzer Modules Information"
  },
  {
    "filename": "p16-form.txt",
    "size": 20179,
    "description": "FORMAT: Protracker Studio 16 (PS16) Header"
  },
  {
    "filename": "rol-form.txt",
    "size": 4220,
    "description": "FORMAT: The .ROL Format Specification from Chris Holmes (August 26, 1992)"
  },
  {
    "filename": "s3m-efx.txt",
    "size": 57396,
    "description": "FORMAT: Scream-Tracker 3.0 Beta User's Manual from Kalle Kaivola (1994)"
  },
  {
    "filename": "s3m-form.txt",
    "size": 17502,
    "description": "FORMAT: Scream Tracker 3.01 BETA File Formats And Mixing Info (S3M Summary)"
  },
  {
    "filename": "sss-form.txt",
    "size": 8186,
    "description": "FORMAT: The Studio Session Song File Format Version 1.0 (November 8, 1993)"
  },
  {
    "filename": "star-frm.txt",
    "size": 4444,
    "description": "FORMAT: Amiga \"StarTrekker\" MOD format, by Bjorn Wessen"
  },
  {
    "filename": "tt-form.txt",
    "size": 445,
    "description": "FORMAT: TakeTracker File Formats"
  },
  {
    "filename": "ult-efx.txt",
    "size": 51134,
    "description": "FORMAT: UltraTracker Version 1.31 by Mysterious Documentation (1993)"
  },
  {
    "filename": "ult-form.txt",
    "size": 8712,
    "description": "FORMAT: Mysterious's Ultra Tracker File Format by FreeJack of the Elven Nation"
  },
  {
    "filename": "wow-form.txt",
    "size": 855,
    "description": "FORMAT: WOW Format"
  }
]
