[
  {
    "filename": "bom-arc.txt",
    "size": 10907,
    "description": "A Series of Messages by Ted Lapoint about Archaeology and the Book of Mormon"
  },
  {
    "filename": "jsmith.txt",
    "size": 6308,
    "description": "The Truth of Mormonism: The False Prophesy of Joseph Smith"
  },
  {
    "filename": "lds-1.txt",
    "size": 11012,
    "description": "The Jesus of Christianity vs. The Jesus of Mormonism"
  },
  {
    "filename": "lds-10.txt",
    "size": 6290,
    "description": "Ten Reasons Why I Can't Be a Mormon by Rev. John Hornok"
  },
  {
    "filename": "lds-11.txt",
    "size": 8074,
    "description": "Divine Truths in the Book of Mormon"
  },
  {
    "filename": "lds-12.txt",
    "size": 5323,
    "description": "A Letter to the National Museum of Natural History regarding The Book of Mormon"
  },
  {
    "filename": "lds-13.txt",
    "size": 2774,
    "description": "Mormons Own up to Joseph Smith's Occultism"
  },
  {
    "filename": "lds-14.txt",
    "size": 12658,
    "description": "The Nature of God"
  },
  {
    "filename": "lds-15.txt",
    "size": 14316,
    "description": "Latter-Day Saints and Hell"
  },
  {
    "filename": "lds-16.txt",
    "size": 3928,
    "description": "The Real Holy Spirit"
  },
  {
    "filename": "lds-17.txt",
    "size": 12177,
    "description": "The Jesus We Know Contrasted to the Jesus of Mormonism"
  },
  {
    "filename": "lds-18.txt",
    "size": 12945,
    "description": "LDS Statements Concerning the Negro"
  },
  {
    "filename": "lds-19.txt",
    "size": 8697,
    "description": "Salvation Through Christ vs. The Exaltation of Man"
  },
  {
    "filename": "lds-2.txt",
    "size": 12159,
    "description": "The Nature of God"
  },
  {
    "filename": "lds-20.txt",
    "size": 18840,
    "description": "Mormonism's Salvation by Works or Salvation by Grace Through Christ?"
  },
  {
    "filename": "lds-21.txt",
    "size": 2023,
    "description": "\"Mormon Mafia\" Cited in FBI Discrimination Case"
  },
  {
    "filename": "lds-22.txt",
    "size": 14502,
    "description": "Correctly Translated"
  },
  {
    "filename": "lds-23.txt",
    "size": 20504,
    "description": "Unmasking the Myths of Mormonism"
  },
  {
    "filename": "lds-24.txt",
    "size": 45778,
    "description": "God: Morminism vs. Christianity"
  },
  {
    "filename": "lds-3.txt",
    "size": 3891,
    "description": "The Real Holy Spirit"
  },
  {
    "filename": "lds-4.txt",
    "size": 17038,
    "description": "Mormonism's \"Salvation by Works\" vs. Salvation by Grace Through Christ"
  },
  {
    "filename": "lds-5.txt",
    "size": 10920,
    "description": "Do the Nag Hammadi Writing and Dead Sea Scrolls Confirm Mormonism or Is Einar Erickson Confused?"
  },
  {
    "filename": "lds-6.txt",
    "size": 9453,
    "description": "Do Mormons \"Really\" Believe in the Bible?"
  },
  {
    "filename": "lds-7.txt",
    "size": 76474,
    "description": "Was Joseph Smith a Prophet of God?"
  },
  {
    "filename": "lds-8.txt",
    "size": 8400,
    "description": "Salvation Through Christ vs. The Exaltation of Man"
  },
  {
    "filename": "lds-9.txt",
    "size": 10771,
    "description": "Joseph Smith's First Vision: Fact or Fable? By W. P. Walters"
  },
  {
    "filename": "lds.txt",
    "size": 163587,
    "description": "What's Going On In There? (Mormonism Rant)"
  },
  {
    "filename": "lds25.txt",
    "size": 6554,
    "description": "Contradictions Between the Book of Mormon and the Bible (February 22, 1987)"
  },
  {
    "filename": "lds26.txt",
    "size": 4519,
    "description": "Plagarisms in the Book of Mormon from the King James Version by Dr. Walter Martin"
  },
  {
    "filename": "lds27.txt",
    "size": 21608,
    "description": "Points of the True Church by James White"
  },
  {
    "filename": "lds28.txt",
    "size": 4034,
    "description": "The Mountain Meadows Massacre by Walter Martin (From \"The Kingdom of the Cults\"_"
  },
  {
    "filename": "lds29.txt",
    "size": 2178,
    "description": "Testimonials to Joseph Smith's Heresies by Walter Martin"
  },
  {
    "filename": "ldsoccul.txt",
    "size": 26545,
    "description": "A Short Study of Mormonism and the Occult by Jeff Keith"
  },
  {
    "filename": "morm-07.txt",
    "size": 12736,
    "description": "How Mormons Begin a Conversation With You"
  },
  {
    "filename": "morm001.txt",
    "size": 10923,
    "description": "The Jesus of Christianity vs. The Jesus of Mormonism"
  },
  {
    "filename": "morm002.txt",
    "size": 12153,
    "description": "The Nature of God to Mormons"
  },
  {
    "filename": "morm005.txt",
    "size": 10690,
    "description": "Do the Nag Hammadi Writing and Dead Sea Scrolls Confirm Mormonism or is Einar Etickson COnfused?"
  },
  {
    "filename": "morm01.txt",
    "size": 12453,
    "description": "The Jesus of Christianity vs. The Jesus of Mormonism"
  },
  {
    "filename": "morm02.txt",
    "size": 13384,
    "description": "The Nature of God in Mormonism"
  },
  {
    "filename": "morm03.txt",
    "size": 4836,
    "description": "The Real Holy Spirit in Mormonism"
  },
  {
    "filename": "morm04.txt",
    "size": 18146,
    "description": "Mormonism's Salvation by Works vs. Salvation by Grace Through Christ"
  },
  {
    "filename": "morm05.txt",
    "size": 11968,
    "description": "Do the Nag Hammadi Writing and Dead Sea Scrolls Confirm Mormonism or is Einar Erickson Confused?"
  },
  {
    "filename": "morm06.txt",
    "size": 10461,
    "description": "Do Mormons \"Really\" Believe in the Bible?"
  },
  {
    "filename": "morm09.txt",
    "size": 7482,
    "description": "Ten Reasons Why I Cannot Be A Mormon"
  },
  {
    "filename": "morm10.txt",
    "size": 9329,
    "description": "Divine Truths in the Book of Mormon"
  },
  {
    "filename": "morm11.txt",
    "size": 6147,
    "description": "A Statement from the National Museum of Natural History Regarding the Accuracy of the Mormon Bible"
  },
  {
    "filename": "mormast.txt",
    "size": 4558,
    "description": "Mormon Instructions on Masturbation From a Guide to Mormon Youth"
  },
  {
    "filename": "mormonri.txt",
    "size": 116627,
    "description": "Temple Ritual Altered: Mormon Leaders Delete Some of the 'Most Sacred' Parts of the Ceremony (July, 1990)"
  }
]
