[
  {
    "filename": "advphrk.txt",
    "size": 45895,
    "description": "Methods of Phreaking and Telco Security Measures by Joe Cosmo (June 16, 1988)"
  },
  {
    "filename": "altphk14.txt",
    "size": 16811,
    "description": "The Ocean County Phone Punx: Alt.Phreaking FAQ Version 1.4 (April 1, 1998)"
  },
  {
    "filename": "appeal1",
    "size": 2830,
    "description": "An Appeal to All To Improve the Code, Hacking and Phreaking Scenes, by Kodiak"
  },
  {
    "filename": "at&t",
    "size": 1080,
    "description": "AT&T Are Tracking Phreakers!"
  },
  {
    "filename": "at&tnews.txt",
    "size": 2185,
    "description": "The Last Phreak? (August 8, 1993)"
  },
  {
    "filename": "austphrk.txt",
    "size": 13095,
    "description": "Australian Phreaking: An Overview"
  },
  {
    "filename": "austrlia.phk",
    "size": 12480,
    "description": "The How-To Guide of Phreaking in Australia, by Steve Mclellan & HE-MAN"
  },
  {
    "filename": "avoidcap.txt",
    "size": 3333,
    "description": "Planning Ahead for the Phone Phreak, by The Berzerker"
  },
  {
    "filename": "basphre.txt",
    "size": 7550,
    "description": "The Basics of Phone Phreaking I by Long John Silicone (October, 1983)"
  },
  {
    "filename": "becophre.txt",
    "size": 17848,
    "description": "Becoming a Phreaker, the Quick and Easy Way, by NightJoker (1995)"
  },
  {
    "filename": "beginner.one",
    "size": 2963,
    "description": "Sir Francis Drake Presents: A Phreaking Tutorial"
  },
  {
    "filename": "beginner.txt",
    "size": 3577,
    "description": "Sir Francis Drake Presents: A Phreaking Tutorial"
  },
  {
    "filename": "begphrk",
    "size": 7193,
    "description": "Beginner Phreaking"
  },
  {
    "filename": "bible.phk",
    "size": 15530,
    "description": "The Phreaker's Bible"
  },
  {
    "filename": "billsf",
    "size": 26507,
    "description": "The Hitchiker's Guide to the Phone System: Phreaking in the Nineties, by Billsf (February 15, 1994)"
  },
  {
    "filename": "billsf.txt",
    "size": 26504,
    "description": "The Hitchhiker's Guide to the Phone System: Phreaking in the Nineties, by BillSF"
  },
  {
    "filename": "bob-1.phk",
    "size": 198128,
    "description": "The Best of the Best Phreaker's Manual (Collection of other files)"
  },
  {
    "filename": "bob-2.phk",
    "size": 191208,
    "description": "The Best of the Best Phreaker's Manual (Volume 2)"
  },
  {
    "filename": "bob-3.phk",
    "size": 175976,
    "description": "The Best of the Best Phreaker's Manual (Volume 3)"
  },
  {
    "filename": "bob-4.phk",
    "size": 72932,
    "description": "The Best of the Best Phreaker's Manual (Volume 4)"
  },
  {
    "filename": "bocabasc.txt",
    "size": 7457,
    "description": "The Basics of LD Phreaking Volume #2 by The Boca Bandit"
  },
  {
    "filename": "bootlegg.7",
    "size": 103885,
    "description": "Large Mish-Mash of Different Phreaking and Hacking Texts"
  },
  {
    "filename": "bphrk-1.txt",
    "size": 6641,
    "description": "The Beginners' Phreaking Guide by Jimmy'z (Volume 1.0)"
  },
  {
    "filename": "bphrk-2.txt",
    "size": 3038,
    "description": "The Beginner's Guide to Phreaking: The Lost Art, by Jimmy'z (Part II)"
  },
  {
    "filename": "btleg7.txt",
    "size": 103784,
    "description": "Collection of Textfiles about Phreaking (Should be Split Up)"
  },
  {
    "filename": "caught.txt",
    "size": 3243,
    "description": "On Getting Caught as a Phone Phreak"
  },
  {
    "filename": "commandm.ent",
    "size": 1971,
    "description": "The Phone Phreak's Ten Commandments, from TAP Magazine"
  },
  {
    "filename": "comment.txt",
    "size": 3564,
    "description": "Package #1 of the Phreaktoys Series, by Stripped-Ink Productions"
  },
  {
    "filename": "compphrk.txt",
    "size": 2313,
    "description": "Some Compiled Phreak Shit from Madcap and Ares"
  },
  {
    "filename": "confer.txt",
    "size": 3072,
    "description": "The Slipped Disk on a Phreak Conference"
  },
  {
    "filename": "confrnce.txt",
    "size": 12923,
    "description": "Being Involved with a Conferences Is One Of the Phone Phreak's Phunnest Activities"
  },
  {
    "filename": "dict.txt",
    "size": 29980,
    "description": "Phreaker's Phunhouse by The Traveler"
  },
  {
    "filename": "dictiona",
    "size": 23439,
    "description": "The Phreaker's Phunhouse, by The Traveler (Phreaking Glossary)"
  },
  {
    "filename": "diverter.txt",
    "size": 3799,
    "description": "An Interesting Diversion by Lord Phreaker"
  },
  {
    "filename": "dlbust.txt",
    "size": 12855,
    "description": "How Phone Phreaks are Caught by No Severance (July 1987)"
  },
  {
    "filename": "do-not",
    "size": 1450,
    "description": "The Do-Not's of Danish Phone Phreaking, by Informer (1994)"
  },
  {
    "filename": "elfhack.txt",
    "size": 3100,
    "description": "How to Phreak Without Fear! By The Elf of Demon Roach Underground"
  },
  {
    "filename": "euroblue.phk",
    "size": 11875,
    "description": "The History of European Phreaking, by Lex Luthor"
  },
  {
    "filename": "ffpp.phk",
    "size": 7673,
    "description": "Frankie's Fireside Phreak Primer"
  },
  {
    "filename": "fieldphr.txt",
    "size": 11777,
    "description": "Manuscript II: Field Phreaking"
  },
  {
    "filename": "freakusa.txt",
    "size": 5199,
    "description": "Phreakin' USA, by John Fowler"
  },
  {
    "filename": "freknum.txt",
    "size": 25546,
    "description": "Super Phreak's Hacking and Phreaking Numbers (September 4, 1987)"
  },
  {
    "filename": "hack.3.txt",
    "size": 10496,
    "description": "Hack and Phreak File #3 by The Hyaena"
  },
  {
    "filename": "hack.txt",
    "size": 35605,
    "description": "Compilation of Phreaking Texts by Dysphunxion"
  },
  {
    "filename": "hackerab.txt",
    "size": 6075,
    "description": "Phreaker Abatement: An Overview"
  },
  {
    "filename": "haiku.txt",
    "size": 1072,
    "description": "Phreaking Haikus by The Slipped Disk"
  },
  {
    "filename": "histphre.txt",
    "size": 16472,
    "description": "A Collection of Phreaking History Files"
  },
  {
    "filename": "info5.hac",
    "size": 3244,
    "description": "Phreaking, by VKR and Crazy Plato"
  },
  {
    "filename": "intervie.phk",
    "size": 47744,
    "description": "Interviews with Phreaks and Hackers from the Infiltrator"
  },
  {
    "filename": "jc.phreak",
    "size": 48640,
    "description": "Methods of Phreaking and Telco Security Measures by Joe Cosmo (June 16, 1988)"
  },
  {
    "filename": "johnny.phk",
    "size": 2078,
    "description": "When I Was Young, a reminicence of Phreaking in 1962"
  },
  {
    "filename": "lawsofph.txt",
    "size": 4762,
    "description": "Shooting Shark's Laws of Phreaking and Hacking"
  },
  {
    "filename": "mail-frd.mia",
    "size": 11476,
    "description": "Phreakers of the World: Never Pay 29 Cents Again, October 10, 1993"
  },
  {
    "filename": "manual1.txt",
    "size": 282496,
    "description": "The Official Phreaker's Manual Version 1.1 by The Jammer and Jack the Ripper (February 14, 1987)"
  },
  {
    "filename": "manual2.txt",
    "size": 250208,
    "description": "The Official Phreaker's Manual V1.1 by The Jammer and Jack the Ripper (February 14, 1991) Part II"
  },
  {
    "filename": "morality",
    "size": 2718,
    "description": "A Lesson in Phreaking and Hacking Morality, by Big Brother"
  },
  {
    "filename": "morality.txt",
    "size": 2573,
    "description": "A Lesson in Phreaking and Hacking Morality by Big Brother"
  },
  {
    "filename": "nb90s1.txt",
    "size": 8525,
    "description": "A Newbie's Guide to Phreaking In the 90s"
  },
  {
    "filename": "obsphrk.txt",
    "size": 172400,
    "description": "3500 Lines of Obsolete Phreaking Stuff (May 12, 1994)"
  },
  {
    "filename": "part1_tx.txt",
    "size": 34337,
    "description": "PHREAKS: Long Distance Phone Thieves, or The Phreaker's Handbook"
  },
  {
    "filename": "part2_tx.txt",
    "size": 59300,
    "description": "The Inner Core's Rules of Phreaking"
  },
  {
    "filename": "part3_tx.hac",
    "size": 53513,
    "description": "The Phreaker's Handbook Part III"
  },
  {
    "filename": "ph08.txt",
    "size": 34587,
    "description": "Methods of Phreaking and Telco Security Measures (June 16, 1988)"
  },
  {
    "filename": "phb",
    "size": 534880,
    "description": "The Official Phreaker's Manual version 1.1 (February 14, 1987) by The Jammer and Jack the Ripper"
  },
  {
    "filename": "phbook.txt",
    "size": 31999,
    "description": "The Phreaker's Handbook Version #1 by Doctor Dissector of Phortune #500"
  },
  {
    "filename": "phk90s.txt",
    "size": 24829,
    "description": "The Hitchhiker's Guide to the Phone System: Phreaking in the Nineties, by BillSD"
  },
  {
    "filename": "phmanual.txt",
    "size": 260154,
    "description": "The Official Phreaker's Manual, by The Hammer and Jack the Ripper (February 14, 1987)"
  },
  {
    "filename": "phoneb.phk",
    "size": 45982,
    "description": "Methods of Phreaking and Telco Security Measures, by Joe Cosmo (Needs Editing)"
  },
  {
    "filename": "phonehac.phk",
    "size": 2393,
    "description": "Phone Phreaks take their Toll, from the San Jose Mercury"
  },
  {
    "filename": "phphil.txt",
    "size": 4600,
    "description": "A Phriendly Phile About Phone Phreaking"
  },
  {
    "filename": "phrakman.txt",
    "size": 539011,
    "description": "The Official Phreaker's Manual Version 1.1 (February 14, 1991) by The Jammer and Jack the Ripper"
  },
  {
    "filename": "phreagui.txt",
    "size": 11771,
    "description": "Oliver Jones' Guide to Phreaking Volume I"
  },
  {
    "filename": "phreahel.txt",
    "size": 3625,
    "description": "Helpful Phreaking Information by Zandar Zan"
  },
  {
    "filename": "phreak.in1",
    "size": 13456,
    "description": "Phreaking, by The Xenocide (November 13, 1988)"
  },
  {
    "filename": "phreak.inf",
    "size": 17193,
    "description": "How to Be a Real Phreak from the World of Cryton"
  },
  {
    "filename": "phreak.phk",
    "size": 14822,
    "description": "How to Be a Real Phreak (Compilation)"
  },
  {
    "filename": "phreak.txt",
    "size": 15104,
    "description": "Introduction to Phone Phreaking by The Wizard"
  },
  {
    "filename": "phreak1.bok",
    "size": 10237,
    "description": "The Phreaker's Handbook by Cat Trax, 1985"
  },
  {
    "filename": "phreak1.doc",
    "size": 9401,
    "description": "The Weekly Phreak by Phoenix and Trypd"
  },
  {
    "filename": "phreak101.phk",
    "size": 12989,
    "description": "Phreaking, by The Xenocide"
  },
  {
    "filename": "phreak2.txt",
    "size": 16769,
    "description": "How to Be a Real Phreack, by The World of Cryton"
  },
  {
    "filename": "phreak28.phk",
    "size": 5057,
    "description": "2084: A Phone Oddysey, by Maxwell Smart & The Baron"
  },
  {
    "filename": "phreak90.txt",
    "size": 24816,
    "description": "Hitchiker's Guide to the Phone System: Phreaking in the 90's by BillSF"
  },
  {
    "filename": "phreakbi.txt",
    "size": 15169,
    "description": "An Introduction to Phone Phreaking, by The Wizard"
  },
  {
    "filename": "phreaker.fun",
    "size": 21524,
    "description": "Phreaker's Phunhouse by The Traveler (A \"Prequil\")"
  },
  {
    "filename": "phreakers.dicti",
    "size": 16896,
    "description": "The Phreaker's Dictionary"
  },
  {
    "filename": "phreakgo.hac",
    "size": 4205,
    "description": "Phreakers Caught, from the LA Times, 1982"
  },
  {
    "filename": "phreakh.ist",
    "size": 33129,
    "description": "The Early Days of Phreaking"
  },
  {
    "filename": "phreakhi.phk",
    "size": 3850,
    "description": "The History of Phreaking (Short)"
  },
  {
    "filename": "phreakin.one",
    "size": 11442,
    "description": "The Phreak's Notebook Part 1 by Jackknife"
  },
  {
    "filename": "phreakin.phk",
    "size": 6580,
    "description": "Basics of Phone Phreaking I by John John Silicone"
  },
  {
    "filename": "phreakin.two",
    "size": 12263,
    "description": "The Phreak's Notebook Part II by Jacknife"
  },
  {
    "filename": "phreakin.usa",
    "size": 4556,
    "description": "Phreakin' USA by Wanderjahr"
  },
  {
    "filename": "phreakla.phk",
    "size": 2645,
    "description": "Phreak Sysops & US Law, by Star Warrior"
  },
  {
    "filename": "phreakman.hac",
    "size": 498730,
    "description": "The Official Phreaker's Manual V1.1"
  },
  {
    "filename": "phreakri.txt",
    "size": 8448,
    "description": "Your Rights as a Phone Phreak by Fred Steinbeck"
  },
  {
    "filename": "phreaks.txt",
    "size": 16316,
    "description": "The Real Phreaker's Guide Volume 1, by Taran King and Knight Lightning (April 10, 1985)"
  },
  {
    "filename": "phrecol.txt",
    "size": 4798,
    "description": "A Collection of Phreak Information from the Alliance Crew (1989)"
  },
  {
    "filename": "phrfun.phk",
    "size": 20818,
    "description": "The Phreaker's Phunhouse, by The Traveler"
  },
  {
    "filename": "phrkbas1.txt",
    "size": 6598,
    "description": "Basics of Phone Phreaking I by Long John Silicone"
  },
  {
    "filename": "phrkbeef.phk",
    "size": 8392,
    "description": "Phreaking '87: The Real BEEF by The Illegal McBeagle of LSD"
  },
  {
    "filename": "phrkhis.txt",
    "size": 1507,
    "description": "The History of Phreaking from 2600"
  },
  {
    "filename": "phrkhist",
    "size": 12354,
    "description": "A Brief History of Phreaking, by BucWheat"
  },
  {
    "filename": "phrkrule.phk",
    "size": 9515,
    "description": "The Inner Core's Rules of Phreaking"
  },
  {
    "filename": "phrkusa.txt",
    "size": 4441,
    "description": "Phreakin' USA, by John Fowler"
  },
  {
    "filename": "phrman.txt",
    "size": 534656,
    "description": "The Official Phreaker's Manual   V1.1 by The Jammer and Jack the Ripper (February 14, 1987)"
  },
  {
    "filename": "phukphrd.phk",
    "size": 6965,
    "description": "Scaring The Phuck Out Of Your Phriends if You're A Phuckin' Phreak by Phuckin' Phield Phreakers"
  },
  {
    "filename": "pkman.txt",
    "size": 539076,
    "description": "The Official Phreaker's Manual Version 1.1 by the Jammer and Jack the Ripper (February 14, 1991)"
  },
  {
    "filename": "pkmanual1.phk",
    "size": 92225,
    "description": "The Official Phreaker's Manual, Volume #1"
  },
  {
    "filename": "pkmanual2.phk",
    "size": 92165,
    "description": "The Official Phreaker's Manual, Volume #2"
  },
  {
    "filename": "pkmanual3.phk",
    "size": 92186,
    "description": "The Official Phreaker's Manual, Volume #3"
  },
  {
    "filename": "pkmanual4.phk",
    "size": 92164,
    "description": "The Official Phreaker's Manual, Volume #4"
  },
  {
    "filename": "pkmanual5.phk",
    "size": 92154,
    "description": "The Official Phreaker's Manual, Volume #5"
  },
  {
    "filename": "pkmanual6.phk",
    "size": 92013,
    "description": "The Official Phreaker's Manual, Volume #6"
  },
  {
    "filename": "pmanual1.txt",
    "size": 295861,
    "description": "The Official Phreaker's Manual V1.1 by The Jammer and Jack the Ripper (February 14, 1991)"
  },
  {
    "filename": "pnet.phk",
    "size": 6519,
    "description": "Phreaker's Net, by the Blue Buccaneer"
  },
  {
    "filename": "ptech.txt",
    "size": 11906,
    "description": "The Technical Book of Phreaking (January/February 1989)"
  },
  {
    "filename": "real.phr",
    "size": 7424,
    "description": "The Real Phreaker's Guide by Taran King and Knight Lightning (June 10, 1985)"
  },
  {
    "filename": "realpwoc.txt",
    "size": 17408,
    "description": "Rag Time Presents How to Be a Real Phreak"
  },
  {
    "filename": "rodeguid.txt",
    "size": 17286,
    "description": "The R0dent;s Guide to Phreaking, by Weapons Master"
  },
  {
    "filename": "rodphk.txt",
    "size": 17253,
    "description": "The R0dents' Guide to Phreaking, by Weapons Master"
  },
  {
    "filename": "rodphk1.txt",
    "size": 17253,
    "description": "The R0dent's Guide to Phreaking, by Weapons Master"
  },
  {
    "filename": "sanatm.txt",
    "size": 6909,
    "description": "Understanding the Terms of Phreaking, from Cybertek (December 25, 1990)"
  },
  {
    "filename": "scam.txt",
    "size": 1436,
    "description": "Phreaker Scams"
  },
  {
    "filename": "tap-int.1",
    "size": 46886,
    "description": "Interviews and Conversation With Famous Phreaks and Hackers by the Infiltrator"
  },
  {
    "filename": "tap-int.2.1",
    "size": 18458,
    "description": "Interviews and Conversation With Famous Phreaks and Hackers by the Infiltrator (Part II)"
  },
  {
    "filename": "tap-int.2.2",
    "size": 23397,
    "description": "Interviews and Conversation With Famous Phreaks and Hackers by the Infiltrator (Part III)"
  },
  {
    "filename": "tap-int.3.1",
    "size": 42679,
    "description": "Interviews and Conversation With Famous Phreaks and Hackers by the Infiltrator (Part IV)"
  },
  {
    "filename": "tap-int.3.2",
    "size": 44059,
    "description": "Interviews and Conversation With Famous Phreaks and Hackers by the Infiltrator (Part 5)"
  },
  {
    "filename": "tap-int.6",
    "size": 4146,
    "description": "Interviews and Conversation With Famous Phreaks and Hackers by the Infiltrator (Part 6)"
  },
  {
    "filename": "tap.int",
    "size": 46850,
    "description": "Interviews and Conversations with Famous Phreaks and Hackers by the Infoltrator"
  },
  {
    "filename": "tbopbcj.txt",
    "size": 8184,
    "description": "The Best of Phreaking from Chris Jones of United Phone Network International"
  },
  {
    "filename": "techbook.phk",
    "size": 11763,
    "description": "The Technical Book of Phreaking by Micro World"
  },
  {
    "filename": "techbook.txt",
    "size": 10492,
    "description": "The Technical Book of Phreaking, by Micro World Inc. (January/February 1989)"
  },
  {
    "filename": "telec.phk",
    "size": 15127,
    "description": "Videosmith's Phreak Classroom 2600"
  },
  {
    "filename": "tencom.phk",
    "size": 1799,
    "description": "The Phone Phreak's Ten Commandments (from TAP Issue #86)"
  },
  {
    "filename": "terms.txt",
    "size": 11520,
    "description": "A Collection of Computer Hacking and Phreaking Terms"
  },
  {
    "filename": "termsdoc.hac",
    "size": 22615,
    "description": "Computer Phreaking: A Glossary of Terms"
  },
  {
    "filename": "topm3",
    "size": 97131,
    "description": "The Official Phreaker's Manual, by Shadow 2600"
  },
  {
    "filename": "totphrk1.txt",
    "size": 2482,
    "description": "The Total Phreak by The Dark Pirate"
  },
  {
    "filename": "tph-1.txt",
    "size": 65412,
    "description": "The Phreaker's Handbook #1 by Phortune 500"
  },
  {
    "filename": "tph-2.txt",
    "size": 65996,
    "description": "The Phreaker's Handbook #2, by Phortune 500"
  },
  {
    "filename": "tph1-1.txt",
    "size": 2063,
    "description": "The Phreaker's Handbook #1 by Phortune 500"
  },
  {
    "filename": "tph1-2.hac",
    "size": 1935,
    "description": "The Phreaker's Handbook #1: Table of Contents"
  },
  {
    "filename": "tph1-3.hac",
    "size": 2540,
    "description": "The Phreaker's Handbook #1: The Phreak's Vitals"
  },
  {
    "filename": "tph1-4.hac",
    "size": 52669,
    "description": "The Phreaker's Handbook #1: The Phreak's Glossary"
  },
  {
    "filename": "tph1-5.hac",
    "size": 4696,
    "description": "The Phreaker's Handbook #1: Other Phone Information"
  },
  {
    "filename": "tph1-6.hac",
    "size": 1839,
    "description": "The Phreaker's Handbook #1: References and Suggested Reading"
  },
  {
    "filename": "tph1.txt",
    "size": 65598,
    "description": "The Phreakers Handbook Issue #1 Volume #1 by Doctor Dissector of Phortune 500 (July 3, 1989)"
  },
  {
    "filename": "tph1_1.phk",
    "size": 2827,
    "description": "The Phreaker's Handbook #1 (1989)"
  },
  {
    "filename": "typesof.phk",
    "size": 3648,
    "description": "Are YOU a Phreak? A Guide."
  },
  {
    "filename": "typphrea.phk",
    "size": 3801,
    "description": "Are You A Phreak?"
  },
  {
    "filename": "upi01.txt",
    "size": 17977,
    "description": "The Phreaker's Bag of high Tech Tricks by The Lost Avenger of UPI (January 17, 1990)"
  },
  {
    "filename": "wicked.txt",
    "size": 26813,
    "description": "All You EVER Need to Know about Phreaking by Kixx (1994)"
  },
  {
    "filename": "yobox.txt",
    "size": 12096,
    "description": "The Dracula City Overview of the State of Phreaking"
  },
  {
    "filename": "zenphrk.txt",
    "size": 69952,
    "description": "Zen and the Art of Phone Phreaking by C"
  }
]
