[
  {
    "filename": "acrpatch.nfo",
    "size": 36217,
    "description": "The Acura Members Patch List (July 1996)"
  },
  {
    "filename": "act-13.txt",
    "size": 63156,
    "description": "The Amateur Crackist Tutorial Version 1.3 by Specular Vision of the PTL"
  },
  {
    "filename": "act.txt",
    "size": 63155,
    "description": "The Amateur Crackist Tutorial Version 1.3 by Specular Vision"
  },
  {
    "filename": "asm_for_.txt",
    "size": 6400,
    "description": "Assembly for Crackers, by Corn2"
  },
  {
    "filename": "asmtut.txt",
    "size": 16651,
    "description": "XLogic's Assembly KeyGen Tutorial"
  },
  {
    "filename": "begcrck.txt",
    "size": 85615,
    "description": "A Beginner's Guide to Cracking (For the IBM PC)"
  },
  {
    "filename": "budget.txt",
    "size": 12692,
    "description": "The Association of Software Professionals presents Budget Minder"
  },
  {
    "filename": "bytecatcher.txt",
    "size": 3920,
    "description": "Tutorial for Using Byte Catcher by Mansion69 (1997)"
  },
  {
    "filename": "c1.txt",
    "size": 22187,
    "description": "How To Crack pretty Much Anything, by +ORC"
  },
  {
    "filename": "c101-90.000",
    "size": 3938,
    "description": "Cracking 101: 1990 Edition by Buckaroo Banzai"
  },
  {
    "filename": "c101-90.002",
    "size": 31676,
    "description": "Cracking 101: 1990 Edition by Buckaroo Banzai (Lesson 2)"
  },
  {
    "filename": "c101-90.003",
    "size": 15105,
    "description": "Cracking 101: 1990 Edition by Buckaroo Banzai (Lesson 3)"
  },
  {
    "filename": "c101-90.004",
    "size": 56228,
    "description": "Cracking 101: 1990 Edition by Buckaroo Banzai (Lesson 4)"
  },
  {
    "filename": "c2.txt",
    "size": 26483,
    "description": "How to Crack Pretty Much Everything Part II, by +ORC"
  },
  {
    "filename": "c3.txt",
    "size": 59665,
    "description": "How to Crack Pretty Much Anything (Windows) by +ORC"
  },
  {
    "filename": "c4.txt",
    "size": 77364,
    "description": "How to Crack Just About Anything #4 by +ORC"
  },
  {
    "filename": "c5.txt",
    "size": 24086,
    "description": "How to Crack Just About Anything, by +ORC (Part 5)"
  },
  {
    "filename": "c6.txt",
    "size": 23418,
    "description": "How to Crack by +ORC (#6)"
  },
  {
    "filename": "c8a.txt",
    "size": 17636,
    "description": "How to Crack Windows, by +ORC (Part 8)"
  },
  {
    "filename": "c8b.txt",
    "size": 23927,
    "description": "How to Crack Windows, by =ORC"
  },
  {
    "filename": "caligo.nfo",
    "size": 3045,
    "description": "NFO: The Lord Caligo Univeral Improved Patcher (June 4, 1997)"
  },
  {
    "filename": "cbd-tut01.txt",
    "size": 10041,
    "description": "_CbD_ vs. Ultisoft, Inc.: Cracking Ultisoft Games, by CbD (1997)"
  },
  {
    "filename": "cbd-tut02.txt",
    "size": 10010,
    "description": "Cracking Rummy 500, by CbD (1997)"
  },
  {
    "filename": "cbd-tut03.txt",
    "size": 17107,
    "description": "Function Disabled Protections Defeated by CbD (July 28, 1997)"
  },
  {
    "filename": "cbd-tut04.txt",
    "size": 9835,
    "description": "Cracking Business Cards 32 v4.18 by CbD (1997)"
  },
  {
    "filename": "cbd-tut05.txt",
    "size": 6136,
    "description": "A General Cracking Tutorial by CbD (Visual Basic Programs) (1997)"
  },
  {
    "filename": "cbd-tut06.txt",
    "size": 8578,
    "description": "Modifying DLLs to Give Real Registration Codes by CbD (1997)"
  },
  {
    "filename": "cdwizzard.txt",
    "size": 12453,
    "description": "A Tutorial on Cracking CD Wizzard by Niabi (July 8, 1997)"
  },
  {
    "filename": "ch2-doc",
    "size": 27212,
    "description": "CrackerHack Verison 2.0 by No Means No (December 1, 1992)"
  },
  {
    "filename": "check.txt",
    "size": 11394,
    "description": "Megaton Man Teaches Cracking: Doc Check Protection (May 26, 1989)"
  },
  {
    "filename": "copyprot.pro",
    "size": 11218,
    "description": "Copy Protection, a History and Overview"
  },
  {
    "filename": "copyprot.txt",
    "size": 11735,
    "description": "Cracking on the IBMpc Part I by Buckaroo Banzai/Reset Vector"
  },
  {
    "filename": "crack-1.txt",
    "size": 8192,
    "description": "Cracking on the IBM Pc Part I by Buckaroo Banzai aka the Reset Vector"
  },
  {
    "filename": "crack-2.txt",
    "size": 3840,
    "description": "Cracking on the IBM Pc Part II by Buckaroo Banzai"
  },
  {
    "filename": "crack.txt",
    "size": 90759,
    "description": "How to Crack an Amiga Game"
  },
  {
    "filename": "crack1",
    "size": 8736,
    "description": "Cracking on the Edge, by Buckaroo Banzai/The Reset Vector"
  },
  {
    "filename": "crack1.txt",
    "size": 7850,
    "description": "Cracking 101, by Buckaroo Banzai (1990)"
  },
  {
    "filename": "crack2.txt",
    "size": 77178,
    "description": "Cracking 101, by Buckaroo Banzai (1990) Lesson 3"
  },
  {
    "filename": "crack3.txt",
    "size": 29919,
    "description": "The Official Unprotection Scheme Library by The PaperBoy and the CopyCats (February 6, 1989)"
  },
  {
    "filename": "crackam2.txt",
    "size": 29030,
    "description": "Cracking the Amiga Part II"
  },
  {
    "filename": "crackist.hac",
    "size": 63158,
    "description": "The Amateur Crackist Tutorial by Specular Vision (Version 1.3)"
  },
  {
    "filename": "cracklog.txt",
    "size": 3997,
    "description": "Some Examples of Cracking by DrLAN (1997)"
  },
  {
    "filename": "crackman.txt",
    "size": 90671,
    "description": "The Cracking Manual, by the Cyborg (April 3, 1992)"
  },
  {
    "filename": "crak1.txt",
    "size": 15364,
    "description": "How to Crack by Charles Petzold"
  },
  {
    "filename": "crak2.txt",
    "size": 22182,
    "description": "Examples of IBM PC Cracks: Mean-18 Golf by Accolade"
  },
  {
    "filename": "crak4.txt",
    "size": 11608,
    "description": "Chapter 4: Cracking a Self-Booter"
  },
  {
    "filename": "crakhand.txt",
    "size": 17114,
    "description": "The Cracker Handbook, by Darth Vader, Lord of the Sith"
  },
  {
    "filename": "crkibms2.hac",
    "size": 3465,
    "description": "Cracking on the IBM PC Part II"
  },
  {
    "filename": "crkibmsw.hac",
    "size": 7479,
    "description": "Cracking on the IBM PC Part I"
  },
  {
    "filename": "diswin.txt",
    "size": 32497,
    "description": "How to Disassemble a Windows Program"
  },
  {
    "filename": "diswin2.txt",
    "size": 32979,
    "description": "How to Disassemble a Windows Program part II"
  },
  {
    "filename": "drlan.txt",
    "size": 4970,
    "description": "A Tutorial on Cracking TICKLE.EXE using Hmemcpy and Memory Breakpoints by Dr. Lan of Mexelite"
  },
  {
    "filename": "dumpexe.txt",
    "size": 34371,
    "description": "DOCUMENTATION: EXE-Dumper Version 2.2 by Bugsy (1997)"
  },
  {
    "filename": "exact-in.txt",
    "size": 34372,
    "description": "An Introduction to Windows 95 Cracking"
  },
  {
    "filename": "firstwin.txt",
    "size": 4447,
    "description": "Your First Windows Crack by YOSHi of Mexelite (1997)"
  },
  {
    "filename": "hotchil2.txt",
    "size": 1888,
    "description": "How to Crack Hot Chilli v2.0, by Pain (1997)"
  },
  {
    "filename": "howto1.txt",
    "size": 17336,
    "description": "How to Crack Lesson 1 By the old Red Cracker"
  },
  {
    "filename": "howto2.txt",
    "size": 24786,
    "description": "How to Crack Lesson 2 by the old Red Cracker (Tools of the Trade)"
  },
  {
    "filename": "howto3a.txt",
    "size": 5787,
    "description": "How to Crack Lesson 3a by the Old Red Cracker (Hands-On Cracking)"
  },
  {
    "filename": "howto3b.txt",
    "size": 10626,
    "description": "How to Crack Lesson 3b by the old Red Cracker (Passwords and Passletters)"
  },
  {
    "filename": "howto5.txt",
    "size": 24084,
    "description": "How to Crack Lesson 5 by The Old Red Cracker (Handling Disk/CDROM Access)"
  },
  {
    "filename": "howto6.txt",
    "size": 23416,
    "description": "How to Crack Lesson 6 by Old Red Cracker (Funny Tricks)"
  },
  {
    "filename": "howto8a.txt",
    "size": 17634,
    "description": "How to Crack Lesson 8.1 by Old Red Cracker (How to Crack Windows)"
  },
  {
    "filename": "howto8b.txt",
    "size": 23925,
    "description": "How to Crack Lesson 8b by the Old Red Cracker (How to Crack Windows, a Deeper Approach)"
  },
  {
    "filename": "howto9a.txt",
    "size": 30168,
    "description": "How to Crack Lesson 9a by the Old Red Cracker (Some Tricks)"
  },
  {
    "filename": "howtoa.txt",
    "size": 18595,
    "description": "How to Crack Advanced Lessons by the Old Red Cracker (Internet Cracking)"
  },
  {
    "filename": "howtoca.txt",
    "size": 22183,
    "description": "How to Crack As an Art by the Old Red Cracker (Barcodes and Instant Access)"
  },
  {
    "filename": "howtocb.txt",
    "size": 26479,
    "description": "How to Crack as an Art by the Old Red Cracker (Strainer for the HCU)"
  },
  {
    "filename": "howtocp2",
    "size": 3702,
    "description": "IBM Disk Cracking Made Simple by Phobos"
  },
  {
    "filename": "howtocrk.txt",
    "size": 299115,
    "description": "How to Crack by +ORC: A Tutorial"
  },
  {
    "filename": "htc.txt",
    "size": 216684,
    "description": "A Beginner's Guide to Cracking"
  },
  {
    "filename": "hwoodtut.txt",
    "size": 11853,
    "description": "How to Crack Hardwood Solitare by JosephCo"
  },
  {
    "filename": "krakerscorner.txt",
    "size": 6827,
    "description": "The Kraker's Corner, by Mr. Krac-Man (August 1, 1982)"
  },
  {
    "filename": "krakman.txt",
    "size": 5649,
    "description": "Krak-Man's Parameters: Parameters for Copying Various Apple Disks"
  },
  {
    "filename": "lomt-tsr.txt",
    "size": 1825,
    "description": "DOCUMENTATION: Legend of Myra Interactive TSR Trainer"
  },
  {
    "filename": "max1.crk",
    "size": 13176,
    "description": "Max's Cracking Tutorial for the Poor (Registering PCXDump 9.2)"
  },
  {
    "filename": "methods.txt",
    "size": 31520,
    "description": "Techniques in Cracking by TOP (Tired of Potection)"
  },
  {
    "filename": "mex-c4n.nfo",
    "size": 10049,
    "description": "An Introduction to Mexelite, a New Cracking Group (July 28, 1997)"
  },
  {
    "filename": "mhpcnws1.txt",
    "size": 20193,
    "description": "A Cracking Guide for Beginners, by The Psychopath of the Midnight Hackers Private Club"
  },
  {
    "filename": "mhpcnws2.txt",
    "size": 19997,
    "description": "A Cracking Guide for Advanced Amateurs by The Psychopath of the Midnight Hackers Private Club"
  },
  {
    "filename": "mhpcnws5.txt",
    "size": 16027,
    "description": "A Cracking Guide for Advanced Amateurs Part II by The Psychopath of Midnight Hackers Private Club"
  },
  {
    "filename": "nags.txt",
    "size": 8155,
    "description": "How to use Nag Screens (August 24, 1997)"
  },
  {
    "filename": "od-crk1.txt",
    "size": 18170,
    "description": "Cracking/Patching Softart's Deskey v1.02.010"
  },
  {
    "filename": "owl-ice.txt",
    "size": 31929,
    "description": "Cracking: Now More Annoying WinIce, or How to Improve Winice"
  },
  {
    "filename": "pp2t-t&l.txt",
    "size": 3924,
    "description": "SOFTDOCS: Prince of Persia II Interactive TSR and LOADER Trainer Example Documentation"
  },
  {
    "filename": "psp.nfo",
    "size": 28660,
    "description": "NFO: The Information File Revision III by Plate Steel Productions (August 1995)"
  },
  {
    "filename": "razzia.nfo",
    "size": 1193,
    "description": "NFO: Razzia by Kenetic"
  },
  {
    "filename": "romeod4c.txt",
    "size": 6227,
    "description": "Software Re-Engineering For Dummies: An Overview by Romeo (1997)"
  },
  {
    "filename": "scanf.dox",
    "size": 7679,
    "description": "DOCUMENTATION: Scanfile 4.0 by Marquis De Soire (July 1996)"
  },
  {
    "filename": "shareman.txt",
    "size": 6208,
    "description": "How to Crack Shareman 1.6 by pain of Mexelite (July 13, 1997)"
  },
  {
    "filename": "sice3.qrf",
    "size": 14249,
    "description": "SOFTDOCS: The Softice 3.0 Quick Reference by ZeroDay (February 7, 1997)"
  },
  {
    "filename": "sigma-4f.nfo",
    "size": 2985,
    "description": "The Universal Improved Patcher Volume by 4Fun"
  },
  {
    "filename": "t!tutor.txt",
    "size": 20259,
    "description": "An ASM Keygen Tutorial by Teraphy (1997)"
  },
  {
    "filename": "timetrial.txt",
    "size": 18864,
    "description": "Cracking Tutorial: Wintar Remote (August 24, 1997)"
  },
  {
    "filename": "tsrcrack.txt",
    "size": 2130,
    "description": "SOFTDOCS: TSR Crack v3.0 by Wong Wing Kin (1994)"
  },
  {
    "filename": "tt-unt.txt",
    "size": 103968,
    "description": "The Training Tutorial for the PC by Dr. Detergent of UNT (1993)"
  },
  {
    "filename": "unp.txt",
    "size": 31148,
    "description": "Documentation fo UNP v4.11 by Ben Castricum (May 30, 1995)"
  },
  {
    "filename": "vbtutori.txt",
    "size": 22696,
    "description": "Razzia's Tutorial for Visual Basic Cracking"
  },
  {
    "filename": "wincrack.txt",
    "size": 13080,
    "description": "Qapla's Cracking Tutorial Version 0.1 (February 9, 1997)"
  },
  {
    "filename": "¨cal!go¨.nfo",
    "size": 284,
    "description": "NFO: Caligo Cracking (July 9, 1997)"
  }
]
