[
  {
    "filename": "123.unp",
    "size": 706,
    "description": "Unprotect for Lotus 123 by Gene Plantz"
  },
  {
    "filename": "123new.unp",
    "size": 640,
    "description": "Unprotect for Lotus 123 (Revised)"
  },
  {
    "filename": "123star.unp",
    "size": 1152,
    "description": "UNPROTECT: Lotus 123 Release 1A"
  },
  {
    "filename": "123v201.unp",
    "size": 2816,
    "description": "UNPROTECT: Lotus Version 2.01 Upgrade"
  },
  {
    "filename": "aardvark.unp",
    "size": 3712,
    "description": "Unprotect: Aardvark McGraw-Hill Financial Software, by JRE"
  },
  {
    "filename": "artwork.unp",
    "size": 2944,
    "description": "How to Unprotect \"Artwork\" by West End Film (Version 2.43)"
  },
  {
    "filename": "banner.unp",
    "size": 2048,
    "description": "Unprotect: Banner Builder from Power Up (1983)"
  },
  {
    "filename": "bardtal1",
    "size": 16653,
    "description": "Walkthrough for The Bard's Tale"
  },
  {
    "filename": "bchess2.fix",
    "size": 441,
    "description": "UNPROTECT: Battle Chess 2 Fix"
  },
  {
    "filename": "bic-sol2.nfo",
    "size": 5022,
    "description": "UNPROTECT: Bicycle Solitaire v2.01 by Swfte of the Humble Guys"
  },
  {
    "filename": "book.unp",
    "size": 1408,
    "description": "Unprotect: Little Black Book by Cignet Technologies"
  },
  {
    "filename": "brushwrk.unp",
    "size": 1792,
    "description": "Unprotect: Brushwork by West End Film (Version 2.43)"
  },
  {
    "filename": "carbonc.unp",
    "size": 896,
    "description": "Unprotect: Carbon Copy Version 2.14"
  },
  {
    "filename": "caveman.unp",
    "size": 428,
    "description": "UNPROTECT: Caveman Ugh-Lympics"
  },
  {
    "filename": "cent-unp.txt",
    "size": 455,
    "description": "UNPROTECT: Centurion by Electronic Arts"
  },
  {
    "filename": "ch-krynn.txt",
    "size": 637,
    "description": "Sector-Editing Out Copy-Protection in Champions of the Krynn"
  },
  {
    "filename": "chartmas.unp",
    "size": 3465,
    "description": "UNPROTECT: Chartmaster Version 6.04 (With Excellent Anti-Pay-BBS Rant)"
  },
  {
    "filename": "chtmas61.unp",
    "size": 1024,
    "description": "Unprotect: Chartmaster"
  },
  {
    "filename": "civ-crac",
    "size": 12938,
    "description": "Using a Sector Editor to Do All Sorts of Insane Things in Civilization (October 11, 1992)"
  },
  {
    "filename": "civ.unp",
    "size": 1854,
    "description": "An Unprotect for Civilization"
  },
  {
    "filename": "clout256.unp",
    "size": 3328,
    "description": "Unprotect: CLOUT v1.0"
  },
  {
    "filename": "clout384.unp",
    "size": 3456,
    "description": "Unprotect: R:Base 4000, from The ASP"
  },
  {
    "filename": "code_whl.txt",
    "size": 7900,
    "description": "UNPROTECT: Code Wheel for DOOGER"
  },
  {
    "filename": "copywrit.unp",
    "size": 2304,
    "description": "Unprotect: Copywrit, February Release"
  },
  {
    "filename": "dallas.hnt",
    "size": 865,
    "description": "Unprotect DALLAS QUEST BY Datasoft by Software Pirates, INC"
  },
  {
    "filename": "dambust.hnt",
    "size": 1232,
    "description": "Unprotect \"The Dambusters\" from Accolade (March 25, 1985)"
  },
  {
    "filename": "dambust.unp",
    "size": 1083,
    "description": "Unprotect: The Dambusters, from Accolade"
  },
  {
    "filename": "db3.unp",
    "size": 2089,
    "description": "Unprotect: DBASE III"
  },
  {
    "filename": "db3v30.txt",
    "size": 6784,
    "description": "UNPROTECT: Dbase III (November 2, 1984)"
  },
  {
    "filename": "dba.unp",
    "size": 2409,
    "description": "Unprotect: DBASE Administrator 1.0, by Perry Simm (March 28, 1986)"
  },
  {
    "filename": "diagm501.unp",
    "size": 3456,
    "description": "Unprotect: Diagram Master 5.01"
  },
  {
    "filename": "diagraph.unp",
    "size": 2202,
    "description": "Unprotect: Diagraph 3.31"
  },
  {
    "filename": "diagrm50.unp",
    "size": 1024,
    "description": "Unprotect: Diagram Master v5.0"
  },
  {
    "filename": "dol&sen.unp",
    "size": 1838,
    "description": "Unprotect: Dollars and Sense (December 22, 1985)"
  },
  {
    "filename": "doubldos.unp",
    "size": 4352,
    "description": "UNPROTECT: DoubleDOS from the Lone Vector"
  },
  {
    "filename": "elecdesk.unp",
    "size": 768,
    "description": "Unprotect: Electric Desk v1.04"
  },
  {
    "filename": "enable.unp",
    "size": 1280,
    "description": "Unprotect: Enable System Disk"
  },
  {
    "filename": "ewbackup.unp",
    "size": 2304,
    "description": "Unprotect: Easywriter 1.0"
  },
  {
    "filename": "fastback.unp",
    "size": 2688,
    "description": "Unprotect: FASTBACK, from Fifth Generation"
  },
  {
    "filename": "flghtsim.unp",
    "size": 972,
    "description": "Unprotect: Microsoft Flight Simulator 1.00"
  },
  {
    "filename": "focus405.unp",
    "size": 768,
    "description": "Unprotect: FOCUS Activator Diskette"
  },
  {
    "filename": "frmwrk2.unp",
    "size": 5248,
    "description": "Unprotect: Breaking Framework II's Softguard 2.03 protection, by The Lone Victor"
  },
  {
    "filename": "gato2.unp",
    "size": 640,
    "description": "Unprotect: Gato (November 8, 1985)"
  },
  {
    "filename": "gclisp.unp",
    "size": 7936,
    "description": "Unprotect: GCLIST (Version 2.0)"
  },
  {
    "filename": "grafwrtr.unp",
    "size": 3200,
    "description": "Unprotect: Graphwriter version 4.21"
  },
  {
    "filename": "harvard.unp",
    "size": 10014,
    "description": "Unprotect: Harvard Project Manager v1.1"
  },
  {
    "filename": "ibmasst.unp",
    "size": 7296,
    "description": "Unprotect: IBM Assistant Series"
  },
  {
    "filename": "info.inc",
    "size": 723,
    "description": "UNPROTECT: Fix for Initial Buck Rogers"
  },
  {
    "filename": "kq2.unp",
    "size": 2788,
    "description": "Unprotect: King's Quest II by Sierra Online"
  },
  {
    "filename": "layout.unp",
    "size": 512,
    "description": "Unprotect:L Prokey 3.0"
  },
  {
    "filename": "ll2unpro.txt",
    "size": 6400,
    "description": "UNPROTECT: Leisure Suit Larry II by Edqrd H. Currie, Ph. D"
  },
  {
    "filename": "loadcalc.unp",
    "size": 1152,
    "description": "Unprotect: LoadCalc version 4.13"
  },
  {
    "filename": "many.unp",
    "size": 4472,
    "description": "UNPROTECT: DBase III Version 1.10 by The Lone Victor"
  },
  {
    "filename": "memshift.unp",
    "size": 512,
    "description": "Unprotect: dBase III version 1.10 by The Lone Victor"
  },
  {
    "filename": "memshift2.unp",
    "size": 459,
    "description": "Unprotecting Lotus 1-2-3"
  },
  {
    "filename": "ml28-30.unp",
    "size": 3328,
    "description": "Unprotect: Multilink version 2.08"
  },
  {
    "filename": "mlink206.unp",
    "size": 2560,
    "description": "Unprotect: Multilink Version 2.06"
  },
  {
    "filename": "mlink207.unp",
    "size": 2048,
    "description": "Unprotect: Multilink version 2.07"
  },
  {
    "filename": "mp.unp",
    "size": 1792,
    "description": "Unprotect: Mind Prober, by Warren Auyong"
  },
  {
    "filename": "ms2.unp",
    "size": 1536,
    "description": "Unprotect: Memory Shift Master"
  },
  {
    "filename": "msword.unp",
    "size": 2176,
    "description": "Unprotect: MS Word"
  },
  {
    "filename": "mymall.unp",
    "size": 4096,
    "description": "Unprotect: Money Manager"
  },
  {
    "filename": "new123.unp",
    "size": 640,
    "description": "UNRPOTECT: Lotus 1-2-3"
  },
  {
    "filename": "new123un.v1a",
    "size": 1024,
    "description": "UNPROTECT: Lotus 1-2-3 Version 1a"
  },
  {
    "filename": "newsroom.unp",
    "size": 1664,
    "description": "Unprotect: Newsroom"
  },
  {
    "filename": "pcdraw.unp",
    "size": 2884,
    "description": "Unprotect: PCDRAW"
  },
  {
    "filename": "pcdraw14.unp",
    "size": 2688,
    "description": "Unprotect: PC-DRAW version 1.4 by Against Software Protection"
  },
  {
    "filename": "pcm.unp",
    "size": 512,
    "description": "Unprotect: IBM Personal Communications Manager v1.0"
  },
  {
    "filename": "pfs-prog.unp",
    "size": 3200,
    "description": "Unprotect: PFS File, PFS Report, PFS Write"
  },
  {
    "filename": "pfsreset.unp",
    "size": 2909,
    "description": "Unprotect: Resetting the Number of Hard Disk Installs Back to 5 for PFS Programs"
  },
  {
    "filename": "police2.txt",
    "size": 4608,
    "description": "UNPROTECT: Police Quest II Descriptions"
  },
  {
    "filename": "pool15.unp",
    "size": 896,
    "description": "Unprotect: POOL 1.5"
  },
  {
    "filename": "printshp.unp",
    "size": 1920,
    "description": "Unprotect: Print Shop"
  },
  {
    "filename": "prokey.unp",
    "size": 1060,
    "description": "Unprotect: ProKey (version 3.0)"
  },
  {
    "filename": "pshop.unp",
    "size": 1792,
    "description": "Unprotect: Print Shop, by Stealth Pirates Corp 1986"
  },
  {
    "filename": "rb4000.unp",
    "size": 3584,
    "description": "Unprotect: R:Base 4000 v1.11 (June 4, 1984)"
  },
  {
    "filename": "samna.unp",
    "size": 2560,
    "description": "Unprotect: Samna Word II"
  },
  {
    "filename": "sargon3.unp",
    "size": 1152,
    "description": "Unprotect: Sargon III"
  },
  {
    "filename": "sierrunp.txt",
    "size": 7898,
    "description": "Unprotect: All Sierra Games Using the Version 3.0 Sierra.COM Game Loader (July 11, 1988)"
  },
  {
    "filename": "silntser.unp",
    "size": 2781,
    "description": "Unprotect: Silent Service by Micro Prose"
  },
  {
    "filename": "sinmas51.unp",
    "size": 1024,
    "description": "Unprotect: SINMAS 5.1"
  },
  {
    "filename": "sk100a.unp",
    "size": 629,
    "description": "Unprotect: Sidekick"
  },
  {
    "filename": "sk111a.unp",
    "size": 2304,
    "description": "Unprotect: Sidekick version 1.11A"
  },
  {
    "filename": "skv15.unp",
    "size": 1792,
    "description": "Unprotect: Sidekick Version 1.5 by Steve Schauer"
  },
  {
    "filename": "spss_fix.unp",
    "size": 1215,
    "description": "Unprotect: SpssFix Files"
  },
  {
    "filename": "symph.txt",
    "size": 1408,
    "description": "Unprotecting Lotus' Symphony"
  },
  {
    "filename": "symphony.unp",
    "size": 2560,
    "description": "Unprotect: Symphony v1.00"
  },
  {
    "filename": "synciv.nfo",
    "size": 3241,
    "description": "UNPROTECT: Cheat for Sid Mierer's: Civilization by Platinum! of the Humble Guys"
  },
  {
    "filename": "tank.unp",
    "size": 4096,
    "description": "Unprotect: ThinkTank Version 1.00"
  },
  {
    "filename": "thinkfix.unp",
    "size": 1430,
    "description": "Unprotect: Thinktank v2.0"
  },
  {
    "filename": "time-mgr.unp",
    "size": 1104,
    "description": "Unprotect: IBM Time Manager"
  },
  {
    "filename": "tknew.unp",
    "size": 5760,
    "description": "Unprotect: TK!Solver"
  },
  {
    "filename": "trivia.unp",
    "size": 1280,
    "description": "Unprotect: Trivia Fever"
  },
  {
    "filename": "ultima.unp",
    "size": 2790,
    "description": "Unprotect: Ultima II"
  },
  {
    "filename": "unp123.txt",
    "size": 640,
    "description": "UNPROTECT: Lotus 1-2-3 from the Big Apple BBS"
  },
  {
    "filename": "updenab.unp",
    "size": 1152,
    "description": "Unprotect: Enable 1.00"
  },
  {
    "filename": "visicalc.unp",
    "size": 2560,
    "description": "Unprotect: Visicalc"
  },
  {
    "filename": "war.unp",
    "size": 2304,
    "description": "Unprotect: Ancient Art of War, by Broderbund"
  },
  {
    "filename": "word.unp",
    "size": 2304,
    "description": "Unprotect: MS Word"
  },
  {
    "filename": "word20.unp",
    "size": 2123,
    "description": "Unprotect: MS Word 2.0"
  },
  {
    "filename": "ws2000.unp",
    "size": 4992,
    "description": "Unprotect: Wordstar 2000 version 1.00 by Gerald Lee"
  },
  {
    "filename": "xenocopy.unp",
    "size": 4864,
    "description": "Unprotect: XenoCopy Plus v.109"
  },
  {
    "filename": "zork12.unp",
    "size": 1536,
    "description": "Unprotect: Zork III, by Infocom"
  },
  {
    "filename": "zork3.unp",
    "size": 1024,
    "description": "Unprotect: Zork III"
  }
]
