[
  {
    "filename": "abbott.txt",
    "size": 78415,
    "description": "Reply to Dr. Lyman Abbott, by Robert G. Ingersoll (1890)"
  },
  {
    "filename": "actors.txt",
    "size": 50127,
    "description": "Robert G. Ingersoll: Address to the Actors' Fund of America (June 5, 1988)"
  },
  {
    "filename": "agnostch.txt",
    "size": 39358,
    "description": "Robert G. Ingersoll: Toast to Manhattan Athletic Club Dinner, December 27, 1890"
  },
  {
    "filename": "agnostic.txt",
    "size": 79368,
    "description": "Robert G. Ingersoll: Why I am an Agnostic 1896"
  },
  {
    "filename": "avarice.txt",
    "size": 28729,
    "description": "Is Avarice Triumphant? by Robert G. Ingersoll"
  },
  {
    "filename": "beecher.txt",
    "size": 28823,
    "description": "Tributes, by Robert G. Ingersoll"
  },
  {
    "filename": "belief.txt",
    "size": 47338,
    "description": "My Belief, by Robert G. Ingersoll"
  },
  {
    "filename": "bible.txt",
    "size": 83228,
    "description": "About the Holy Bible, by Robert G. Ingersoll"
  },
  {
    "filename": "biog-01.txt",
    "size": 37266,
    "description": "Ingersoll: A Biographical Appreciation by Herman E. Kittredge"
  },
  {
    "filename": "biog-02.txt",
    "size": 27015,
    "description": "Ingersoll: A Biographical Appreciation Chapter 2"
  },
  {
    "filename": "biog-03.txt",
    "size": 31087,
    "description": "Ingersoll: A Biographical Appreciation Chapter 3"
  },
  {
    "filename": "biog-04.txt",
    "size": 57583,
    "description": "Ingersoll: A Biographical Appreciation Chapter 4"
  },
  {
    "filename": "biog-05.txt",
    "size": 54931,
    "description": "Ingersoll: A Biographical Appreciation Chapter 5"
  },
  {
    "filename": "biog-06.txt",
    "size": 30042,
    "description": "Ingersoll: A Biographical Appreciation Chapter 6"
  },
  {
    "filename": "biog-07.txt",
    "size": 39240,
    "description": "Ingersoll: A Biographical Appreciation Chapter 7"
  },
  {
    "filename": "biog-08.txt",
    "size": 29972,
    "description": "Ingersoll: A Biographical Appreciation Chapter 8"
  },
  {
    "filename": "biog-09.txt",
    "size": 53071,
    "description": "Ingersoll: A Biographical Appreciation Chapter 9"
  },
  {
    "filename": "biog-11.txt",
    "size": 43406,
    "description": "Ingersoll: A Biographical Appreciation Chapter 11"
  },
  {
    "filename": "biog-12.txt",
    "size": 109343,
    "description": "Ingersoll: A Biographical Appreciation Chapter 12"
  },
  {
    "filename": "biog-13.txt",
    "size": 13913,
    "description": "Ingersoll: A Biographical Appreciation Chapter 13"
  },
  {
    "filename": "biog-14.txt",
    "size": 52919,
    "description": "Ingersoll: A Biographical Appreciation Chapter 14"
  },
  {
    "filename": "biog-15.txt",
    "size": 32735,
    "description": "Ingersoll: A Biographical Appreciation Chapter 15"
  },
  {
    "filename": "biog-16.txt",
    "size": 25881,
    "description": "Ingersoll: A Biographical Appreciation Chapter 16"
  },
  {
    "filename": "biog-17.txt",
    "size": 68655,
    "description": "Ingersoll: A Biographical Appreciation Chapter 17"
  },
  {
    "filename": "biog-18.txt",
    "size": 48408,
    "description": "Ingersoll: A Biographical Appreciation Chapter 18"
  },
  {
    "filename": "biog-19.txt",
    "size": 94499,
    "description": "Ingersoll: A Biographical Appreciation Chapter 19"
  },
  {
    "filename": "blasphem.txt",
    "size": 126917,
    "description": "The Trial of C.B. Reynolds for Blasphemy, by Robert G. Ingersoll"
  },
  {
    "filename": "brook.txt",
    "size": 81076,
    "description": "Brooklyn Speech, by Robert J. Ingersoll (1880)"
  },
  {
    "filename": "brooklyn.txt",
    "size": 65423,
    "description": "The brooklyn Divines by Robert G. Ingersoll (1883)"
  },
  {
    "filename": "burns.txt",
    "size": 59236,
    "description": "Robert Burns: A Rememberance, by Robert G. Ingersoll (1878)"
  },
  {
    "filename": "carpent.txt",
    "size": 49953,
    "description": "The Frank B. Carpenter Dinner by Robert G. Ingersoll (1891)"
  },
  {
    "filename": "catechis.txt",
    "size": 100239,
    "description": "The Talmagian Catechism by Robert G. Ingersoll"
  },
  {
    "filename": "cathol.txt",
    "size": 17124,
    "description": "A Replay to the Cincinnati Gazette and Catholic Telegraph by Robert G. Ingersoll"
  },
  {
    "filename": "centen.txt",
    "size": 53725,
    "description": "Centennial Oration, by Robert G. Ingersoll"
  },
  {
    "filename": "chicago.txt",
    "size": 57591,
    "description": "Ingersoll: Chicago Speech, Children of the Stage, What I want for Christmas"
  },
  {
    "filename": "chicbib.txt",
    "size": 15806,
    "description": "Ingersoll: My Chicago Bible Class"
  },
  {
    "filename": "chr-1.txt",
    "size": 53195,
    "description": "INGERSOLL: The Christian Religion"
  },
  {
    "filename": "chr-2.txt",
    "size": 66567,
    "description": "INGERSOLL: The Christian Religion Part II"
  },
  {
    "filename": "chr-3.txt",
    "size": 123214,
    "description": "INGERSOLL: The Christian Religion Part III"
  },
  {
    "filename": "christma.txt",
    "size": 123798,
    "description": "INGERSOLL: A Christmas Sermoun"
  },
  {
    "filename": "civilrig.txt",
    "size": 112091,
    "description": "INGERSOLL: Civil Rights"
  },
  {
    "filename": "comegys.txt",
    "size": 34824,
    "description": "INGERSOLL: An Interview on Chief Justice Comegys"
  },
  {
    "filename": "creeds.txt",
    "size": 51061,
    "description": "INGERSOLL: Crumbling Creeds"
  },
  {
    "filename": "daviswil.txt",
    "size": 110535,
    "description": "Address to the Jury in the Davis Will Xase, by Robert G. Ingersoll (1891)"
  },
  {
    "filename": "decday.txt",
    "size": 42705,
    "description": "Decoration Day Oration by Robert G. Ingersoll (1882)"
  },
  {
    "filename": "devil.txt",
    "size": 73557,
    "description": "If the Devil Should Die Would God Make Another? By Robert G. Ingersoll (1899)"
  },
  {
    "filename": "diderot.txt",
    "size": 24754,
    "description": "Doubt is the First Step Toward Truth, by Robert G. Ingersoll"
  },
  {
    "filename": "divided.txt",
    "size": 96131,
    "description": "The Divided Household of Faith: A Few Reasons for Doubting the Inspiration of the Bible, by Robert G. Ingersoll"
  },
  {
    "filename": "divorce.txt",
    "size": 111880,
    "description": "Is Divorce Wrong? By Robert G. Ingersoll"
  },
  {
    "filename": "ebon.txt",
    "size": 36612,
    "description": "Robert G. Ingersoll: A Tribute to Ebon C. Ingersoll, May 31, 1879"
  },
  {
    "filename": "eighthrs.txt",
    "size": 32686,
    "description": "Robert G. Ingersoll: A Criticism of Robert Elsmere: John Ward, Preacher and an African Farm"
  },
  {
    "filename": "ernestr.txt",
    "size": 52161,
    "description": "Robert G. Ingersoll: Ernest Renan, 1892"
  },
  {
    "filename": "faith.txt",
    "size": 61561,
    "description": "INGERSOLL: The Foundations of Faith (1895)"
  },
  {
    "filename": "farming.txt",
    "size": 49022,
    "description": "INGERSOLL: About Farming in Illinois (1877)"
  },
  {
    "filename": "fie-ing1.txt",
    "size": 47217,
    "description": "INGERSOLL: An Open Letter to Robert G. Ingersoll by Dr. Henry M. Field"
  },
  {
    "filename": "fie-ing2.txt",
    "size": 84676,
    "description": "INGERSOLL: A Reply to the Rev. Henry M. Fiend, D.D."
  },
  {
    "filename": "fie-ing3.txt",
    "size": 35109,
    "description": "INGERSOLL: A Last Word to Robert G. Ingersoll by Dr. Henry M. Field"
  },
  {
    "filename": "fie-ing4.txt",
    "size": 43562,
    "description": "INGERSOLL: Letter to Dr. Field"
  },
  {
    "filename": "fifth.txt",
    "size": 143546,
    "description": "INGERSOLL: Fifth Interview (1882)"
  },
  {
    "filename": "first.txt",
    "size": 44620,
    "description": "The Works of Robert G. Ingersoll: Preface (1882)"
  },
  {
    "filename": "forward.txt",
    "size": 3074,
    "description": "An introduction to the writings of Robert Ingersoll"
  },
  {
    "filename": "fourth.txt",
    "size": 57655,
    "description": "Interviews of Reverend Talmage, by Robert G. Ingersoll"
  },
  {
    "filename": "fragment.txt",
    "size": 85500,
    "description": "INGERSOLL: A Lietter written to Col. Thomas Donaldson, of Philadelphia declining an invitation to be a guest of the Clover Club of that city"
  },
  {
    "filename": "freethou.txt",
    "size": 69848,
    "description": "INGERSOLL: Has Freethought a Constructive Side?"
  },
  {
    "filename": "gardenar.d",
    "size": 368703,
    "description": "Men Women and Gods, by Helen H. Gardener, introduction by Robert Ingersol"
  },
  {
    "filename": "ghosts.txt",
    "size": 78290,
    "description": "The Ghosts, by Robert G. Ingersoll (1877)"
  },
  {
    "filename": "gl-ing1.txt",
    "size": 72670,
    "description": "Regarting Colonel Ingersoll on Christiana (by William E. Gladstone)"
  },
  {
    "filename": "gl-ing2.txt",
    "size": 103107,
    "description": "Robert G Ingersoll talks to Mr. Gladstone"
  },
  {
    "filename": "goldspe.txt",
    "size": 63779,
    "description": "The Chicago and New York Gold Speech, by Robert G. Ingersoll"
  },
  {
    "filename": "her&her.txt",
    "size": 55561,
    "description": "INGERSOLL: Heretics and Heresies (1874)"
  },
  {
    "filename": "holyoake.txt",
    "size": 57007,
    "description": "INGERSOLL: Geroge Jacob Holyoake"
  },
  {
    "filename": "humboldt.txt",
    "size": 30710,
    "description": "INGERSOLL: Humboldt"
  },
  {
    "filename": "indianap.txt",
    "size": 56727,
    "description": "INGERSOLL: Reply to the Indianapolis Clergy (1882)"
  },
  {
    "filename": "individ.txt",
    "size": 47652,
    "description": "INGERSOLL: Individualty 1873"
  },
  {
    "filename": "indyspea.txt",
    "size": 92566,
    "description": "INGERSOLL: Indianapolis Speech (1876)"
  },
  {
    "filename": "infidels.txt",
    "size": 112960,
    "description": "INGERSOLL: The Great Infidels (1881)"
  },
  {
    "filename": "infidon.txt",
    "size": 59429,
    "description": "INGERSOLL: What Infidels Have Done"
  },
  {
    "filename": "interv-1.txt",
    "size": 118481,
    "description": "INGERSOLL: Bible and a Future Life (Plus Others)"
  },
  {
    "filename": "interv-2.txt",
    "size": 114812,
    "description": "INGERSOLL: The Political Outlook"
  },
  {
    "filename": "interv-3.txt",
    "size": 112874,
    "description": "INGERSOLL: Justice Harlan and the Civil Rights Bill"
  },
  {
    "filename": "interv-4.txt",
    "size": 69343,
    "description": "INGERSOLL: Funeral of John G. Mills and Immortality"
  },
  {
    "filename": "interv-5.txt",
    "size": 51748,
    "description": "INGERSOLL: Reply to the Kansis City Clergy"
  },
  {
    "filename": "intimate.txt",
    "size": 246786,
    "description": "INGERSOLL: An Intimate View of Robert G. Ingersoll by I. Newton Baker"
  },
  {
    "filename": "layser.txt",
    "size": 34402,
    "description": "A Lay Sermon, by Robert G. Ingersoll (1886)"
  },
  {
    "filename": "liberall.txt",
    "size": 63951,
    "description": "Convention of the National Liberal league, by Robert G. Ingersoll"
  },
  {
    "filename": "man-wo&c.txt",
    "size": 87940,
    "description": "The Liberty of Man, Woman and Child, 1977 by Robert G. Ingersoll"
  },
  {
    "filename": "miracle.txt",
    "size": 72659,
    "description": "Myth and Miracle by Robert G. Ingersoll"
  },
  {
    "filename": "modthink.txt",
    "size": 46284,
    "description": "Preface to Professor Van Buren Denslow's Modern Thinkers, by Robert G. Ingersoll"
  },
  {
    "filename": "moses.txt",
    "size": 314990,
    "description": "Moses by Robert G. Ingersoll"
  },
  {
    "filename": "nefropeo.txt",
    "size": 30512,
    "description": "Robert G. Ingersoll: An Address to the Colored People"
  },
  {
    "filename": "newyork.txt",
    "size": 68948,
    "description": "INGERSOLL: New York Speech"
  },
  {
    "filename": "obscenel.txt",
    "size": 55042,
    "description": "The Circulation of Obscene Literature, by Robert G. Ingersoll"
  },
  {
    "filename": "orthod.txt",
    "size": 117414,
    "description": "Orthodoxy by Robert G. Ingersoll, 1884"
  },
  {
    "filename": "paine.txt",
    "size": 55150,
    "description": "Thomas Paine: With his Name Left Out, the History of Liberty Cannot Be Written, by Robert G. Ingersoll"
  },
  {
    "filename": "predest.txt",
    "size": 15496,
    "description": "A Letter ot Andrew Dean by Thomas Paine"
  },
  {
    "filename": "presid1.d",
    "size": 144240,
    "description": "The Religious Beliefs of Our Presidents by Franklin Steiner"
  },
  {
    "filename": "press.txt",
    "size": 23512,
    "description": "Address to the Press Club, 1898, by Robert G. Ingersoll"
  },
  {
    "filename": "progress.txt",
    "size": 70147,
    "description": "INGERSOLL: Progress (1860-1864)"
  },
  {
    "filename": "punish.txt",
    "size": 22223,
    "description": "Is Corporal Punishment Degrading? by Robert G. Ingersoll (1891)"
  },
  {
    "filename": "rat1.d",
    "size": 91562,
    "description": "Studies in Rationalism: The Ordeal of Ingersoll"
  },
  {
    "filename": "ratific.txt",
    "size": 87451,
    "description": "Ratification Speech by Robert G. Ingersoll (1888)"
  },
  {
    "filename": "reason.txt",
    "size": 305348,
    "description": "Reason is the Only Oracle of Man, from Ingersoll"
  },
  {
    "filename": "reform.txt",
    "size": 50830,
    "description": "How to Reform Mankind, by Robert G. Ingersoll (1896)"
  },
  {
    "filename": "reformer.d",
    "size": 74960,
    "description": "Was Christ a Political and Social Reformer? by Charles Watts"
  },
  {
    "filename": "renan.txt",
    "size": 617469,
    "description": "The Life of Jesus by Ernest Renan"
  },
  {
    "filename": "reply.txt",
    "size": 92245,
    "description": "A Reply to Rev'd Drs. Thomas and Lorimer, by Robert G. Ingersoll"
  },
  {
    "filename": "reunion.txt",
    "size": 66531,
    "description": "1895 Reunion Address, by Robert G. Ingersoll"
  },
  {
    "filename": "review.txt",
    "size": 128091,
    "description": "My Reviewers Reviewed, by Robert G. Ingersoll (1877)"
  },
  {
    "filename": "rome-1.txt",
    "size": 74912,
    "description": "The Church its Own Witness, by Robert G. Ingersoll"
  },
  {
    "filename": "rome-2.txt",
    "size": 108250,
    "description": "A Reply to Cardinal Manning, by Robert G. Ingersoll"
  },
  {
    "filename": "saved.txt",
    "size": 94304,
    "description": "The Works of Robert G. Ingersol: Preface (1880)"
  },
  {
    "filename": "sixth.txt",
    "size": 86649,
    "description": "Sixth Interview with Robert G. Ingersoll (1882)"
  },
  {
    "filename": "sors.d",
    "size": 57903,
    "description": "Charles Watts: Saints or Sinners: Which?"
  },
  {
    "filename": "spatind.txt",
    "size": 61215,
    "description": "INGERSOLL: Speech at Indianapolis (1868)"
  },
  {
    "filename": "suffrage.txt",
    "size": 47217,
    "description": "Suffrage Address by Robert G. Ingersoll (1880)"
  },
  {
    "filename": "superst.txt",
    "size": 71506,
    "description": "What is Superstition? By Robert G. Ingersoll (1898)"
  },
  {
    "filename": "syllabus.dos",
    "size": 110629,
    "description": "Rome's Sullabus of Condemned Opinions: The Last Blast of the Catholic Church's Medieval Trumpet by Joseph McCabe"
  },
  {
    "filename": "tompaine.txt",
    "size": 54426,
    "description": "Thomas Paine, by Robert G. Ingersoll (1892)"
  },
  {
    "filename": "truth.txt",
    "size": 53044,
    "description": "The Truth, by Robert G. Ingersoll"
  },
  {
    "filename": "vinpaine.txt",
    "size": 105306,
    "description": "Robert G. Ingersoll: Vindication of Thomas Paine, 1877"
  },
  {
    "filename": "wallst.txt",
    "size": 53506,
    "description": "The Works of Robert G. Ingersoll: The Improved Man, Wall Street Speech, Men Women and Gods"
  },
  {
    "filename": "what-is.txt",
    "size": 32443,
    "description": "What is Religion by Robert G. Ingersoll"
  },
  {
    "filename": "which.txt",
    "size": 58560,
    "description": "Which Way? By Robert G. Ingersoll"
  },
  {
    "filename": "why.txt",
    "size": 66992,
    "description": "Some Reasons Why, by Robert G. Ingersoll"
  },
  {
    "filename": "whyamagn.txt",
    "size": 47412,
    "description": "Why am I an Agnostic? By Robert G. Ingersoll"
  },
  {
    "filename": "woodgod.txt",
    "size": 21028,
    "description": "A Wooden God, by Robert G. Ingersoll"
  }
]
