[
  {
    "filename": "CHEMICALS",
    "size": null,
    "description": "The MSDS Chemical Information File Collection"
  },
  {
    "filename": "ast-dece.txt",
    "size": 6080,
    "description": "Short Biographical Sketches of Deceased Astronauts (February 1992)"
  },
  {
    "filename": "ast-dorn.txt",
    "size": 2699,
    "description": "Astronaut Birthplaces by State (February 1992)"
  },
  {
    "filename": "ast-list.txt",
    "size": 17083,
    "description": "Alphabetical List of Astronauts (February 1992)"
  },
  {
    "filename": "ast-prog.txt",
    "size": 1705,
    "description": "Background on the Astronaut Program (Astronaut Fact Book, February 1992)"
  },
  {
    "filename": "ast500hr.txt",
    "size": 814,
    "description": "Astronauts with more than 500 Hours in Space"
  },
  {
    "filename": "astronau.txt",
    "size": 8854,
    "description": "Requirements for Becoming an Astronaut"
  },
  {
    "filename": "athletic.txt",
    "size": 4566,
    "description": "What should be our motivation behind athletic activity? by Inge Oestmoen, Norway"
  },
  {
    "filename": "batteryn.ews",
    "size": 49140,
    "description": "NICAD Batteries: Facts and Fallacies (Radio Communications, 1988)"
  },
  {
    "filename": "blackhol.nas",
    "size": 17207,
    "description": "Black Holes in Space: A Scientific Overview"
  },
  {
    "filename": "blackhol.txt",
    "size": 15872,
    "description": "Black Holes in Space: An Overview"
  },
  {
    "filename": "blkholes.fun",
    "size": 6440,
    "description": "The lowdown on Black Holes"
  },
  {
    "filename": "breast.txt",
    "size": 26999,
    "description": "Questions and Answers About Breast Lumps"
  },
  {
    "filename": "chemburn.ana",
    "size": 3641,
    "description": "Signs you might be experiencing chemical burns"
  },
  {
    "filename": "choosing.cat",
    "size": 60032,
    "description": "Choosing a Cat by R. Roger Breton and Nacy J. Creek"
  },
  {
    "filename": "circadia.txt",
    "size": 8203,
    "description": "A Test to Determine your Circadian Rhythm"
  },
  {
    "filename": "coldfuse.pat",
    "size": 64317,
    "description": "The Cold Nuclear Fusion Bibliography (March 1, 1992)"
  },
  {
    "filename": "coldfusn.txt",
    "size": 10221,
    "description": "The Consequences of Clean Cold Fusion (1989) by Martin L. Buchanan"
  },
  {
    "filename": "crystal1.asc",
    "size": 4951,
    "description": "Scanning Masers for Information Retrieval"
  },
  {
    "filename": "dark.txt",
    "size": 3867,
    "description": "Dark: Rewritten by the Quantum Mechanic"
  },
  {
    "filename": "disable.rd",
    "size": 96017,
    "description": "Neuropsychological Bases of Educational Disabilities, by Robert Zenhausern, Ph.D"
  },
  {
    "filename": "discover.txt",
    "size": 4208,
    "description": "The Circumstances of Minor Planet Discovery, by Frederick Pilcher"
  },
  {
    "filename": "electric.bas",
    "size": 3026,
    "description": "A Quick Primer for Homeowners on Electricity"
  },
  {
    "filename": "energy.fr",
    "size": 108192,
    "description": "A Review of Zero Point Energy and Free Energy Theory, Progress, and Devices (September 19, 1992)"
  },
  {
    "filename": "essiac.txt",
    "size": 56744,
    "description": "Rene Caisse and the Calling of an Angel (Anti-Cancer Formula) (April 10, 1993)"
  },
  {
    "filename": "evolve.cat",
    "size": 35328,
    "description": "The Making of the Cat, by R. Roger Breton and Nancy J. Creek"
  },
  {
    "filename": "evolve.cht",
    "size": 16768,
    "description": "The Evolution Chart, Heavily Aimed to Cats"
  },
  {
    "filename": "f-p",
    "size": 22820,
    "description": "Electrochemically Induced Nuclear Fusion of Deuterium by Martin Fleischmann (March 20, 1989)"
  },
  {
    "filename": "fchap2.txt",
    "size": 3834,
    "description": "The Leidenfrost Effect"
  },
  {
    "filename": "fda.asc",
    "size": 9056,
    "description": "Will Food Become Illegal Under the FDA? By Bob Paddock (September 6, 1991)"
  },
  {
    "filename": "fea.txt",
    "size": 22055,
    "description": "The Infinite Element Method: A Four Article Series by Steve Roensch"
  },
  {
    "filename": "fermats_.the",
    "size": 11729,
    "description": "What is the Current Status of Fermat's Last Theorem?"
  },
  {
    "filename": "fission.txt",
    "size": 20003,
    "description": "A Simple Explanation of Nuclear Fission (1994)"
  },
  {
    "filename": "fli-laun.txt",
    "size": 44515,
    "description": "A Very Large Collection of Pre-Flight Launch Preparation for the Space Shuttle"
  },
  {
    "filename": "fluxgate.txt",
    "size": 4245,
    "description": "Answers to how Fluxgate Compasses Work (September 4, 1992)"
  },
  {
    "filename": "foodstuf",
    "size": 8970,
    "description": "Food Additives: Know What's In Your Food and Why It's There"
  },
  {
    "filename": "formulas",
    "size": 19818,
    "description": "Astronomical Formulae (Various)"
  },
  {
    "filename": "fossil.txt",
    "size": 26885,
    "description": "FAQ: Transitional Fossils FAQ, by Brett J. Vickers (January 25, 1993)"
  },
  {
    "filename": "fracmath.txt",
    "size": 4574,
    "description": "Mathematics of the Fractal Types"
  },
  {
    "filename": "france.txt",
    "size": 49517,
    "description": "France: A Leader in Space (July, 1990)"
  },
  {
    "filename": "fs397.txt",
    "size": 5120,
    "description": "FS397: Rutgers Cooperative Extension: Slugs and Snails in the Vegetable Garden by Gerald M. Ghidiu, Specialist in Vegetable Entomology"
  },
  {
    "filename": "fs417.txt",
    "size": 2048,
    "description": "FS417: Rutgers Cooperative Extension: Recycling Used Motor Oil in New Jersey by Theodore B. Shelton, PhD. and Michael T. Olohan"
  },
  {
    "filename": "fusion",
    "size": 26752,
    "description": "Observation of Cold Nuclear Fusion in Condensed Matter"
  },
  {
    "filename": "fusion.nuc",
    "size": 26752,
    "description": "Observation of Cold Nuclear Fusion in Condensed Matter (March 23, 1989)"
  },
  {
    "filename": "fusion.txt",
    "size": 5064,
    "description": "Background for the Nuclear Fusion Seminar (March 31, 1989)"
  },
  {
    "filename": "g-solars.txt",
    "size": 5436,
    "description": "One Solar System? What Good is That? GURPS Commentary by John M. Ford"
  },
  {
    "filename": "gems.01",
    "size": 13985,
    "description": "The Lore of Gloranthan Gems and Near-Gems by Martin R. Crim (1992)"
  },
  {
    "filename": "gems.2",
    "size": 40125,
    "description": "The Lore of Gloranthan Gems and Near-Gems by Martin R. Crim (1992) Part II"
  },
  {
    "filename": "gems.3",
    "size": 7145,
    "description": "The Lore of Gloranthan Gems and Near-Gems by Martin R. Crim (1992) Part III"
  },
  {
    "filename": "gems.4",
    "size": 8841,
    "description": "The Lore of Gloranthan Gems and Near-Gems by Martin R. Crim (1992) #4"
  },
  {
    "filename": "genelife.txt",
    "size": 6144,
    "description": "Patenting New Forms of Animal Life: Is Nature Just a Form of Private Property? By Jeremy Rifkin"
  },
  {
    "filename": "genetic.txt",
    "size": 1920,
    "description": "Genetically Engineered Organism Release Illegally in Argentina"
  },
  {
    "filename": "genetics.cat",
    "size": 94208,
    "description": "Feline Genetics, by R. Roger Breton and Nancy J. Creek"
  },
  {
    "filename": "goddard",
    "size": 911,
    "description": "Rockets are Doomed, says New York Times, 1920"
  },
  {
    "filename": "gun.txt",
    "size": 14731,
    "description": "Creating a U-238 Neutron Gun (Fusion Weapon) (1994)"
  },
  {
    "filename": "hazchem.txt",
    "size": 9216,
    "description": "Hazardous Chemicals In Your Home: Proper use and Disposal, by Theodore B. Shelton, P.H.D. and Michael T. Olohan"
  },
  {
    "filename": "health.myt",
    "size": 6719,
    "description": "Go Ahead and Cross Your Eyes: The Health Myth (June 16, 1994)"
  },
  {
    "filename": "hi-e-wt.txt",
    "size": 6537,
    "description": "A Glossary of High Energy Weapons Terms (1994)"
  },
  {
    "filename": "hot_wate.fas",
    "size": 4437,
    "description": "Hot Water Freezes Faster than Cold! by Richard M. Mathews"
  },
  {
    "filename": "how2dotv.txt",
    "size": 4696,
    "description": "A One Minute Course on How to Do TV, by Richard Freeman"
  },
  {
    "filename": "htt.txt",
    "size": 6402,
    "description": "Tension Testing of Four Different Twines by Derek Voll (April 30, 1992)"
  },
  {
    "filename": "humble.how",
    "size": 2703,
    "description": "The Humble Telescope, by David Daye of Columbus, OH"
  },
  {
    "filename": "implosion.txt",
    "size": 13309,
    "description": "Information on an Implosion Weapon (1994)"
  },
  {
    "filename": "indylook.txt",
    "size": 6242,
    "description": "High Tech: The Industrial Style and Source Book for the Home"
  },
  {
    "filename": "infinity.jok",
    "size": 3698,
    "description": "The Properties of Infinity by Mark William Hopkins"
  },
  {
    "filename": "insulate.txt",
    "size": 18825,
    "description": "Solar Radiation Data for Various American Cities"
  },
  {
    "filename": "intro.txt",
    "size": 4522,
    "description": "Introduction and Charter of the High Energy Weapons Archive (September 19, 1995)"
  },
  {
    "filename": "invent.rpt",
    "size": 13423,
    "description": "Inventions of the Early Nineteenth Century, by Big Brother of The Works"
  },
  {
    "filename": "j-p",
    "size": 26244,
    "description": "Observation of Cold Nuclear Fusion in Condensed Matter (March 23, 1989)"
  },
  {
    "filename": "jcs-report-1947.txt",
    "size": 530,
    "description": "Introduction and Charter of the High Energy Weapons Archive"
  },
  {
    "filename": "ka.txt",
    "size": 3430,
    "description": "An Explanation of Why the KA Band Photo Radar Units are So Hard to Pick Up, and Avoidance Techniques"
  },
  {
    "filename": "kennedy.txt",
    "size": 10301,
    "description": "Information on the John F. Kennedy Space Center"
  },
  {
    "filename": "land-tur.txt",
    "size": 17219,
    "description": "Shuttle Landing Operations (January 2, 1989)"
  },
  {
    "filename": "larson.ph",
    "size": 28064,
    "description": "Information on the Larsonian \"Reciprocal System\" (December 3, 1992)"
  },
  {
    "filename": "launch.92",
    "size": 16121,
    "description": "Launch Summary for NASA in 1992 (January 13, 1993)"
  },
  {
    "filename": "launch.txt",
    "size": 15145,
    "description": "An Overview of NASA Launch Vehicles"
  },
  {
    "filename": "magellan.txt",
    "size": 8840,
    "description": "Fact Sheet for the Magellan Spacecraft"
  },
  {
    "filename": "mars1.txt",
    "size": 2306,
    "description": "A Mars Bibliography"
  },
  {
    "filename": "math.txt",
    "size": 25598,
    "description": "Information for Building Capacitors"
  },
  {
    "filename": "measure.sug",
    "size": 1864,
    "description": "A List of Conversions of Measurements"
  },
  {
    "filename": "medicine",
    "size": 17714,
    "description": "Medicine and the Human Machine (Examples of Bad/Outdated Medical Things)"
  },
  {
    "filename": "memetics",
    "size": 46888,
    "description": "Memetics: The Nascent Science of Ideas and Their Transmission by J. Peter Vajk 1989"
  },
  {
    "filename": "merkle1.txt",
    "size": 6870,
    "description": "How Many Bytes in Human Memory? by Ralph C. Merkle (1988)"
  },
  {
    "filename": "merkle2.txt",
    "size": 10630,
    "description": "The Brain is a Computer (Energy Limits) by Ralph Merkle"
  },
  {
    "filename": "metal.txt",
    "size": 12348,
    "description": "Information on Palladium: One of the Metals Used in Cold Fusion, by Eric N. Simons"
  },
  {
    "filename": "mind1.asc",
    "size": 22166,
    "description": "Radio Waves and Life by Tom Jaski, Electronics, September 1960"
  },
  {
    "filename": "mind5.asc",
    "size": 5288,
    "description": "Geophysical Variables and Behaviour: XXXIX Alterations in Imaginings and Suggestibility During Brief Magnetic Field Exposures by Christine F. DeSano and M. A. Persinger"
  },
  {
    "filename": "mind6.asc",
    "size": 3278,
    "description": "Computerized EEG Analysis of Subjects Undergoing Synchro-Energization for Relaxation"
  },
  {
    "filename": "monitors.txt",
    "size": 36224,
    "description": "The Magnetic Field Menace"
  },
  {
    "filename": "moon.txt",
    "size": 37862,
    "description": "What's New on the Moon by Dr. Bevan M. French"
  },
  {
    "filename": "nasa.93",
    "size": 107122,
    "description": "NASA Media Guide and Public Affairs Contacts (April, 1993)"
  },
  {
    "filename": "nasa1.txt",
    "size": 5760,
    "description": "The NASA Spacelink Background"
  },
  {
    "filename": "nasahack.txt",
    "size": 5373,
    "description": "NASA Spacelink Background"
  },
  {
    "filename": "nuke_res.txt",
    "size": 6340,
    "description": "Nuclear Information and Resource Service List of Publications"
  },
  {
    "filename": "nukecat.txt",
    "size": 153685,
    "description": "Oklahoma Geological Survey Observatory: Catalog of Known and Putative Nuclear Explosions from Unclassified Sources (April 1994)"
  },
  {
    "filename": "obsearth.txt",
    "size": 8483,
    "description": "Space Shuttle Earth Observations Photography"
  },
  {
    "filename": "ofil_001.txt",
    "size": 36469,
    "description": "The Development of Post-Relativistic Concepts in Physics and Advanced Technology Abroad by Rolf Schaffranke"
  },
  {
    "filename": "ofil_004.txt",
    "size": 11469,
    "description": "UFO Information Service of Seattle Washington: Acute Exposure and Levels of Radiation Sicknesses"
  },
  {
    "filename": "orbiter.txt",
    "size": 22417,
    "description": "NASA Educational Briefs: Space Shuttle Statistics"
  },
  {
    "filename": "orbname.txt",
    "size": 8810,
    "description": "The Origin of the name \"Space Shuttle\""
  },
  {
    "filename": "paper.byu",
    "size": 26752,
    "description": "Observation of Cold Nuclear Fusion in Condensed Matter (March 23, 1989)"
  },
  {
    "filename": "parts.lst",
    "size": 1360,
    "description": "A Tesla Coil Parts List"
  },
  {
    "filename": "payload.txt",
    "size": 194560,
    "description": "NASA Mixed Fleet Manifest (August, 1991)"
  },
  {
    "filename": "perspect.txt",
    "size": 9296,
    "description": "The Mathematics Behind Perspective, by Max Pandaemonium"
  },
  {
    "filename": "pi.ind",
    "size": 22671,
    "description": "The Occasion of the Indiana Legislature Trying to Change PI (March 27, 1991)"
  },
  {
    "filename": "pi.txt",
    "size": 6623,
    "description": "Four Thousand Decimals of Pi"
  },
  {
    "filename": "pickup_t",
    "size": 12127,
    "description": "The Pickup Coil from Tesla"
  },
  {
    "filename": "pictures.txt",
    "size": 25052,
    "description": "How We Get Pictures From Space"
  },
  {
    "filename": "pihist.txt",
    "size": 3153,
    "description": "The History of the Discovery of Pi (July 25, 1989)"
  },
  {
    "filename": "plantpai.txt",
    "size": 35772,
    "description": "The Diversionary Tactic of Plant Pain by Ted Altar"
  },
  {
    "filename": "polymers",
    "size": 8585,
    "description": "Information on Magnet Wire Coatings"
  },
  {
    "filename": "putnam.92",
    "size": 21904,
    "description": "1992 Putnam Problems and Unofficial Solutions by Dan Bernstein (December 7, 1992)"
  },
  {
    "filename": "puzzle.jok",
    "size": 1049,
    "description": "A Very Tough Mathematical Puzzle from Richard Pavelle"
  },
  {
    "filename": "quantum.ani",
    "size": 19779,
    "description": "Evidence Supporting Quantum Information Processing in Animals, by James A. Donald"
  },
  {
    "filename": "referenc",
    "size": 12542,
    "description": "Collection of Sources of Tesla Coil Information (January 10, 1995)"
  },
  {
    "filename": "rel_ftl.faq",
    "size": 67711,
    "description": "Relativity and FTL Travel, by Jason W. Hinson (February 2, 1995)"
  },
  {
    "filename": "relative.ftl",
    "size": 46456,
    "description": "Relativity and FTL Travel, by Jason W. Hinton (December 18, 1992)"
  },
  {
    "filename": "rife3.asc",
    "size": 25146,
    "description": "Confidential Rife Report, by Lyks Sieger, M.D."
  },
  {
    "filename": "rivest.fac",
    "size": 8434,
    "description": "The F9 Factoring Result (June 27, 1990)"
  },
  {
    "filename": "rotjit_t",
    "size": 15910,
    "description": "Time Jitter in Rotary-Gap Tesla Coils by Robert M. Jamison (1991)"
  },
  {
    "filename": "rqexps_t",
    "size": 13017,
    "description": "Experiments with an Electrical Counterpoise and The Function of RF Grounding In Helical Resonators"
  },
  {
    "filename": "rqmsgs_t",
    "size": 614325,
    "description": "Information on a 10 Kilowatt Tesla Coil, by Richard Quick (October 15, 1993)"
  },
  {
    "filename": "satsit09.txt",
    "size": 571265,
    "description": "The Satellite Situation Report Volume 33, Number 3: Data of Space Objects in Orbit (September 30, 1993)"
  },
  {
    "filename": "sci-skep",
    "size": 128467,
    "description": "The Frequently Questioned Answers (sci.skeptic FAQ) 93/07/23"
  },
  {
    "filename": "shuttle.fey",
    "size": 34017,
    "description": "Richard Feynman's Report on the Shuttle (March 16, 1988)"
  },
  {
    "filename": "shuttle.fre",
    "size": 5388,
    "description": "Shuttle Mission Frequencies by TOPOL"
  },
  {
    "filename": "shuttle.fun",
    "size": 10419,
    "description": "Space Shuttle Information, up to 1985."
  },
  {
    "filename": "silver.txt",
    "size": 5751,
    "description": "Silvering Telescope Mirrors, by Don Barry"
  },
  {
    "filename": "slinky.txt",
    "size": 14447,
    "description": "The Single Helix"
  },
  {
    "filename": "soviet.pre",
    "size": 4480,
    "description": "The Soviet Space Progem: The Next Five Years"
  },
  {
    "filename": "sovsdi.txt",
    "size": 12672,
    "description": "Review of Soviet work in quantum nonlocality and SDI super weapons"
  },
  {
    "filename": "space.92",
    "size": 68912,
    "description": "1992 Seen as NASA's Most Productive Year for Science Discoveries (December 23, 1992)"
  },
  {
    "filename": "ssemp.txt",
    "size": 8448,
    "description": "Self-Sustained Electromagnetic Propulsion"
  },
  {
    "filename": "stndrds",
    "size": 15124,
    "description": "Condensed Guide to SI units and Standards by Drew Danies"
  },
  {
    "filename": "taxonomy.dat",
    "size": 34381,
    "description": "Classifications of some Asteroids"
  },
  {
    "filename": "taxonomy.txt",
    "size": 3335,
    "description": "Taxonomic Classifications of Asteroids, by David J. Tholen"
  },
  {
    "filename": "teller-ulam.txt",
    "size": 18476,
    "description": "Teller-Ulam Construction (November 24, 1995)"
  },
  {
    "filename": "tesla1.asc",
    "size": 7713,
    "description": "How to Build a Tesla Coil by Steve Gantt"
  },
  {
    "filename": "theory1.txt",
    "size": 28804,
    "description": "Wireless Transmission of Power: Resonating Planet Earth, by Toby Grotz"
  },
  {
    "filename": "theory2.txt",
    "size": 3516,
    "description": "Tesla Coil Theory"
  },
  {
    "filename": "trigfunc.txt",
    "size": 6093,
    "description": "Trigonometric Functions and Equivalents"
  },
  {
    "filename": "unifid_f.iel",
    "size": 1200,
    "description": "The Unified Field Theory (A Poem)"
  },
  {
    "filename": "venus.sur",
    "size": 37075,
    "description": "Charles Ginethal on The Surface of Venus (January 12, 1993)"
  },
  {
    "filename": "vgrjup.fs",
    "size": 12009,
    "description": "Voyager Juputer Science Summary"
  },
  {
    "filename": "vgrnep.fs",
    "size": 24674,
    "description": "Voyager Neptune Science Summary (1989)"
  },
  {
    "filename": "vgrsat.fs",
    "size": 21776,
    "description": "Voyager Saturn Science Summary"
  },
  {
    "filename": "vgrur.fs",
    "size": 14671,
    "description": "Voyager Uranus Science Summary"
  },
  {
    "filename": "wcs.txt",
    "size": 6603,
    "description": "Information on the Space Shuttle Waste Collection System"
  },
  {
    "filename": "x15info.txt",
    "size": 4016,
    "description": "X-15, the World's First Hypersonic Research Aircraft"
  }
]
