[
  {
    "filename": "EROTICA",
    "size": null,
    "description": "Erotic Writings, Stories, Narratives, and Just Plain Smut"
  },
  {
    "filename": "052496h1.txt",
    "size": 3999,
    "description": "Who, Really, is At Risk of Acquiring AIDS? By Maggie Gallagher (May 24, 1996)"
  },
  {
    "filename": "500pure.txt",
    "size": 58845,
    "description": "The Unisex, Omnisexual PURITY TEST, Version 4.0, Final Release"
  },
  {
    "filename": "808-cass.txt",
    "size": 7722,
    "description": "Cassandra's Adventure, by 808 State (1991)"
  },
  {
    "filename": "808-laid.txt",
    "size": 5694,
    "description": "How to Get Laid on the First Date by 808 State (1991)"
  },
  {
    "filename": "808-lust.txt",
    "size": 5253,
    "description": "Lust in the Chapel by 808 State (1991)"
  },
  {
    "filename": "808-next.txt",
    "size": 6767,
    "description": "The Next Door Neighbour, by 808 State (1991)"
  },
  {
    "filename": "808-ppro.txt",
    "size": 6668,
    "description": "Partytown Pro, by 808 State (1991)"
  },
  {
    "filename": "808-rebe.txt",
    "size": 4363,
    "description": "Rebellion, by 808 State (1991)"
  },
  {
    "filename": "808-spoi.txt",
    "size": 5976,
    "description": "The Spoilt Brat, by 808 State (1991)"
  },
  {
    "filename": "9_types_.gir",
    "size": 4602,
    "description": "The 9 Types of Boyfriends and Girlfriends, from Matt Groening"
  },
  {
    "filename": "a-p_fone.txt",
    "size": 17402,
    "description": "Erotica: The Telephone"
  },
  {
    "filename": "a-scene.txt",
    "size": 7670,
    "description": "A Scene, by theClone (1991)"
  },
  {
    "filename": "a_friend.txt",
    "size": 33411,
    "description": "A Friend in Need, by Phil Phantom"
  },
  {
    "filename": "a_guide_.wom",
    "size": 4807,
    "description": "A Guide to Love and Sex for Today's Young Women"
  },
  {
    "filename": "a_ride.txt",
    "size": 22244,
    "description": "A Ride, by Anonymous (Threesome)"
  },
  {
    "filename": "a_swap.txt",
    "size": 12654,
    "description": "A Swap, by Anonymous (Threesome)"
  },
  {
    "filename": "aacockpt.txt",
    "size": 14498,
    "description": "An American Airlines Cockpit, by M.A. Mohanraj (Threesome)"
  },
  {
    "filename": "aaden.txt",
    "size": 24077,
    "description": "Aaden's Revenge by Elf Mathieu (1994)"
  },
  {
    "filename": "aadendnc.txt",
    "size": 31691,
    "description": "Aaden's Dance, by Elf Mathieu Sternberg (1994)"
  },
  {
    "filename": "abbs9302.txt",
    "size": 41806,
    "description": "Norman Brown's Consolidated List of AIDS/HIV Bulletin Boards 1 February 1993"
  },
  {
    "filename": "abusebib.txt",
    "size": 15093,
    "description": "Bibliography for Adult Survivors of Childhood Sexual Abuse and Their Allies"
  },
  {
    "filename": "adam.gph",
    "size": 2547,
    "description": "The Pirate's Cove Erotic Poem \"Adam and Eve\""
  },
  {
    "filename": "affectio.txt",
    "size": 37545,
    "description": "Cultivating Affection in Your Marriage, by Willard F. Harley Jr., Ph. D. 1987"
  },
  {
    "filename": "aids-war.txt",
    "size": 35547,
    "description": "AIDS as a Weapon of War by Dr. William Campbell Douglas, M.D."
  },
  {
    "filename": "aids.mar",
    "size": 1444,
    "description": "The AIDS Mary Urban Legend, and a Variation"
  },
  {
    "filename": "aids.sg",
    "size": 21526,
    "description": "Understanding AIDS, a message from the Surgeon General"
  },
  {
    "filename": "aids.txt",
    "size": 5326,
    "description": "Who's Making Money Out of AIDS? by Steve Painter"
  },
  {
    "filename": "aids02.txt",
    "size": 8695,
    "description": "AIDS: Spread Facts, not Fear"
  },
  {
    "filename": "aids10.txt",
    "size": 56971,
    "description": "Conspiracy Theories regarding Government Creation of the AIDS Virus"
  },
  {
    "filename": "aids2.txt",
    "size": 67126,
    "description": "Extremely Large AIDS \"Facts\" File. Conclusion: We're Doomed"
  },
  {
    "filename": "aidsplot.1",
    "size": 35648,
    "description": "AIDS as a Weapon of War, by Dr. William Campbell Douglas, M.D. (August 16, 1990)"
  },
  {
    "filename": "aidtruth.hum",
    "size": 30800,
    "description": "Massive Rant about how AIDS will destroy the world in 1995. Oops!"
  },
  {
    "filename": "alicia.txt",
    "size": 14513,
    "description": "STORY: The Fringe Benefits"
  },
  {
    "filename": "allwant.mag",
    "size": 22075,
    "description": "Getting All You Want, by Roger Victor"
  },
  {
    "filename": "amanda01.txt",
    "size": 20300,
    "description": "Massive Incest Story with Weird Explanatory Text Beforehand"
  },
  {
    "filename": "amanda02.txt",
    "size": 25154,
    "description": "Incentual Sex File with Large Explanation Beforehand"
  },
  {
    "filename": "amanda03.txt",
    "size": 19123,
    "description": "Amanda Takes on Dad, Poker Buddies, and Now an Entire Barroom! She must be tired."
  },
  {
    "filename": "amerspor.hum",
    "size": 8903,
    "description": "The Dungeon Master presents \"American Sportswoman\""
  },
  {
    "filename": "ann&bob.sty",
    "size": 10368,
    "description": "The Story of Ann and Bob"
  },
  {
    "filename": "armyaids.txt",
    "size": 12416,
    "description": "Designer Diseases: AIDS As Biological and Psychological Warfare"
  },
  {
    "filename": "arose.sty",
    "size": 13888,
    "description": "Ed and Rose's Adventures in Swinging"
  },
  {
    "filename": "arose2.sty",
    "size": 12288,
    "description": "As it says \"Wife is tied, fucked, and used by three horny men\""
  },
  {
    "filename": "artofsex.hum",
    "size": 6424,
    "description": "One of the Worst: The Art of Sex, by The Cloaked Warrior"
  },
  {
    "filename": "artosex2.hum",
    "size": 4903,
    "description": "Another One of the Worst: The Art of Sex II, by Cloaked Warrior"
  },
  {
    "filename": "asiaa_2.sty",
    "size": 22224,
    "description": "Amy, the Thai Tease by Gerry Kanne, Part 2"
  },
  {
    "filename": "babyhave.hum",
    "size": 11796,
    "description": "Humorous perspective on having a baby. (Man's Perspective)"
  },
  {
    "filename": "bases.txt",
    "size": 4369,
    "description": "A Newly Revised Guide to the Bases"
  },
  {
    "filename": "bear_cod.txt",
    "size": 11969,
    "description": "The Natural Bears Classification System, by Bob Donahue, 3/24/1991"
  },
  {
    "filename": "beastiality.txt",
    "size": 6693,
    "description": "The Complete Guide to Beastiality and Necro-Beastiality by Nuclear Deth"
  },
  {
    "filename": "bedgolf.jok",
    "size": 1455,
    "description": "The Rules for Bedroom Golf"
  },
  {
    "filename": "beefstar.hum",
    "size": 2965,
    "description": "The only Beef Porno Story I have."
  },
  {
    "filename": "billie.txt",
    "size": 129158,
    "description": "Billie and her adventures in the Winnebago"
  },
  {
    "filename": "blinddates.txt",
    "size": 5123,
    "description": "More than Fifty Ways to Get Rid of Blind Dates and Other Social Catastophies"
  },
  {
    "filename": "boat.txt",
    "size": 2048,
    "description": "Sex Princess Sort of Writes Out Some Amount of Eroticism"
  },
  {
    "filename": "bon&disc.fun",
    "size": 15030,
    "description": "Heidi's Stories of Bondage and Discipline"
  },
  {
    "filename": "boobs1",
    "size": 6951,
    "description": "One Mammogram Please: Well Done, Hold the Onions, by Del Freeman"
  },
  {
    "filename": "boobs2",
    "size": 6313,
    "description": "The Fun Never Stops, by Del Freeman (Mammogram Column)"
  },
  {
    "filename": "boobs3",
    "size": 12061,
    "description": "Homestyle Boobs, by Del Freeman (Mammogram)"
  },
  {
    "filename": "brady.bunch",
    "size": 4352,
    "description": "The Brady Bunch by Dick Cheese and Stu!"
  },
  {
    "filename": "brady.txt",
    "size": 10382,
    "description": "Brady: A Special Family Story"
  },
  {
    "filename": "brother.txt",
    "size": 54851,
    "description": "Brotherly Love (Incest)"
  },
  {
    "filename": "byeprsnt.txt",
    "size": 18602,
    "description": "A Really Nice Goodbye Present"
  },
  {
    "filename": "camp.txt",
    "size": 11890,
    "description": "STORY: An Experience at Camp, by The Storyteller"
  },
  {
    "filename": "camptrip.txt",
    "size": 11180,
    "description": "The Camping Trip"
  },
  {
    "filename": "carlinis.txt",
    "size": 8368,
    "description": "Carlinisms: Result of a Human Sexuality Survey of Sexual Slang"
  },
  {
    "filename": "celibacy.jok",
    "size": 659,
    "description": "Man Page for Celibacy"
  },
  {
    "filename": "chateau.txt",
    "size": 56959,
    "description": "The Chateau"
  },
  {
    "filename": "chester.fun",
    "size": 4546,
    "description": "Chester the Molester's Guide to Picking Up Little Girls"
  },
  {
    "filename": "cindy.txt",
    "size": 23235,
    "description": "Cindy Does Her Best Friend's Dad, by Steve Jensen"
  },
  {
    "filename": "circ.txt",
    "size": 3457,
    "description": "Circumcision by the Associated Press"
  },
  {
    "filename": "circbook.txt",
    "size": 5312,
    "description": "CIRCUMCISION: What It Does, by Billy Ray Boyd;"
  },
  {
    "filename": "circhst1.txt",
    "size": 11265,
    "description": "Our British Heritage and the Sword of Islam"
  },
  {
    "filename": "circlist.txt",
    "size": 16140,
    "description": "Large list of Celebrities and who is Circumcised and Who is Not"
  },
  {
    "filename": "circum.txt",
    "size": 9600,
    "description": "Circumcision, an Overview, by Geoffrey Francis"
  },
  {
    "filename": "circums.hum",
    "size": 2121,
    "description": "Information on Circumcision"
  },
  {
    "filename": "clothes.pin",
    "size": 17934,
    "description": "Everything You Ever Want to Know about Clothespins as a Sexual Device"
  },
  {
    "filename": "colors.sex",
    "size": 7095,
    "description": "Your Favorite Color is the Key to your Sexual Life"
  },
  {
    "filename": "comlust.txt",
    "size": 3293,
    "description": "Computer Lust Story"
  },
  {
    "filename": "cond.txt",
    "size": 3316,
    "description": "List of Possible Slogans for National Condom Week"
  },
  {
    "filename": "condom.stp",
    "size": 2560,
    "description": "Condoms Stop AIDS Virus, by Bob K."
  },
  {
    "filename": "condoms.txt",
    "size": 1094,
    "description": "List of Possible Slogans Promoting National Condom Week"
  },
  {
    "filename": "contract.txt",
    "size": 1556,
    "description": "The Contract of Love (To be signed by the Guy)"
  },
  {
    "filename": "cookie.txt",
    "size": 1744,
    "description": "32 Reasons why Cookie Dough is Better than Men"
  },
  {
    "filename": "crfaq.txt",
    "size": 19886,
    "description": "The UnOfficial Chicken Ranch FAQ Version 0.10 by Blake Wilfong (1994)"
  },
  {
    "filename": "cucumber.hum",
    "size": 1501,
    "description": "Cucumbers are better than men!"
  },
  {
    "filename": "cucumber.jok",
    "size": 5739,
    "description": "The \"Why Cucumbers are Better than Men\" List"
  },
  {
    "filename": "desperat.sit",
    "size": 3566,
    "description": "A Man's Guide to Self-Amusement, by David Segall"
  },
  {
    "filename": "differen.jok",
    "size": 5897,
    "description": "Men and women are NOT alike: The Proof! By Optimist Prime"
  },
  {
    "filename": "differen.txt",
    "size": 5726,
    "description": "NEWS BULLETIN - Men and women are NOT alike"
  },
  {
    "filename": "doghow2.txt",
    "size": 14751,
    "description": "A Women's Guide to Canine-Human Sex by Susie"
  },
  {
    "filename": "doit.txt",
    "size": 7410,
    "description": "JUST DO IT"
  },
  {
    "filename": "eel.hum",
    "size": 3154,
    "description": "How to Kill a South Dakota Eel"
  },
  {
    "filename": "electron.txt",
    "size": 1536,
    "description": "The Sex Life of the Electron, by D.C. Current"
  },
  {
    "filename": "erolit5.hum",
    "size": 11735,
    "description": "Erotic Literature #5"
  },
  {
    "filename": "eroticbf.hum",
    "size": 5228,
    "description": "The Erotic Buffett, from the Erotc Baker Cookbook"
  },
  {
    "filename": "eskimo.nel",
    "size": 8728,
    "description": "The Ballad of Eskimo Nell"
  },
  {
    "filename": "evil.bondage",
    "size": 7424,
    "description": "Evil Bondage: Phucks Phrom the Third Dimension by The Occultist (1987) (Badly Formatted)"
  },
  {
    "filename": "evilbondage.txt",
    "size": 7533,
    "description": "Evil Bondage: Phucks From the Third Dimension by The Occultist (1987)"
  },
  {
    "filename": "exotictorture.txt",
    "size": 4684,
    "description": "Exotic Torture Techniques: A Guide for the Beginner by Cyberpunk"
  },
  {
    "filename": "farm.hum",
    "size": 18560,
    "description": "My Uncle's Farm, by Emily Wescott"
  },
  {
    "filename": "favorite.col",
    "size": 5375,
    "description": "Your Favorite Colour is The Key To Your Sexual Life"
  },
  {
    "filename": "favsexpo.hum",
    "size": 1792,
    "description": "Sexual Preferences of Users That We All Know Well by Teeny Bopper and Surf Rat"
  },
  {
    "filename": "fellatio.txt",
    "size": 37364,
    "description": "How to Suck Cock: A 14 Lesson Tutorial With Techniques from Some of the Experts"
  },
  {
    "filename": "female.txt",
    "size": 15360,
    "description": "JOKES: A Collection of Tastleless Jokes about Women"
  },
  {
    "filename": "female_t.est",
    "size": 4340,
    "description": "The Female Purity Test"
  },
  {
    "filename": "finland.txt",
    "size": 1961,
    "description": "The Official Minnesota Finlander's Sex Quiz"
  },
  {
    "filename": "foreanal.txt",
    "size": 4982,
    "description": "Rectal Foreign Bodies: Case Reports and a Comprehensive Review of the World's Literature"
  },
  {
    "filename": "frs",
    "size": 10734,
    "description": "Information on a Case of Scrotum Self-Repair"
  },
  {
    "filename": "fuck.your.hand",
    "size": 4224,
    "description": "Fucking Your Hand, by Mr. Sex"
  },
  {
    "filename": "fuckdead.txt",
    "size": 2529,
    "description": "How to Fuck the Dead (All Caps, Satire)"
  },
  {
    "filename": "fuckingyourhand.txt",
    "size": 4235,
    "description": "Fucking Your Hand, by Mr. Sex"
  },
  {
    "filename": "galfrnds.txt",
    "size": 3346,
    "description": "The 9 Types of Girlfriends, from Matt Groening's \"Life in Hell\""
  },
  {
    "filename": "gay_laws.txt",
    "size": 8352,
    "description": "Lesbian and Gay Rights Law Enters New Stage (April 27, 1989)"
  },
  {
    "filename": "gay_sold.law",
    "size": 1981,
    "description": "Appeals Court Orders Reinstatment of Gay Soldier (May 5, 1989)"
  },
  {
    "filename": "gaypagan.rul",
    "size": 3870,
    "description": "Rules for the Gay and Lesbian Pagans chat list"
  },
  {
    "filename": "gaywo",
    "size": 2079,
    "description": "List of Gay Women from history"
  },
  {
    "filename": "gender.dic",
    "size": 20615,
    "description": "Sexual Identity and Gender Identity Glossary"
  },
  {
    "filename": "gerbilstuffing.txt",
    "size": 5127,
    "description": "Gerbil Stuffing, from the Straight Dope, typed by Ali Kent (May 26, 1989)"
  },
  {
    "filename": "getaids.txt",
    "size": 27036,
    "description": "Can AIDS Threaten You? By Phoebe Courtney"
  },
  {
    "filename": "girls.guide",
    "size": 9310,
    "description": "Sources say: A Girl's Guide To Condoms by Mimi Coucher"
  },
  {
    "filename": "girls.hum",
    "size": 2996,
    "description": "Las Vegas Singles Expose - November 1985"
  },
  {
    "filename": "girls.txt",
    "size": 1671,
    "description": "Why Must Girls Squat to Pee"
  },
  {
    "filename": "glbo_lis.txt",
    "size": 56782,
    "description": "Gay, Lesbian and Bisexual Historical and Celebrity Figures (January 1993)"
  },
  {
    "filename": "golf.txt",
    "size": 5249,
    "description": "The Rules for Indoor Golf, with Additional Comments from a Course Owner"
  },
  {
    "filename": "goodwife.hum",
    "size": 22976,
    "description": ""
  },
  {
    "filename": "gourmet.sex",
    "size": 7168,
    "description": "Little Oral Annie's Guide to Gourmet Sex"
  },
  {
    "filename": "gourmetsex.txt",
    "size": 7296,
    "description": "The Little Oral Annie's Guide to Gourmet Sex"
  },
  {
    "filename": "govtaids.txt",
    "size": 15643,
    "description": "AIDS: A Man Made Monster? by The Geheim Magazine"
  },
  {
    "filename": "guide.beastiali",
    "size": 6528,
    "description": "The Complete Guide to Beastiality and Necro-Beastiality by Nuclear Deth"
  },
  {
    "filename": "guilt.txt",
    "size": 2619,
    "description": "Guilt Without Sex: A Quick Guideline"
  },
  {
    "filename": "helldate.jok",
    "size": 6826,
    "description": "The Orange County Register reports on Dates From Hell"
  },
  {
    "filename": "holmes.txt",
    "size": 1931,
    "description": "An Ode to John Holmes, Porno Star Extrardinaire"
  },
  {
    "filename": "honeymoo.pra",
    "size": 2018,
    "description": "PRACTICING FOR THEIR HONEYMOON by Jan Harold Brunvand (An Urban Legend)"
  },
  {
    "filename": "horse.sic",
    "size": 15012,
    "description": "The Foremost How To on Having Sex with Horses"
  },
  {
    "filename": "hostess.txt",
    "size": 9033,
    "description": "Party Girlie, by J. Boswell"
  },
  {
    "filename": "how.fuck.dead",
    "size": 3712,
    "description": "How to Fuck the Dead by The Necrophiliac and the Blade of Neon Knights"
  },
  {
    "filename": "howpussy.txt",
    "size": 1836,
    "description": "How the Pussy Was Built (You go, fellas)"
  },
  {
    "filename": "hsg.txt",
    "size": 8921,
    "description": "High School Girls discover the infinite realm of naughty bits"
  },
  {
    "filename": "indoor.golf",
    "size": 2214,
    "description": "The Official Rules of Indoor Golf"
  },
  {
    "filename": "indoorgf.hum",
    "size": 2648,
    "description": "The Rules of Indoor Golf"
  },
  {
    "filename": "infert.fun",
    "size": 17408,
    "description": "The mechanics of Infertility"
  },
  {
    "filename": "insanityc.txt",
    "size": 9917,
    "description": "Keeping Insanity in the Closet! By The Weatherman of Metallica Mafia (April 13th, 1988)"
  },
  {
    "filename": "interace.txt",
    "size": 30584,
    "description": "Results of an Interracial Relationship Survey"
  },
  {
    "filename": "kamasut.txt",
    "size": 24183,
    "description": "The Love Teachings of Kama Sutra by Vatasyayana"
  },
  {
    "filename": "kamasutra.txt",
    "size": 23273,
    "description": "The Love Teachings of the Kama Sutra"
  },
  {
    "filename": "karen.sex",
    "size": 15255,
    "description": "Letter: Karen Fucks Her Little Brother: Is This Right?"
  },
  {
    "filename": "lambskin.txt",
    "size": 4416,
    "description": "A Girl's Guide to Condoms by Mimi Coucher"
  },
  {
    "filename": "latrine.duty",
    "size": 11543,
    "description": "Latrine Duty, by Mark E. Dassad (1993)"
  },
  {
    "filename": "latrineduty.txt",
    "size": 12301,
    "description": "Latrine Duty: It's Not About Violence, it's not about Sex, it's about Violent Sex by Mark E. Dassad"
  },
  {
    "filename": "lawssex.hum",
    "size": 4346,
    "description": "Murphy's Laws of Sex"
  },
  {
    "filename": "lay-girl.txt",
    "size": 16308,
    "description": "The Complete Guide of Laying a Girl V1.1"
  },
  {
    "filename": "lesbian.dic",
    "size": 20031,
    "description": "The LesBiGay and Transgender Glossary"
  },
  {
    "filename": "libraryd.txt",
    "size": 1251,
    "description": "They Got the Sexual Deviances Right in Order!"
  },
  {
    "filename": "linestog.txt",
    "size": 8954,
    "description": "Collection of Pickup Lines"
  },
  {
    "filename": "lorry.hum",
    "size": 4619,
    "description": "Lorry the Babysitter (Erotic Fiction)"
  },
  {
    "filename": "lovebyte.txt",
    "size": 3468,
    "description": "Love Bytes, or Sex and the Single operator"
  },
  {
    "filename": "lvb.txt",
    "size": 21822,
    "description": "A Guide to Las Vegas Brothels, by George Tews"
  },
  {
    "filename": "male_t.est",
    "size": 4650,
    "description": "The Male Purity Test"
  },
  {
    "filename": "manhood.jok",
    "size": 1100,
    "description": "The Road to Manhood, a List by Matt Groening"
  },
  {
    "filename": "massage.txt",
    "size": 17649,
    "description": "ALT.SEX.WIZARDS Chimes in with Suggested Erotic Massage"
  },
  {
    "filename": "masturb.txt",
    "size": 5748,
    "description": "Masturbation Techniques and Info (1986)"
  },
  {
    "filename": "masturbation",
    "size": 5760,
    "description": "Masturbation Techniques and Information (1986)"
  },
  {
    "filename": "mc1.txt",
    "size": 12507,
    "description": "The Marauding Cock of Lubbock Presents: I Fucked the South-Plains Maid of Cotton"
  },
  {
    "filename": "menstral.txt",
    "size": 4240,
    "description": "Male Menstration: The Truth"
  },
  {
    "filename": "menvswoment.txt",
    "size": 12527,
    "description": "Men Vs. Women: An Overview"
  },
  {
    "filename": "menwomen.txt",
    "size": 6054,
    "description": "Men and Women are NOT Alike!"
  },
  {
    "filename": "mm-test.txt",
    "size": 25429,
    "description": "Mortified Matchmakers Love Questionairre III (The Collegate Version)"
  },
  {
    "filename": "mojo_cha.txt",
    "size": 17966,
    "description": "Shannon French's Sex Rant"
  },
  {
    "filename": "mormast.txt",
    "size": 4032,
    "description": "From a Guide to Mormon Youth: Guide to Self-Control:  Overcoming Masturbation"
  },
  {
    "filename": "mormon.txt",
    "size": 9688,
    "description": "Some Steps in Overcoming Masturbation by Mark E. Petersen of the Council of the 12 Apostles"
  },
  {
    "filename": "multi.txt",
    "size": 26443,
    "description": "More Rude Stuff from Nikolai and Kelanie: Welcome to the Team"
  },
  {
    "filename": "murfssex.txt",
    "size": 4075,
    "description": "Murphy's Laws on Sex"
  },
  {
    "filename": "murph.sex",
    "size": 4279,
    "description": "Murphy's Laws on Sex"
  },
  {
    "filename": "myrape.txt",
    "size": 6781,
    "description": "The Night I became a Woman, by Joseph Wilson"
  },
  {
    "filename": "nasty.txt",
    "size": 1766,
    "description": "The Nasty Girl: A List"
  },
  {
    "filename": "nipples.txt",
    "size": 6977,
    "description": "Polished Nipples, or the DeKlein of Western Civilization"
  },
  {
    "filename": "oralsex1.txt",
    "size": 9250,
    "description": "A Guide to Oral Sex, by Anonymous"
  },
  {
    "filename": "oralsex2.txt",
    "size": 8299,
    "description": "A Guide to Oral Sex, by Anonymous (Part II)"
  },
  {
    "filename": "orson.txt",
    "size": 12485,
    "description": "Orson Scott Card on \"The Hypocrites of Homosexuality\""
  },
  {
    "filename": "paper.jok",
    "size": 672,
    "description": "The Fax Message That Has Sex With You"
  },
  {
    "filename": "party.fun",
    "size": 13953,
    "description": "Mike Goes Out to a Party"
  },
  {
    "filename": "peepingt.txt",
    "size": 3743,
    "description": "You can be a peeping Tom without getting caught! By Brutus Maccabee (July 11, 1988)"
  },
  {
    "filename": "peepntom.fun",
    "size": 6050,
    "description": "Thorough Insight on how to be a successful peeping tom."
  },
  {
    "filename": "penthse.txt",
    "size": 3955,
    "description": "Joining the Penthouse Petline Network"
  },
  {
    "filename": "personal.per",
    "size": 1290,
    "description": "A Couple Personals from the HorseFeathers BBS"
  },
  {
    "filename": "pervert.lbry.1",
    "size": 7168,
    "description": "The Perverts of Doom Present The Perverts Library #1: When Father Was Away by Leper Penis (July 5, 1989)"
  },
  {
    "filename": "pervert.lbry.2",
    "size": 4096,
    "description": "The Perverts of Doom Present Whore Story, by Funky Fish Vagina (July 5, 1989)"
  },
  {
    "filename": "pervert.lbry.3",
    "size": 4992,
    "description": "The Perverts of Doom Present Jism Baptism by Leper Penis (July 5, 1989)"
  },
  {
    "filename": "pervert.lbry.4",
    "size": 2176,
    "description": "The Perverts of Doom Present Loading Zone by Leper Penis (September 15, 1991)"
  },
  {
    "filename": "pervertsofdoom2.txt",
    "size": 4141,
    "description": "The Pervert's Library #2: Whore Story by Funky Fish Vagina (July 5, 1989)"
  },
  {
    "filename": "pervertsofdoom3.txt",
    "size": 4975,
    "description": "The Pervert's Library #3: Jism Baptism by Leper Penis (July 5, 1989)"
  },
  {
    "filename": "pervertsofdoom4.txt",
    "size": 2134,
    "description": "The Pervert's Library #4: Loading Zone by Leper Penis (September 15, 1991)"
  },
  {
    "filename": "phonsex.hum",
    "size": 3431,
    "description": "Penthouse's Phone Sex Lines"
  },
  {
    "filename": "pickup.lin",
    "size": 6070,
    "description": "The Canonical List of Male Pickup Lines"
  },
  {
    "filename": "pickup.txt",
    "size": 8153,
    "description": "The 1984 Collection of Killer Pickup Lines"
  },
  {
    "filename": "pj.spa",
    "size": 11856,
    "description": "Filmography of Porn Star P.J. Sparkx"
  },
  {
    "filename": "playboy.l1",
    "size": 6795,
    "description": "Large List of Playboy Playmates from 1960-1991"
  },
  {
    "filename": "playgirl.jok",
    "size": 835,
    "description": "Disheartening PLAYGIRL Rejection Letter"
  },
  {
    "filename": "polyamor.txt",
    "size": 43596,
    "description": "Very Large File on Just How Rockin' Polyamory is"
  },
  {
    "filename": "pool.txt",
    "size": 5385,
    "description": "A little fun by the Pool by The Sex Princess"
  },
  {
    "filename": "porn",
    "size": 13402,
    "description": "The Erotic Story of Maria"
  },
  {
    "filename": "porn.fav",
    "size": 8935,
    "description": "The 1993 Survey for All Time Best XXX Actress"
  },
  {
    "filename": "prinnude.hum",
    "size": 1186,
    "description": "The Princeton Naked Run a Big Success"
  },
  {
    "filename": "prostitutefaq.txt",
    "size": 30402,
    "description": "Frequently Asked Questions (FAQ) List on Legal Prostitution in Nevada Version 1.0 (November 20, 1994)"
  },
  {
    "filename": "prudes.txt",
    "size": 8159,
    "description": "Prudes and Virgins Digest (1988)"
  },
  {
    "filename": "purebred.cht",
    "size": 4992,
    "description": "The List of Purebred Domestic Cats"
  },
  {
    "filename": "purity.100",
    "size": 4977,
    "description": "The 100 Question Purity Test"
  },
  {
    "filename": "purity.15k",
    "size": 120450,
    "description": "The 1500 Point Purity Test"
  },
  {
    "filename": "purity.400",
    "size": 54059,
    "description": "The Unisex, Omnisexual Purity Test Version 3.5A 1985"
  },
  {
    "filename": "purity.500",
    "size": 57216,
    "description": "The Unisex, Omnisexual Purity Test Version 4.0 (500) 1988"
  },
  {
    "filename": "purity.txt",
    "size": 77430,
    "description": "The Omnisex Unisexual Purity Test Version 5.2 Final Release (September 15, 1992)"
  },
  {
    "filename": "reasons4.jok",
    "size": 9182,
    "description": "Some Reasons to Have Sex"
  },
  {
    "filename": "rectum.txt",
    "size": 1832,
    "description": "Looking for Love In all The Wrong Places..."
  },
  {
    "filename": "rest.in.pieces",
    "size": 2432,
    "description": "Rest In Pieces, from the Carrion AE"
  },
  {
    "filename": "rocksex.hum",
    "size": 4427,
    "description": "OH GOD WE HAD SO MUCH SEX"
  },
  {
    "filename": "sam.fox",
    "size": 8495,
    "description": "Filmography of Samantha Fox, Porn Star"
  },
  {
    "filename": "samfox.txt",
    "size": 18271,
    "description": "Samantha Fox: The Life Story!"
  },
  {
    "filename": "sayno.txt",
    "size": 5150,
    "description": "101 Easy Ways to Say No"
  },
  {
    "filename": "seduce.hum",
    "size": 4326,
    "description": "Three Places to Easily Seduce Your Girlfriend"
  },
  {
    "filename": "seminars.2",
    "size": 2214,
    "description": "Seminars Offered for the Female Staff"
  },
  {
    "filename": "seminars.3",
    "size": 2065,
    "description": "MORE Seminars for the Female Staff"
  },
  {
    "filename": "seminars.wom",
    "size": 3574,
    "description": "Seminars for the Male Staff"
  },
  {
    "filename": "sex-cars.faq",
    "size": 8905,
    "description": "Dekhyr Dragon's Guide to Sex with Cars (for males)"
  },
  {
    "filename": "sex.for",
    "size": 10522,
    "description": "Sexual Consent Form for Two Individuals, Version 1.0.2"
  },
  {
    "filename": "sex_and.cal",
    "size": 3243,
    "description": "The Dieter's Guide to Weight Loss During Sex"
  },
  {
    "filename": "sexcolor.txt",
    "size": 5972,
    "description": "Your Favorite Color is the Key to your Sexual Life"
  },
  {
    "filename": "sexdrur&.hum",
    "size": 2657,
    "description": "Pointdexter Smallpecker's Guide to Sex Drugs and Rock and Roll"
  },
  {
    "filename": "sexedprm.txt",
    "size": 2641,
    "description": "Sex Education Not Linked to promiscuity, December 16, 1993"
  },
  {
    "filename": "sexhar.txt",
    "size": 2721,
    "description": "The Sexual Harassment Consent Form"
  },
  {
    "filename": "sexquiz.txt",
    "size": 12800,
    "description": "The Roble Hall Purity Test"
  },
  {
    "filename": "sexsata2.hum",
    "size": 7351,
    "description": "Cock of Flame: Sex with Satan part II"
  },
  {
    "filename": "sexsatan.hum",
    "size": 8979,
    "description": "Sex with Satan, by Psychoe."
  },
  {
    "filename": "sextest.txt",
    "size": 53151,
    "description": "The Unisex Omnisexual Purity Test Version 3.5A (400) (April 13, 1985)"
  },
  {
    "filename": "sextxt.hum",
    "size": 1655,
    "description": "What NOT to name your dog"
  },
  {
    "filename": "sexual_t.qui",
    "size": 2167,
    "description": "The Sexual Tension Quiz (Two Answers, Sexual and Not)"
  },
  {
    "filename": "sexwiz.faq",
    "size": 185341,
    "description": "The Official Alt.Sex.Wizards FAQ File with Answers"
  },
  {
    "filename": "sexx.jok",
    "size": 7898,
    "description": "The .plan File of Life"
  },
  {
    "filename": "sexy.fun",
    "size": 2688,
    "description": "ALL YOU WANTED TO KNOW ABOUT SEX!!!11!!!!"
  },
  {
    "filename": "sexy.txt",
    "size": 2629,
    "description": "All You Ever Wanted to Know About Sex!!"
  },
  {
    "filename": "sexydogs.txt",
    "size": 2878,
    "description": "A Dog Named \"Sex\". Massively morphed file of the original (old) joke."
  },
  {
    "filename": "shaving.txt",
    "size": 4132,
    "description": "The Pleasures of Shaving, by GunErekt"
  },
  {
    "filename": "snagging.chicks",
    "size": 5632,
    "description": "Snagging Chicks by Darkside 444 and White Shark"
  },
  {
    "filename": "snaggingchicks.txt",
    "size": 5624,
    "description": "Snagging Chicks from the Flaming Toilet BBS"
  },
  {
    "filename": "solomon.sng",
    "size": 25963,
    "description": "The Song of Solomon - Erotic poetry at its finest"
  },
  {
    "filename": "sorority.txt",
    "size": 7878,
    "description": "The Canonical List of Sorority Girl Jokes"
  },
  {
    "filename": "squid.pur",
    "size": 90605,
    "description": "The Official, Sanctioned DoD Squid Purity Test(tm), February 1993"
  },
  {
    "filename": "stork_vs.rep",
    "size": 1809,
    "description": "Ovulation Versus Cretinism: The Debate Rages On"
  },
  {
    "filename": "strip.rv",
    "size": 41505,
    "description": "Very Large List of Nationwide Strip Clubs"
  },
  {
    "filename": "stupwife.hum",
    "size": 3123,
    "description": "Stoopid Wives, by L.E. Pirate"
  },
  {
    "filename": "sweet16.txt",
    "size": 24893,
    "description": "Thumper, by Dave Read"
  },
  {
    "filename": "syphilis",
    "size": 2816,
    "description": "Syphillis: Effects and General Information by Suicidal Maniac"
  },
  {
    "filename": "syphilis.txt",
    "size": 2768,
    "description": "Syphilis: Effects of and General Information by Suicidal Maniac of Dirty Bird's Nest BBS"
  },
  {
    "filename": "tacos.txt",
    "size": 2357,
    "description": "27 Reasons Why Tacos Are Better Than Women"
  },
  {
    "filename": "talebdho.hum",
    "size": 23002,
    "description": "Tales of a Bored Housewife"
  },
  {
    "filename": "test!.fun",
    "size": 4588,
    "description": "100-Question Purity Test"
  },
  {
    "filename": "testsex.txt",
    "size": 6644,
    "description": "The Kinky Test!"
  },
  {
    "filename": "the_date.txt",
    "size": 26219,
    "description": "The Ultimate Date (Erotica)"
  },
  {
    "filename": "therules.txt",
    "size": 2589,
    "description": "THE RULES: Respect the Female!"
  },
  {
    "filename": "titnames.hum",
    "size": 4270,
    "description": "The Complete Tit File"
  },
  {
    "filename": "tits.hum",
    "size": 5208,
    "description": "Head Honcho Presents Tits For Free"
  },
  {
    "filename": "titstard.hum",
    "size": 8776,
    "description": "Barney Badass's Tits On The Tardis"
  },
  {
    "filename": "tortures.txt",
    "size": 3537,
    "description": "A Few Cruel and Unusual Tortures That Women Perpetrate on Men"
  },
  {
    "filename": "toughluv.hum",
    "size": 14130,
    "description": "Tough love For Singles, by Dr. James Dobson"
  },
  {
    "filename": "tracilords.txt",
    "size": 1973,
    "description": "A Complete List of All of Traci Lords' Adult Films"
  },
  {
    "filename": "trojan.asc",
    "size": 1749,
    "description": "The Trojan Condom Company Writes a Helpful Letter"
  },
  {
    "filename": "unisex.test",
    "size": 12322,
    "description": "The Unisex Exprience Test"
  },
  {
    "filename": "unisex_t.est",
    "size": 12570,
    "description": "The Unisex Experience Test (Seems to be a precursour to a Purity Test)"
  },
  {
    "filename": "vibrafaq.txt",
    "size": 17057,
    "description": "The Vibrators FAQ"
  },
  {
    "filename": "waysayno.txt",
    "size": 5651,
    "description": "100 Easy Ways to Say No"
  },
  {
    "filename": "what!.fun",
    "size": 3563,
    "description": "Live Sex In Concert"
  },
  {
    "filename": "whodo.hum",
    "size": 5973,
    "description": "Everybody Does It!"
  },
  {
    "filename": "whybeer.txt",
    "size": 1280,
    "description": "Why Beer is Better than Women"
  },
  {
    "filename": "wife.txt",
    "size": 2625,
    "description": "To My Loving Wife, The Seductions of the Past Year"
  },
  {
    "filename": "wifeslut.txt",
    "size": 114696,
    "description": "The Wife Slut Program: A Course For Candidates To Discover Who They Are Sexually"
  },
  {
    "filename": "wifespk.txt",
    "size": 2589,
    "description": "Wifespeak Translations"
  },
  {
    "filename": "wmnhood.jok",
    "size": 1052,
    "description": "The Road to Womanhood, by Matt Groening"
  },
  {
    "filename": "woman.txt",
    "size": 4103,
    "description": "Chemical Analysis of the Woman Element (WO)"
  },
  {
    "filename": "women.jok",
    "size": 3556,
    "description": "David Crist's Truths about Women, 1989"
  }
]
