[
  {
    "filename": "b&j.txt",
    "size": 68818,
    "description": "EROTICA: B&J"
  },
  {
    "filename": "b'elanna.txt",
    "size": 17448,
    "description": "EROTICA: On Report (Star Trek)"
  },
  {
    "filename": "b4storm.txt",
    "size": 13945,
    "description": "EROTICA: The Come Before the Storm"
  },
  {
    "filename": "b_luck.txt",
    "size": 26632,
    "description": "EROTICA: Beginner's Luck, by Ron Dalanor"
  },
  {
    "filename": "b_uncles.txt",
    "size": 31446,
    "description": "EROTICA: The Best Uncles are Adopted, by Randu"
  },
  {
    "filename": "babs-bro.txt",
    "size": 25497,
    "description": "EROTICA: Sister Strips"
  },
  {
    "filename": "babs.txt",
    "size": 106479,
    "description": "EROTICA: My Slut Wife Out West by Steve the Sucker Husband (December 12, 1997)"
  },
  {
    "filename": "baby.txt",
    "size": 7024,
    "description": "EROTICA: My Teenage Baby"
  },
  {
    "filename": "babyclog.txt",
    "size": 7998,
    "description": "EROTICA: Babysitter's Clogs"
  },
  {
    "filename": "babyhusb.txt",
    "size": 42746,
    "description": "EROTICA: The Clinic"
  },
  {
    "filename": "babyset.txt",
    "size": 11648,
    "description": "EROTICA: A Completely Different Adventure in Babysitting"
  },
  {
    "filename": "babysit.txt",
    "size": 12288,
    "description": "EROTICA: I Was a Neighborhood Nympho Babysitter"
  },
  {
    "filename": "babysit1",
    "size": 16035,
    "description": "EROTICA: The Babysitter"
  },
  {
    "filename": "babysit1.txt",
    "size": 13866,
    "description": "EROTICA: Babysitting Discovery Part 1 by Mitchell Knight"
  },
  {
    "filename": "babysit2.txt",
    "size": 15276,
    "description": "EROTICA: Babysitting Disocvery Part 2 by Mitchell Knight"
  },
  {
    "filename": "babysit3.txt",
    "size": 9243,
    "description": "EROTICA: Babysitting Discovery Part 3 by Mitchell Knight"
  },
  {
    "filename": "babysit4.txt",
    "size": 13509,
    "description": "EROTICA: Babysitting Discovery Part 4 by Mitchell Knight"
  },
  {
    "filename": "babysit5.txt",
    "size": 8271,
    "description": "EROTICA: Babysitting Discovery Part 5 by Mitchell Knight"
  },
  {
    "filename": "babysit6.txt",
    "size": 10316,
    "description": "EROTICA: Babysitting Discovery Part 6 by Mitchell Knight"
  },
  {
    "filename": "babysit7.txt",
    "size": 10112,
    "description": "EROTICA: Babysitting Discovery Part 7 by Mitchell Knight"
  },
  {
    "filename": "babysit8.txt",
    "size": 12201,
    "description": "EROTICA: Babysitting Discovery Part 8 by Mitchell Knight"
  },
  {
    "filename": "babysitr.txt",
    "size": 10586,
    "description": "EROTICA: The Baby Sitter, by Tori Redfern"
  },
  {
    "filename": "babysitt.txt",
    "size": 16477,
    "description": "EROTICA: Sexual Adventures in Babysitting"
  },
  {
    "filename": "back2sch.txt",
    "size": 16134,
    "description": "EROTICA: Teacher, by Warren Mansfield"
  },
  {
    "filename": "backhome.txt",
    "size": 28953,
    "description": "EROTICA: A Family Love Fantasy"
  },
  {
    "filename": "backseat.txt",
    "size": 2295,
    "description": "EROTICA: The Backseat"
  },
  {
    "filename": "backside.txt",
    "size": 90240,
    "description": "EROTICA: Backside Love with Beth and Ellen"
  },
  {
    "filename": "backwood.txt",
    "size": 7897,
    "description": "EROTICA: The Back Woods"
  },
  {
    "filename": "backyard.txt",
    "size": 6836,
    "description": "EROTICA: Wet in the Backyard, by Per from Denmark (October, 1996)"
  },
  {
    "filename": "bad-ti~1.txt",
    "size": 69732,
    "description": "Bad Timing, by Jennifer"
  },
  {
    "filename": "bad.txt",
    "size": 9368,
    "description": "EROTICA: Very Bad"
  },
  {
    "filename": "bad_boy.txt",
    "size": 18457,
    "description": "EROTICA: Bad, Bad Boy! By S. Megans (1994)"
  },
  {
    "filename": "bad_week.txt",
    "size": 8875,
    "description": "EROTICA: Bad Weekend Gone Good"
  },
  {
    "filename": "badseed.txt",
    "size": 11805,
    "description": "EROTICA: The Bad Seed"
  },
  {
    "filename": "bagboy.txt",
    "size": 23418,
    "description": "EROTICA: The Bag Boy, by Shades Lxix"
  },
  {
    "filename": "ballwrld.txt",
    "size": 4468,
    "description": "EROTICA: I Balled My Way Around the World! by Gary Plotkin"
  },
  {
    "filename": "band.txt",
    "size": 26830,
    "description": "EROTICA: The Boy from the Band by Ron Dalanor"
  },
  {
    "filename": "bandit.txt",
    "size": 275950,
    "description": "EROTICA: It has a Mind of Its Own"
  },
  {
    "filename": "banger03.txt",
    "size": 32815,
    "description": "STORY: Do It To Your Step! By Reginald Bar III"
  },
  {
    "filename": "banger1.fun",
    "size": 30720,
    "description": "EROTICA: Banger, First Blood, Part 1 by Reginald Bar III"
  },
  {
    "filename": "banger1.txt",
    "size": 30624,
    "description": "STORY: Banger First Blood Part I by Reginald Bar III"
  },
  {
    "filename": "banger2.txt",
    "size": 30720,
    "description": "STORY: Banger II by Reginald Bar III"
  },
  {
    "filename": "banger3.fun",
    "size": 32896,
    "description": "EROTICA: Do It To YOur Step! By Reginald Bar III"
  },
  {
    "filename": "banger3.txt",
    "size": 32206,
    "description": "EROTICA: Banger III: Do It To Your Step! by Reginald Bar III"
  },
  {
    "filename": "bank.txt",
    "size": 10911,
    "description": "EROTICA: The Bank"
  },
  {
    "filename": "bank_rob.txt",
    "size": 35843,
    "description": "EROTICA: The Bank Robbers"
  },
  {
    "filename": "bankbabe.txt",
    "size": 45994,
    "description": "EROTICA: Bangkok Baby, by Eros (1997)"
  },
  {
    "filename": "banker.txt",
    "size": 18551,
    "description": "EROTICA: Banker"
  },
  {
    "filename": "banker1.txt",
    "size": 5800,
    "description": "EROTICA: Cynthia Meets the Banker"
  },
  {
    "filename": "bankjob.txt",
    "size": 21330,
    "description": "EROTICA: The Bank Job by Carl 'Birdman\" Marquardt"
  },
  {
    "filename": "bankrob1.txt",
    "size": 36548,
    "description": "EROTICA: The Bank Robbers"
  },
  {
    "filename": "bar-babe.txt",
    "size": 7008,
    "description": "EROTICA: The Bar Babe"
  },
  {
    "filename": "barbang.txt",
    "size": 7168,
    "description": "STORY: The Bar Bang"
  },
  {
    "filename": "barbara1.txt",
    "size": 17157,
    "description": "EROTICA: Freewheeling Barbara Toys with Boys Part 1 by A. Green"
  },
  {
    "filename": "barbara2.txt",
    "size": 34506,
    "description": "EROTICA: Freewheeling Barbara Toys with Boys Part 2 by A. Green"
  },
  {
    "filename": "barbara3.txt",
    "size": 18801,
    "description": "EROTICA: Freewheeling Barbara Toys with Boys Part 3 by A. Green"
  },
  {
    "filename": "barbara4.txt",
    "size": 17366,
    "description": "EROTICA: Freewheeling Barbara Toys with Boys Part 4 by A. Green"
  },
  {
    "filename": "barbara5.txt",
    "size": 40284,
    "description": "EROTICA: Freewheeling Barbara Toys with Boys Part 5 by A. Green"
  },
  {
    "filename": "barbara6.txt",
    "size": 37888,
    "description": "EROTICA: Freewheeling Barbara Toys with Boys Part 6 by A. Green"
  },
  {
    "filename": "barbara7.txt",
    "size": 36864,
    "description": "EROTICA: Freewheeling Barbara Toys with Boys Part 7 by A. Green"
  },
  {
    "filename": "barbara8.txt",
    "size": 24576,
    "description": "EROTICA: Freewheeling Barbara Toys with Boys Part 8 by A. Green"
  },
  {
    "filename": "barbara9.txt",
    "size": 22528,
    "description": "EROTICA: Freewheeling Barbara Toys with Boys Part 9 by A. Green"
  },
  {
    "filename": "barber.txt",
    "size": 13249,
    "description": "EROTICA: Barber"
  },
  {
    "filename": "barberpp.txt",
    "size": 9983,
    "description": "EROTICA: Barber Pole Poke by Jerry Enright (September, 1987)"
  },
  {
    "filename": "barbie.txt",
    "size": 20822,
    "description": "EROTICA: Barbi and Bobby"
  },
  {
    "filename": "bardream.txt",
    "size": 22494,
    "description": "EROTICA: The Dream, by Thomas Frost"
  },
  {
    "filename": "barepark.txt",
    "size": 4884,
    "description": "EROTICA: Bare in the Park"
  },
  {
    "filename": "barepart.txt",
    "size": 5965,
    "description": "EROTICA: A Very Memorable Birthday Party by Dave H."
  },
  {
    "filename": "barf.txt",
    "size": 10241,
    "description": "EROTICA: BARF: Bay Area Rapid Fucking"
  },
  {
    "filename": "barkley.txt",
    "size": 5504,
    "description": "EROTICA: Bad Dreams, by the Genital Engineer"
  },
  {
    "filename": "barkleys.txt",
    "size": 10286,
    "description": "EROTICA: Barkley's Switch"
  },
  {
    "filename": "barman.txt",
    "size": 7330,
    "description": "EROTICA: The Barman"
  },
  {
    "filename": "barn.txt",
    "size": 12077,
    "description": "EROTICA: The Barn"
  },
  {
    "filename": "barnone.txt",
    "size": 45887,
    "description": "EROTICA: Bar None"
  },
  {
    "filename": "baron3.txt",
    "size": 9385,
    "description": "EROTICA: Hotel Bound, by Master Baron"
  },
  {
    "filename": "baron4.txt",
    "size": 3869,
    "description": "EROTICA: Lost Castle, by Master Baron"
  },
  {
    "filename": "baron6.txt",
    "size": 4046,
    "description": "EROTICA: Doing a Good Turn, by Master Baron"
  },
  {
    "filename": "baron7.txt",
    "size": 9122,
    "description": "EROTICA: The Baroness, by Master Baron"
  },
  {
    "filename": "baron8.txt",
    "size": 8288,
    "description": "EROTICA: The Baroness Part II by Master Baron"
  },
  {
    "filename": "baron9.txt",
    "size": 4500,
    "description": "EROTICA: The Baroness Part III by Master Baron"
  },
  {
    "filename": "barpedal.txt",
    "size": 9810,
    "description": "EROTICA: Barefoot Pedal Pushers"
  },
  {
    "filename": "barracks.txt",
    "size": 7980,
    "description": "EROTICA: Encounters in the Barracks with an Army Private"
  },
  {
    "filename": "bart.txt",
    "size": 16948,
    "description": "EROTICA: Bart Simpson's Guide to Incest (1994)"
  },
  {
    "filename": "barter.txt",
    "size": 11050,
    "description": "EROTICA: The Barter"
  },
  {
    "filename": "baseball.txt",
    "size": 3715,
    "description": "EROTICA: Baseball Jocks in the Locker Room"
  },
  {
    "filename": "bashers.txt",
    "size": 17444,
    "description": "EROTICA: Bashers Get Bashed, by Game Master"
  },
  {
    "filename": "bashir-1.txt",
    "size": 82600,
    "description": "EROTICA: The Delightful Education of Julian Bashir"
  },
  {
    "filename": "bashir-2.txt",
    "size": 151954,
    "description": "EROTICA: The Delightful Education of Julian Bashir: Continuing Education"
  },
  {
    "filename": "basket.txt",
    "size": 18287,
    "description": "EROTICA: The Basketball Player"
  },
  {
    "filename": "bastporn.txt",
    "size": 17179,
    "description": "STORY: The Bastards! By Black Cloak"
  },
  {
    "filename": "bastrain.txt",
    "size": 24533,
    "description": "EROTICA: Basic Training"
  },
  {
    "filename": "batboy.txt",
    "size": 23101,
    "description": "EROTICA: Bonnie's Battered Boy Friend"
  },
  {
    "filename": "bates.txt",
    "size": 1307620,
    "description": "EROTICA: The Awakening"
  },
  {
    "filename": "batgirl.txt",
    "size": 86286,
    "description": "EROTICA: Batgirl and Robin, by Ann Douglas"
  },
  {
    "filename": "bath.txt",
    "size": 5415,
    "description": "EROTICA: Bath by Keisha J. Gray"
  },
  {
    "filename": "bathasc.doc",
    "size": 10690,
    "description": "STORY: The Bathing Beauties"
  },
  {
    "filename": "bathbear.txt",
    "size": 9868,
    "description": "EROTICA: Bathhouse Bear, by Bear Hunter"
  },
  {
    "filename": "bathday.txt",
    "size": 17756,
    "description": "EROTICA: Bathday, by Nevyn"
  },
  {
    "filename": "bathlesn.txt",
    "size": 9068,
    "description": "EROTICA: Tammi's Bathroom Lesson, by Raybolt"
  },
  {
    "filename": "bathrape.txt",
    "size": 11062,
    "description": "EROTICA: A Bath Rape"
  },
  {
    "filename": "bathtub.txt",
    "size": 12497,
    "description": "EROTICA: Bathtub Bondage, by Stewart Millhouse"
  },
  {
    "filename": "bbabysit1.txt",
    "size": 10012,
    "description": "EROTICA: Babysitting Discovery Part 1 by Mitchell Knight"
  },
  {
    "filename": "bbabysit2.txt",
    "size": 9958,
    "description": "EROTICA: Babysitting Disocvery Part 2 by Mitchell Knight"
  },
  {
    "filename": "bbabysit3.txt",
    "size": 14392,
    "description": "EROTICA: Babysitting Discovery Part 3 by Mitchell Knight"
  },
  {
    "filename": "bbabysitt.txt",
    "size": 51217,
    "description": "EROTICA: Sexual Adventures in Babysitting"
  },
  {
    "filename": "bball.txt",
    "size": 17578,
    "description": "EROTICA: The Basketball Team #5 by Richard Fischer (June 26, 1996)"
  },
  {
    "filename": "bball3.txt",
    "size": 17644,
    "description": "EROTICA: The Basketball Team #3by Richard Fischer (June 26, 1994)"
  },
  {
    "filename": "bball6.txt",
    "size": 16822,
    "description": "EROTICA: The Basketball Team #6 by Richard Fischer (June 26, 1996)"
  },
  {
    "filename": "bbanger3.txt",
    "size": 30043,
    "description": "EROTICA: Banger III: Do It To Your Step! by Reginald Bar III"
  },
  {
    "filename": "bbanker.txt",
    "size": 18628,
    "description": "EROTICA: Banker"
  },
  {
    "filename": "bbarbara1.txt",
    "size": 15921,
    "description": "EROTICA: Freewheeling Barbara Toys with Boys Part 1 by A. Green"
  },
  {
    "filename": "bbarbara2.txt",
    "size": 35833,
    "description": "EROTICA: Freewheeling Barbara Toys with Boys Part 2 by A. Green"
  },
  {
    "filename": "bbarbara3.txt",
    "size": 19667,
    "description": "EROTICA: Freewheeling Barbara Toys with Boys Part 3 by A. Green"
  },
  {
    "filename": "bbarbara4.txt",
    "size": 18067,
    "description": "EROTICA: Freewheeling Barbara Toys with Boys Part 4 by A. Green"
  },
  {
    "filename": "bbarbara5.txt",
    "size": 41409,
    "description": "EROTICA: Freewheeling Barbara Toys with Boys Part 5 by A. Green"
  },
  {
    "filename": "bbarbara6.txt",
    "size": 38934,
    "description": "EROTICA: Freewheeling Barbara Toys with Boys Part 6 by A. Green"
  },
  {
    "filename": "bbarbara7.txt",
    "size": 37981,
    "description": "EROTICA: Freewheeling Barbara Toys with Boys Part 7 by A. Green"
  },
  {
    "filename": "bbarbara8.txt",
    "size": 25184,
    "description": "EROTICA: Freewheeling Barbara Toys with Boys Part 8 by A. Green"
  },
  {
    "filename": "bbarbara9.txt",
    "size": 20635,
    "description": "EROTICA: Freewheeling Barbara Toys with Boys Part 9 by A. Green"
  },
  {
    "filename": "bbarber.txt",
    "size": 13240,
    "description": "EROTICA: Barber"
  },
  {
    "filename": "bbarepart.txt",
    "size": 5904,
    "description": "EROTICA: A Very Memorable Birthday Party by Dave H."
  },
  {
    "filename": "bbbrother.txt",
    "size": 19375,
    "description": "EROTICA: Blackmailed Brother"
  },
  {
    "filename": "bbeach.txt",
    "size": 21372,
    "description": "EROTICA: Beach Bondage"
  },
  {
    "filename": "bbestever.txt",
    "size": 7212,
    "description": "EROTICA: Best Ever Sex Adventure, by Electro Porn"
  },
  {
    "filename": "bbet.txt",
    "size": 13094,
    "description": "EROTICA: Bet, by Deirdre"
  },
  {
    "filename": "bbeth.txt",
    "size": 87695,
    "description": "EROTICA: Beth"
  },
  {
    "filename": "bbiggirl.txt",
    "size": 17864,
    "description": "EROTICA: Your First Phredz"
  },
  {
    "filename": "bbigsis.txt",
    "size": 15487,
    "description": "EROTICA: Helping Out Sis by Drake (1997)"
  },
  {
    "filename": "bbilly.txt",
    "size": 57018,
    "description": "EROTICA: Billy's Education, by Eros"
  },
  {
    "filename": "bbird1xxx.txt",
    "size": 51951,
    "description": "EROTICA: Birdwatchers"
  },
  {
    "filename": "bbird2xxx.txt",
    "size": 58962,
    "description": "EROTICA: Birdwatcher's Song"
  },
  {
    "filename": "bbirthday.txt",
    "size": 13250,
    "description": "EROTICA: The Birthday Gift, by Dorian Henao"
  },
  {
    "filename": "bblind.txt",
    "size": 21056,
    "description": "EROTICA: Blind Man's Bluff by Writer Man 2537"
  },
  {
    "filename": "bblowjob.txt",
    "size": 9484,
    "description": "EROTICA: The Blow Job, by Anonymous"
  },
  {
    "filename": "bbonnie.txt",
    "size": 14770,
    "description": "EROTICA: Bonnie's Mom"
  },
  {
    "filename": "bbookgang.txt",
    "size": 9778,
    "description": "EROTICA: Bookstore Gangbang"
  },
  {
    "filename": "bbored.txt",
    "size": 48427,
    "description": "EROTICA: Tale of a Bored Housewife"
  },
  {
    "filename": "bboss.txt",
    "size": 13190,
    "description": "EROTICA: My Husband's Boss, and his Wife, by Craver"
  },
  {
    "filename": "bbreaking.txt",
    "size": 23834,
    "description": "EROTICA: Breaking, by Ourse"
  },
  {
    "filename": "bbreast.txt",
    "size": 11636,
    "description": "EROTICA: The Breast of Everything (Adventures of Sissy Dani)"
  },
  {
    "filename": "bbreath.txt",
    "size": 7612,
    "description": "EROTICA: Bad Breath? By Rich Humus (1997)"
  },
  {
    "filename": "bbrenda.txt",
    "size": 71544,
    "description": "EROTICA: Lust with Young Brenda, by Jonboy"
  },
  {
    "filename": "bbrother.txt",
    "size": 7787,
    "description": "EROTICA: Brother, by Deirdre (September 27, 1994)"
  },
  {
    "filename": "bbs3adv.txt",
    "size": 35840,
    "description": "STORY: My Adventures in Babysitting"
  },
  {
    "filename": "bbslovrs.txt",
    "size": 5622,
    "description": "EROTICA: The BBS Lovers"
  },
  {
    "filename": "bburglary.txt",
    "size": 23454,
    "description": "EROTICA: Burglary"
  },
  {
    "filename": "bbusiness.txt",
    "size": 28556,
    "description": "EROTICA: Business First"
  },
  {
    "filename": "bbw.txt",
    "size": 7637,
    "description": "EROTICA: With a BBW"
  },
  {
    "filename": "bd-clfrn.txt",
    "size": 11248,
    "description": "EROTICA: The Close Friends Birthday"
  },
  {
    "filename": "bd.txt",
    "size": 14762,
    "description": "EROTICA: BD: A Very Spicy Story Indeed"
  },
  {
    "filename": "bday_sur.txt",
    "size": 10701,
    "description": "EROTICA: The Birthday Surprise"
  },
  {
    "filename": "bdaygift.txt",
    "size": 36633,
    "description": "EROTICA: The Birthday Gift"
  },
  {
    "filename": "bdaygirl.txt",
    "size": 16563,
    "description": "EROTICA: The Birthday Girl, by J.D. Dyson"
  },
  {
    "filename": "bdaysurp.txt",
    "size": 14244,
    "description": "EROTICA: The Birthday Surprise"
  },
  {
    "filename": "bdaywish.txt",
    "size": 17887,
    "description": "EROTICA: The Birthday Wish"
  },
  {
    "filename": "bdfash.txt",
    "size": 11852,
    "description": "EROTICA: Discussion About Bondage Fashions"
  },
  {
    "filename": "bdinner1.txt",
    "size": 6016,
    "description": "EROTICA: Richard's B&D Dinner"
  },
  {
    "filename": "bdinner2.txt",
    "size": 26447,
    "description": "EROTICA: Richard's B&D Dinner Part 2"
  },
  {
    "filename": "bdinner3.txt",
    "size": 19644,
    "description": "EROTICA: Richard's B&D Dinner Part 3"
  },
  {
    "filename": "bdsm.txt",
    "size": 14193,
    "description": "EROTICA: Are we BDSM Yet?"
  },
  {
    "filename": "bdstory.txt",
    "size": 15249,
    "description": "EROTICA: Doorways"
  },
  {
    "filename": "bdstry1.txt",
    "size": 13742,
    "description": "EROTICA: Bondage Story"
  },
  {
    "filename": "bdstry2.txt",
    "size": 8252,
    "description": "EROTICA: Bondage Story"
  },
  {
    "filename": "be_still.txt",
    "size": 8358,
    "description": "EROTICA: Be Still"
  },
  {
    "filename": "beach-1.txt",
    "size": 23183,
    "description": "EROTICA: My Night in the Sun"
  },
  {
    "filename": "beach.txt",
    "size": 2375,
    "description": "EROTICA: Beach Bondage"
  },
  {
    "filename": "beach01.txt",
    "size": 10541,
    "description": "EROTICA: Annie, by Mike Mac"
  },
  {
    "filename": "beach02.txt",
    "size": 7760,
    "description": "EROTICA: Annie Part 2 by Mike Mac"
  },
  {
    "filename": "beach03.txt",
    "size": 7608,
    "description": "EROTICA: Annie Chapter 3 by Mike Mac"
  },
  {
    "filename": "beach04.txt",
    "size": 10216,
    "description": "EROTICA: Annie Chapter 4 by Mike Mac"
  },
  {
    "filename": "beach2.txt",
    "size": 27727,
    "description": "EROTICA: At the Beach"
  },
  {
    "filename": "beachboy.txt",
    "size": 6617,
    "description": "EROTICA: Beach Boy"
  },
  {
    "filename": "beaches.txt",
    "size": 12518,
    "description": "EROTICA: The Beaches, by Swamp Rat of The Brotherhood of Man (1989)"
  },
  {
    "filename": "beachvac.txt",
    "size": 67849,
    "description": "EROTICA: Beach Vacation"
  },
  {
    "filename": "beancity.txt",
    "size": 12284,
    "description": "EROTICA: Bean City"
  },
  {
    "filename": "bear.txt",
    "size": 14111,
    "description": "STORY: The Big Bear Weekend"
  },
  {
    "filename": "bearhunt.txt",
    "size": 4757,
    "description": "EROTICA: Bear Hunting"
  },
  {
    "filename": "bearsex1.txt",
    "size": 12752,
    "description": "EROTICA: Forest Tales #1: Stories from Lambda Park"
  },
  {
    "filename": "beatup-1.txt",
    "size": 15298,
    "description": "EROTICA: A Very Unpredictable Girl! by JT"
  },
  {
    "filename": "beauimbe.txt",
    "size": 13038,
    "description": "EROTICA: The Beautiful imbecile"
  },
  {
    "filename": "beaver.txt",
    "size": 111192,
    "description": "EROTICA: Eager Beaver's Sorority Initiation"
  },
  {
    "filename": "becky.txt",
    "size": 88656,
    "description": "EROTICA: Becky, by Red Rose (1998)"
  },
  {
    "filename": "become1.txt",
    "size": 8212,
    "description": "EROTICA: Becoming Wanda"
  },
  {
    "filename": "become2.txt",
    "size": 5358,
    "description": "EROTICA: Becoming Wanda Part 2"
  },
  {
    "filename": "bedtim04.txt",
    "size": 16427,
    "description": "EROTICA: A Wife Buys a Mistress, by kevin ANderson"
  },
  {
    "filename": "bedtim06.txt",
    "size": 15996,
    "description": "EROTICA: The Mistress's Secret, by Alan Michaels"
  },
  {
    "filename": "bedtime.txt",
    "size": 9538,
    "description": "EROTICA: Shadocat's Bedtime Story"
  },
  {
    "filename": "bedtime1.txt",
    "size": 19426,
    "description": "EROTICA: Odyssey of Submission by Katherine"
  },
  {
    "filename": "bedtime3.txt",
    "size": 15561,
    "description": "EROTICA: Memory of Three, by David Wolf"
  },
  {
    "filename": "bedtime4.txt",
    "size": 15273,
    "description": "EROTICA: A Wife Buys a Mistress"
  },
  {
    "filename": "bedtime5.txt",
    "size": 15659,
    "description": "EROTICA: The Gift of Pleasure"
  },
  {
    "filename": "bedtime6.txt",
    "size": 15994,
    "description": "EROTICA: Mistress's Secret by Alan Michaels"
  },
  {
    "filename": "bedtime7.txt",
    "size": 18452,
    "description": "EROTICA: Sweet Slave"
  },
  {
    "filename": "bedtimmy.txt",
    "size": 10092,
    "description": "EROTICA: A Bedtime Story for Timmy"
  },
  {
    "filename": "bedtmsty.txt",
    "size": 36794,
    "description": "EROTICA: Did it Really Happen?"
  },
  {
    "filename": "beggar.txt",
    "size": 21307,
    "description": "EROTICA: The Beggar by Barrett Robinson"
  },
  {
    "filename": "beginner.txt",
    "size": 13955,
    "description": "EROTICA: Horse Help, a Beginner's Guide"
  },
  {
    "filename": "behindbe.txt",
    "size": 18798,
    "description": "EROTICA: Behind Brown Eyes by Zippo (July 28, 1994)"
  },
  {
    "filename": "behndgym.txt",
    "size": 23768,
    "description": "EROTICA: Behind the Gym: Freshman Year"
  },
  {
    "filename": "beingirl.txt",
    "size": 7972,
    "description": "EROTICA: Being a Girl"
  },
  {
    "filename": "bek1.txt",
    "size": 25379,
    "description": "EROTICA: The Training of Rebecca Sue Vogel Part 1"
  },
  {
    "filename": "bek2.txt",
    "size": 25249,
    "description": "EROTICA: The Training of Rebecca Sue Vogel Part2"
  },
  {
    "filename": "bek3.txt",
    "size": 25463,
    "description": "EROTICA: The Training of Rebecca Sue Vogel Part 3"
  },
  {
    "filename": "bek4.txt",
    "size": 29983,
    "description": "EROTICA: The Training of Rebecca Sue Vogel Part 4"
  },
  {
    "filename": "bellboy.txt",
    "size": 17827,
    "description": "EROTICA: The Bellboy, by Ann Douglas"
  },
  {
    "filename": "benched.txt",
    "size": 5100,
    "description": "EROTICA: benched"
  },
  {
    "filename": "bend02.txt",
    "size": 16296,
    "description": "EROTICA: A Bend in the Road"
  },
  {
    "filename": "bend03.txt",
    "size": 18962,
    "description": "EROTICA: A Bend in the Road, by R. Palme"
  },
  {
    "filename": "bentley.txt",
    "size": 13243,
    "description": "EROTICA: Mr. Bentley"
  },
  {
    "filename": "bert.txt",
    "size": 176183,
    "description": "EROTICA: Bert Ellis by David Alexander"
  },
  {
    "filename": "best-lay.txt",
    "size": 5723,
    "description": "STORY: The Best Lay (Contains BBS Chowder, as Well)"
  },
  {
    "filename": "best.txt",
    "size": 11886,
    "description": "EROTICA: Best Friends by Rich Jones (1986)"
  },
  {
    "filename": "best_lay.txt",
    "size": 4915,
    "description": "STORY: The Best Lay"
  },
  {
    "filename": "bestever.txt",
    "size": 8192,
    "description": "EROTICA: Best Ever Sex Adventure, by Electro Porn"
  },
  {
    "filename": "bet.txt",
    "size": 7534,
    "description": "EROTICA: Bet, by Deirdre"
  },
  {
    "filename": "bet1.txt",
    "size": 3568,
    "description": "EROTICA: The Bet, by John Carter"
  },
  {
    "filename": "bet2.txt",
    "size": 3032,
    "description": "EROTICA: The Bet, by John Carter"
  },
  {
    "filename": "bet3.txt",
    "size": 3030,
    "description": "EROTICA: The Bet, by John Carter"
  },
  {
    "filename": "bet4.txt",
    "size": 7937,
    "description": "EROTICA: The Bet, by john Carter"
  },
  {
    "filename": "bet5.txt",
    "size": 6428,
    "description": "EROTICA: The Bet, by John Carter"
  },
  {
    "filename": "bet6.txt",
    "size": 3211,
    "description": "EROTICA: The Bet, by John Carter"
  },
  {
    "filename": "bet7.txt",
    "size": 7852,
    "description": "EROTICA: The Bet, by John Carter"
  },
  {
    "filename": "bet8.txt",
    "size": 1442,
    "description": "EROTICA: The Bet, by John Carter"
  },
  {
    "filename": "bet9.txt",
    "size": 5936,
    "description": "EROTICA: The Bet, by John Carter"
  },
  {
    "filename": "beth&len.txt",
    "size": 24400,
    "description": "EROTICA: Beth and Len"
  },
  {
    "filename": "beth&pat.txt",
    "size": 20354,
    "description": "EROTICA: Beth and Pat's Halloween"
  },
  {
    "filename": "beth-len.txt",
    "size": 24494,
    "description": "EROTICA: Beth and Len"
  },
  {
    "filename": "beth.txt",
    "size": 87739,
    "description": "EROTICA: Beth"
  },
  {
    "filename": "beth.xxx",
    "size": 9984,
    "description": "STORY: Young Innocence Lost, by Cunt N. Twathouse"
  },
  {
    "filename": "bethaman.txt",
    "size": 20396,
    "description": "EROTICA: Bethany and Amanda by No Spam Dave (1997)"
  },
  {
    "filename": "bethdiry.txt",
    "size": 14937,
    "description": "EROTICA: Home Improvement: Beth's Diary, by The Carnal Quill (November 10, 1994)"
  },
  {
    "filename": "betrayal.txt",
    "size": 38944,
    "description": "EROTICA: Intimate Betrayal, by Mercutio"
  },
  {
    "filename": "betsy.txt",
    "size": 19194,
    "description": "EROTICA: Betsy's Dream, by Tinker (October, 1994)"
  },
  {
    "filename": "betty.txt",
    "size": 24091,
    "description": "EROTICA: Betty"
  },
  {
    "filename": "beverly.txt",
    "size": 16025,
    "description": "EROTICA: Beverley's Holodeck Adventure, by Ann Douglas"
  },
  {
    "filename": "bevholo.txt",
    "size": 15781,
    "description": "EROTICA: Beverley's Holodeck Fantasy, by Ann Douglas"
  },
  {
    "filename": "bevtroi.txt",
    "size": 24708,
    "description": "EROTICA: Beverley and Troi: A Star Trek Love Story by Ann D"
  },
  {
    "filename": "bi-marr.txt",
    "size": 13917,
    "description": "EROTICA: Bi Marriage"
  },
  {
    "filename": "bi.txt",
    "size": 13582,
    "description": "EROTICA: Bi"
  },
  {
    "filename": "bi_linda.txt",
    "size": 10955,
    "description": "EROTICA: Bi Linda"
  },
  {
    "filename": "bicycle.txt",
    "size": 16633,
    "description": "EROTICA: Ode to a Boston Bicyclist"
  },
  {
    "filename": "bidorm.txt",
    "size": 8576,
    "description": "STORY: The College Dormitory Shower"
  },
  {
    "filename": "biexp1.txt",
    "size": 13391,
    "description": "EROTICA: My Bisexual Experience, by Super Tech"
  },
  {
    "filename": "bifamily.txt",
    "size": 17963,
    "description": "EROTICA: Bisexual Cousins by Christine Quinlan (1997)"
  },
  {
    "filename": "big_ball.txt",
    "size": 15312,
    "description": "EROTICA: A Hard Day at the Office"
  },
  {
    "filename": "big_boy.txt",
    "size": 20040,
    "description": "EROTICA: A Big Boy Spanking from Daddy by Foxxnet User Bunburn"
  },
  {
    "filename": "big_bro.txt",
    "size": 39547,
    "description": "EROTICA: Adam's Big Brother"
  },
  {
    "filename": "big_cock.txt",
    "size": 18925,
    "description": "EROTICA: Big Cock, Hot Jock"
  },
  {
    "filename": "big_dave.txt",
    "size": 11521,
    "description": "EROTICA: Big Dave"
  },
  {
    "filename": "big_loss.txt",
    "size": 15326,
    "description": "EROTICA: Susan's Big Loss"
  },
  {
    "filename": "big_sis.txt",
    "size": 11846,
    "description": "EROTICA: Big Sister, by Tufus Nails"
  },
  {
    "filename": "bigbear.txt",
    "size": 14250,
    "description": "EROTICA: The Big Bear Weekend"
  },
  {
    "filename": "bigbear2.txt",
    "size": 5858,
    "description": "EROTICA: The Big Bear Weekend 2"
  },
  {
    "filename": "bigbear3.txt",
    "size": 2549,
    "description": "EROTICA: The Big Bear Weekend 3"
  },
  {
    "filename": "bigboggy.txt",
    "size": 26989,
    "description": "EROTICA: Challenge at Big Boggy Part"
  },
  {
    "filename": "bigboss.txt",
    "size": 58292,
    "description": "EROTICA: Big Boss Lady by Warren J. Vehec"
  },
  {
    "filename": "bigbro.txt",
    "size": 5577,
    "description": "EROTICA: Big Brother"
  },
  {
    "filename": "bigcin01.txt",
    "size": 8143,
    "description": "EROTICA: Big Cindy - 1"
  },
  {
    "filename": "bigcin02.txt",
    "size": 8881,
    "description": "EROTICA: Big Cindy - 2"
  },
  {
    "filename": "bigcin03.txt",
    "size": 12605,
    "description": "EROTICA: Big Cindy - 3"
  },
  {
    "filename": "bigdaddy.txt",
    "size": 39284,
    "description": "EROTICA: Big Daddy's Plantation, by Belle Watling and Big Daddy"
  },
  {
    "filename": "bigfall.txt",
    "size": 15190,
    "description": "EROTICA: The Bigger they Fall, the Harder they Come, by Smoldre"
  },
  {
    "filename": "bigfamly.txt",
    "size": 22659,
    "description": "EROTICA: The Big Family by D. O. Mann"
  },
  {
    "filename": "biggirl.txt",
    "size": 17789,
    "description": "EROTICA: Your First Phredz"
  },
  {
    "filename": "bighips.txt",
    "size": 9831,
    "description": "EROTICA: Hips out to Here!"
  },
  {
    "filename": "bignite1.txt",
    "size": 16054,
    "description": "EROTICA: One Big Nite by D.J.M."
  },
  {
    "filename": "bigone.txt",
    "size": 407942,
    "description": "EROTICA: The Camping Trip, by Jonboy (June 20, 1996)"
  },
  {
    "filename": "bigsis.txt",
    "size": 15494,
    "description": "EROTICA: Helping Out Sis by Drake (1997)"
  },
  {
    "filename": "bike.txt",
    "size": 11535,
    "description": "EROTICA: Clyde: A Fucking Biker, by Lance Kester"
  },
  {
    "filename": "bikegrls.txt",
    "size": 7890,
    "description": "EROTICA: Biker Girls"
  },
  {
    "filename": "biker.txt",
    "size": 11813,
    "description": "EROTICA: Biker Slave"
  },
  {
    "filename": "bikertoy.txt",
    "size": 46028,
    "description": "EROTICA: Biker Weekend"
  },
  {
    "filename": "bikeshow.txt",
    "size": 11633,
    "description": "EROTICA: Biker Slave"
  },
  {
    "filename": "biketoy1.txt",
    "size": 32679,
    "description": "EROTICA: Biker Weekend"
  },
  {
    "filename": "biketoy2.txt",
    "size": 13794,
    "description": "EROTICA: The Bike Toy"
  },
  {
    "filename": "bikini.txt",
    "size": 18897,
    "description": "EROTICA: Bikini Party Bound"
  },
  {
    "filename": "biljean.txt",
    "size": 46211,
    "description": "EROTICA: Training Billie Jean"
  },
  {
    "filename": "bill.txt",
    "size": 19157,
    "description": "EROTICA: Bill, by Luke Owens"
  },
  {
    "filename": "billy.txt",
    "size": 29685,
    "description": "EROTICA: Billy's Education, by Eros"
  },
  {
    "filename": "billy1.txt",
    "size": 11135,
    "description": "EROTICA: Billy Meets His Master, by Frank Albertson"
  },
  {
    "filename": "billy2.txt",
    "size": 11453,
    "description": "EROTICA: BIlly Meets His Master, by Frank Albertson"
  },
  {
    "filename": "billy_jo.txt",
    "size": 10244,
    "description": "EROTICA: Billy Jo"
  },
  {
    "filename": "billyboy.txt",
    "size": 17134,
    "description": "EROTICA: Billy Boy, by Ruiner/Godspit"
  },
  {
    "filename": "bilyspot.txt",
    "size": 7875,
    "description": "EROTICA: Billy's Spot, by Randy Boys"
  },
  {
    "filename": "bird1xxx.txt",
    "size": 52736,
    "description": "EROTICA: Birdwatchers"
  },
  {
    "filename": "bird2xxx.txt",
    "size": 59776,
    "description": "EROTICA: Birdwatcher's Song"
  },
  {
    "filename": "bird3xxx.txt",
    "size": 55911,
    "description": "EROTICA: Bird in the Hand"
  },
  {
    "filename": "birdhand.txt",
    "size": 56704,
    "description": "STORY: A Bird In the Hand"
  },
  {
    "filename": "birthday.txt",
    "size": 5944,
    "description": "EROTICA: The Birthday Gift, by Dorian Henao"
  },
  {
    "filename": "birthdy2.txt",
    "size": 11195,
    "description": "EROTICA: Birthday Party"
  },
  {
    "filename": "birthsex.txt",
    "size": 5750,
    "description": "EROTICA: Birthday Fling by Marc \"Ranfry\" Lombart"
  },
  {
    "filename": "bitb.txt",
    "size": 13562,
    "description": "STORY: Greystones in April 23, 1904"
  },
  {
    "filename": "bitb2.txt",
    "size": 11614,
    "description": "STORY: Greystones on April 24, 1904"
  },
  {
    "filename": "bitch.txt",
    "size": 38759,
    "description": "EROTICA: The Dominany Bitch"
  },
  {
    "filename": "bitch1.txt",
    "size": 25179,
    "description": "EROTICA: Bitch"
  },
  {
    "filename": "biter.txt",
    "size": 12567,
    "description": "EROTICA: Biter and Stinger"
  },
  {
    "filename": "bitsweet.txt",
    "size": 25244,
    "description": "EROTICA: Bitter-Sweet"
  },
  {
    "filename": "bitter.txt",
    "size": 28752,
    "description": "EROTICA: The Bitter End"
  },
  {
    "filename": "biweek1a.txt",
    "size": 11731,
    "description": "EROTICA: New Experiences"
  },
  {
    "filename": "biwife.txt",
    "size": 24279,
    "description": "EROTICA: A True and Fun Story about my Bi Wife"
  },
  {
    "filename": "blackie.txt",
    "size": 34455,
    "description": "EROTICA: Blackie"
  },
  {
    "filename": "blackmailedm.txt",
    "size": 526421,
    "description": "EROTICA: The Blackmailed Mother"
  },
  {
    "filename": "blackout.txt",
    "size": 29181,
    "description": "EROTICA: Black Out, by Your Cruise Director"
  },
  {
    "filename": "blackstd.txt",
    "size": 5660,
    "description": "EROTICA: Black Stud"
  },
  {
    "filename": "blacksun.txt",
    "size": 42988,
    "description": "EROTICA: Black Sunday, by Wes"
  },
  {
    "filename": "blakmail.txt",
    "size": 134043,
    "description": "EROTICA: Blackmailing the Queen"
  },
  {
    "filename": "blankwar.txt",
    "size": 16041,
    "description": "EROTICA: Blanket Wars by Joe Mattis"
  },
  {
    "filename": "blind.txt",
    "size": 2768,
    "description": "EROTICA: Blind Man's Bluff by Writer Man 2537"
  },
  {
    "filename": "blindate.txt",
    "size": 18415,
    "description": "EROTICA: Blind Date, by Roger P. Tipe"
  },
  {
    "filename": "bliss.txt",
    "size": 7261,
    "description": "STORY: Bliss of Bondage, by Ms. E.M."
  },
  {
    "filename": "blkmale2.txt",
    "size": 60764,
    "description": "EROTICA: Blackmailed: Only the Beginning?"
  },
  {
    "filename": "blkml-01.txt",
    "size": 12988,
    "description": "EROTICA: Blackmailing the Queen Chapter 1"
  },
  {
    "filename": "blkml-02.txt",
    "size": 7167,
    "description": "EROTICA: Blackmailing the Queen Chapter 2"
  },
  {
    "filename": "blkml-03.txt",
    "size": 6522,
    "description": "EROTICA: Blackmailing the Queen Chapter 3"
  },
  {
    "filename": "blkml-04.txt",
    "size": 10088,
    "description": "EROTICA: Blackmailing the Queen Chapter 4"
  },
  {
    "filename": "blkml-05.txt",
    "size": 12942,
    "description": "EROTICA: Blackmailing the Queen Chapter 5"
  },
  {
    "filename": "blkml-06.txt",
    "size": 8513,
    "description": "EROTICA: Blackmailing the Queen Chapter 6"
  },
  {
    "filename": "blkml-07.txt",
    "size": 13167,
    "description": "EROTICA: Blackmailing the Queen Chapter 7"
  },
  {
    "filename": "blkml-08.txt",
    "size": 6216,
    "description": "EROTICA: Blackmailing the Queen Chapter 8"
  },
  {
    "filename": "blkml-09.txt",
    "size": 6499,
    "description": "EROTICA: Blackmailing the Queen Chapter 9"
  },
  {
    "filename": "blkml-10.txt",
    "size": 17560,
    "description": "EROTICA: Blackmailing the Queen Chapter 10"
  },
  {
    "filename": "blkml-11.txt",
    "size": 12155,
    "description": "EROTICA: Blackmailing the Queen Chapter 11"
  },
  {
    "filename": "blkml-12.txt",
    "size": 10858,
    "description": "EROTICA: Blackmailing the Queen Chapter 12"
  },
  {
    "filename": "blkml-13.txt",
    "size": 9685,
    "description": "EROTICA: Blackmailing the Queen Chapter 13"
  },
  {
    "filename": "blkmsis.txt",
    "size": 17086,
    "description": "EROTICA: Blackmailing Little Sister by The Bard"
  },
  {
    "filename": "blkonw~1.txt",
    "size": 14156,
    "description": "EROTICA: Black on White by Simple Simon (November 1, 1997)"
  },
  {
    "filename": "blkstud1.txt",
    "size": 17365,
    "description": "EROTICA: Black Stud"
  },
  {
    "filename": "blkstud2.txt",
    "size": 16880,
    "description": "EROTICA: Black Stud Chapter 2"
  },
  {
    "filename": "blktake.txt",
    "size": 66739,
    "description": "EROTICA: Black Takeover by Paladin"
  },
  {
    "filename": "blondage.txt",
    "size": 5234,
    "description": "EROTICA: Melrose Place: Blondage, by Adrian Hunter"
  },
  {
    "filename": "blonde.txt",
    "size": 23223,
    "description": "EROTICA: Blonde"
  },
  {
    "filename": "blondes3.txt",
    "size": 13505,
    "description": "EROTICA: Toys will be Toys"
  },
  {
    "filename": "blood.txt",
    "size": 18414,
    "description": "EROTICA: Blood"
  },
  {
    "filename": "bloodcho.txt",
    "size": 8405,
    "description": "EROTICA: Blood, Chocolate and Cum by Christian Longshore Claiborn"
  },
  {
    "filename": "bloodros.txt",
    "size": 28033,
    "description": "EROTICA: The Bloodrose, by Quentin Rhodes"
  },
  {
    "filename": "blooming.txt",
    "size": 54974,
    "description": "EROTICA: Blooming in the Spring, or Too Much of a Good Thing?"
  },
  {
    "filename": "blowjob.txt",
    "size": 3261,
    "description": "EROTICA: The Blow Job, by Anonymous"
  },
  {
    "filename": "bluebox1.txt",
    "size": 30411,
    "description": "EROTICA: The Bluebox - 1"
  },
  {
    "filename": "bluebox2.txt",
    "size": 31541,
    "description": "EROTICA: The Bluebox - 2"
  },
  {
    "filename": "bluebox3.txt",
    "size": 34838,
    "description": "EROTICA: The Bluebox - 3"
  },
  {
    "filename": "bluebox4.txt",
    "size": 31150,
    "description": "EROTICA: The Bluebox - 4"
  },
  {
    "filename": "bluebox5.txt",
    "size": 28567,
    "description": "EROTICA: The Bluebox - 5"
  },
  {
    "filename": "bluebox6.txt",
    "size": 33315,
    "description": "EROTICA: The Bluebox - 6"
  },
  {
    "filename": "bluebox7.txt",
    "size": 29655,
    "description": "EROTICA: The Bluebox - 7"
  },
  {
    "filename": "bluebox8.txt",
    "size": 40186,
    "description": "EROTICA: The Bluebox - 8"
  },
  {
    "filename": "bluelite.txt",
    "size": 66546,
    "description": "EROTICA: Blue Light, by Aaron Travis"
  },
  {
    "filename": "bluestel.txt",
    "size": 22133,
    "description": "EROTICA: Untitled Exploration by Gordon Watts"
  },
  {
    "filename": "bmwf1~1.txt",
    "size": 13288,
    "description": "EROTICA: The First Time, by HomeShows (July 22, 1997)"
  },
  {
    "filename": "bnd.txt",
    "size": 174561,
    "description": "EROTICA: Five Years, by The Lizard"
  },
  {
    "filename": "bnglo.txt",
    "size": 4718,
    "description": "EROTICA: The Bungalow"
  },
  {
    "filename": "boarding.txt",
    "size": 23114,
    "description": "EROTICA: Boarding School Boys"
  },
  {
    "filename": "bob&lin.txt",
    "size": 38228,
    "description": "EROTICA: Bobby and Linda Get Spanked"
  },
  {
    "filename": "bob.txt",
    "size": 106985,
    "description": "EROTICA: Bob"
  },
  {
    "filename": "bob1.txt",
    "size": 25167,
    "description": "EROTICA: Bob Gets His - Part 1 by Ruth White"
  },
  {
    "filename": "bob2.txt",
    "size": 29551,
    "description": "EROTICA: Bob Gets His - Part 2 by Ruth White"
  },
  {
    "filename": "bob3.txt",
    "size": 31649,
    "description": "EROTICA: Bob Gets His - Part 3 by Ruth White"
  },
  {
    "filename": "bobbi.txt",
    "size": 306535,
    "description": "EROTICA: Bobbie Sue by Hawaiian Heat (August 15, 1996)"
  },
  {
    "filename": "bobbie.txt",
    "size": 13252,
    "description": "EROTICA: Bobbie's Dilemna"
  },
  {
    "filename": "bobbie1.txt",
    "size": 40548,
    "description": "EROTICA: Bobbie: A Girl's Own Story by Leigh De Santa Fe (1990)"
  },
  {
    "filename": "bodysurf.txt",
    "size": 13569,
    "description": "EROTICA: Bodysurfing"
  },
  {
    "filename": "boffing.txt",
    "size": 5185,
    "description": "EROTICA: Boffing Mom, by Eros"
  },
  {
    "filename": "boffmom.txt",
    "size": 5630,
    "description": "EROTICA: Boffing Mom, by Eros (1997)"
  },
  {
    "filename": "bondag1.txt",
    "size": 14570,
    "description": "EROTICA: New Girls in Town by L. J. J. Hanson (1989)"
  },
  {
    "filename": "bondag2.txt",
    "size": 15173,
    "description": "EROTICA: New Girl in Town by L. J. J. Hanson (Part II) (1989)"
  },
  {
    "filename": "bondfate.txt",
    "size": 36848,
    "description": "EROTICA: Bound by Fate"
  },
  {
    "filename": "bonmem.txt",
    "size": 6857,
    "description": "EROTICA: Bondage Memories by Sir Stephen"
  },
  {
    "filename": "bonnie.txt",
    "size": 176884,
    "description": "EROTICA: Bonnie's Mom"
  },
  {
    "filename": "bonus.txt",
    "size": 50083,
    "description": "EROTICA: Small Bonus by Snidley"
  },
  {
    "filename": "book.txt",
    "size": 209143,
    "description": "EROTICA: Book, The"
  },
  {
    "filename": "bookgang.txt",
    "size": 9733,
    "description": "EROTICA: Bookstore Gangbang"
  },
  {
    "filename": "booksale.txt",
    "size": 16718,
    "description": "EROTICA: Book Sale by Carol"
  },
  {
    "filename": "bookshlf.txt",
    "size": 4224,
    "description": "EROTICA: The Bookshelf"
  },
  {
    "filename": "bookstor.txt",
    "size": 10893,
    "description": "EROTICA: Adult Bookstore"
  },
  {
    "filename": "booth",
    "size": 38429,
    "description": "STORY: My Afternoon in the Booth, by Mary Nolan"
  },
  {
    "filename": "booth.txt",
    "size": 38837,
    "description": "EROTICA: Afternoon in the Booth, by Mary Nolan"
  },
  {
    "filename": "bored.txt",
    "size": 21104,
    "description": "EROTICA: Tale of a Bored Housewife"
  },
  {
    "filename": "borrower.txt",
    "size": 100183,
    "description": "EROTICA: The Borrower: A DS9 Short Story by Janis Cortese"
  },
  {
    "filename": "bosieboy.txt",
    "size": 16669,
    "description": "EROTICA: Bosie Boy"
  },
  {
    "filename": "boss-two.txt",
    "size": 33815,
    "description": "EROTICA: The Boss her Niece and Beth"
  },
  {
    "filename": "boss.txt",
    "size": 27748,
    "description": "EROTICA: My Husband's Boss, and his Wife, by Craver"
  },
  {
    "filename": "boss01.txt",
    "size": 27721,
    "description": "EROTICA: The Boss by Dr. Phil"
  },
  {
    "filename": "boss02.txt",
    "size": 15985,
    "description": "EROTICA: The Boss Part 2 by Dr. Phil"
  },
  {
    "filename": "boss03.txt",
    "size": 15709,
    "description": "EROTICA: The Boss Part 3 by Dr. Phil"
  },
  {
    "filename": "bossbarb.txt",
    "size": 12130,
    "description": "EROTICA: Bossy Barbara by Studs Manly (1997)"
  },
  {
    "filename": "botique.txt",
    "size": 18615,
    "description": "EROTICA: In the Botique"
  },
  {
    "filename": "bottier.txt",
    "size": 15839,
    "description": "EROTICA: Bottier 12"
  },
  {
    "filename": "bottle.txt",
    "size": 13988,
    "description": "EROTICA: John, Carole and a Bottle by John Sellers"
  },
  {
    "filename": "bounded.txt",
    "size": 21238,
    "description": "EROTICA: Bounded Bucks"
  },
  {
    "filename": "boundfun.txt",
    "size": 126844,
    "description": "EROTICA: Bound for Fun"
  },
  {
    "filename": "boundluv.txt",
    "size": 2240,
    "description": "EROTICA: Bound Love"
  },
  {
    "filename": "bowl-2.txt",
    "size": 12042,
    "description": "EROTICA: Lust at the Bowling Alley"
  },
  {
    "filename": "bowling.txt",
    "size": 14232,
    "description": "EROTICA: Lust at the Bowling Alley"
  },
  {
    "filename": "boy&dog.txt",
    "size": 5199,
    "description": "EROTICA: A Boy and His Dog"
  },
  {
    "filename": "boy-dog.txt",
    "size": 5416,
    "description": "EROTICA: A Boy and His Dog by Christopher Robin"
  },
  {
    "filename": "boy.txt",
    "size": 13793,
    "description": "EROTICA: The Boy"
  },
  {
    "filename": "boyfrend.txt",
    "size": 20195,
    "description": "EROTICA: The Boyfriend, by Caesar"
  },
  {
    "filename": "boyfrnd.txt",
    "size": 19909,
    "description": "EROTICA: The Boyfriend, by Caesar"
  },
  {
    "filename": "boylearn.txt",
    "size": 13234,
    "description": "EROTICA: A Boy Learns Respect"
  },
  {
    "filename": "boysnext.txt",
    "size": 63334,
    "description": "EROTICA: The Boys Next Door"
  },
  {
    "filename": "bparty.txt",
    "size": 9830,
    "description": "EROTICA: The Beer Party"
  },
  {
    "filename": "bpicnic.txt",
    "size": 8075,
    "description": "EROTICA: Business Picnic"
  },
  {
    "filename": "bracelet.txt",
    "size": 7986,
    "description": "EROTICA: Bracelet, by Deirdre"
  },
  {
    "filename": "brad&jim.txt",
    "size": 18751,
    "description": "EROTICA: Brad and Jim"
  },
  {
    "filename": "bradbry3.txt",
    "size": 18429,
    "description": "EROTICA: The Continuing Story of Brad and Barry"
  },
  {
    "filename": "brady.txt",
    "size": 11153,
    "description": "EROTICA: In the Brady Household"
  },
  {
    "filename": "brady1.txt",
    "size": 59154,
    "description": "EROTICA: A Very Brady Orgy by Ed Dippus"
  },
  {
    "filename": "bradybch.txt",
    "size": 10328,
    "description": "EROTICA: The Brady Bunch"
  },
  {
    "filename": "bradybun.txt",
    "size": 48369,
    "description": "EROTICA: The Erotic Adventures of the Brady Bunch"
  },
  {
    "filename": "bradybv2.txt",
    "size": 5456,
    "description": "EROTICA: The Brady Bunch Story Pt II"
  },
  {
    "filename": "brand.txt",
    "size": 6594,
    "description": "EROTICA: My Brand of Slave"
  },
  {
    "filename": "brandi1.txt",
    "size": 53576,
    "description": "STORY: Brandi: House-sitting"
  },
  {
    "filename": "brandi2.txt",
    "size": 58350,
    "description": "STORY: Brandi: Graduation"
  },
  {
    "filename": "brandi3.txt",
    "size": 46984,
    "description": "STORY: Brandi: The Interview"
  },
  {
    "filename": "brandy.txt",
    "size": 23237,
    "description": "EROTICA: Brandy"
  },
  {
    "filename": "brawear1.txt",
    "size": 11311,
    "description": "EROTICA: A Bra For Mickey by Terri Merritt"
  },
  {
    "filename": "brawling.txt",
    "size": 23291,
    "description": "EROTICA: Brawling Bikers, by Hank \"The Hammer\" Trout"
  },
  {
    "filename": "brdsmaid.txt",
    "size": 9562,
    "description": "EROTICA: Bridesmaid, by Deirdre"
  },
  {
    "filename": "break.txt",
    "size": 10627,
    "description": "EROTICA: Break and Enter, by Valvoline Dream (1993)"
  },
  {
    "filename": "break_in.txt",
    "size": 35403,
    "description": "EROTICA: Loende, 0545"
  },
  {
    "filename": "breakers.txt",
    "size": 11645,
    "description": "EROTICA: Breakers"
  },
  {
    "filename": "breaking.txt",
    "size": 12735,
    "description": "EROTICA: Breaking, by Ourse"
  },
  {
    "filename": "breast.txt",
    "size": 11349,
    "description": "EROTICA: The Breast of Everything (Adventures of Sissy Dani)"
  },
  {
    "filename": "breast3.txt",
    "size": 4499,
    "description": "EROTICA: A Breast Fantasy"
  },
  {
    "filename": "breeding.txt",
    "size": 16520,
    "description": "EROTICA: The Breeding Bitch"
  },
  {
    "filename": "breeze.2",
    "size": 19096,
    "description": "EROTICA: The Breeze"
  },
  {
    "filename": "breeze.3",
    "size": 10731,
    "description": "EROTICA: The Breeze"
  },
  {
    "filename": "breeze.4",
    "size": 13742,
    "description": "EROTICA: The Breeze"
  },
  {
    "filename": "breeze.5",
    "size": 14404,
    "description": "EROTICA: The Breeze"
  },
  {
    "filename": "breeze.6",
    "size": 10887,
    "description": "EROTICA: The Breeze"
  },
  {
    "filename": "breeze.8",
    "size": 14707,
    "description": "EROTICA: The Breeze"
  },
  {
    "filename": "breeze.9",
    "size": 13210,
    "description": "EROTICA: The Breeze"
  },
  {
    "filename": "breeze.txt",
    "size": 12195,
    "description": "EROTICA: A Breeze, by David Lee"
  },
  {
    "filename": "brenblk1.txt",
    "size": 16023,
    "description": "EROTICA: Brenda Gets Blacked!"
  },
  {
    "filename": "brenblk2.txt",
    "size": 16904,
    "description": "EROTICA: Brenda Gets Blacked! Chapter 2"
  },
  {
    "filename": "brenblk3.txt",
    "size": 8723,
    "description": "EROTICA: Brenda Gets Blacked! Chapter 3"
  },
  {
    "filename": "brenblk4.txt",
    "size": 11084,
    "description": "EROTICA: Brenda Gets Blacked! Chapter 4"
  },
  {
    "filename": "brenblk5.txt",
    "size": 7206,
    "description": "EROTICA: Brenda Gets Blacked! Chapter 5"
  },
  {
    "filename": "brenblk6.txt",
    "size": 11430,
    "description": "EROTICA: Brenda Gets Blacked! Chapter 6"
  },
  {
    "filename": "brenblk7.txt",
    "size": 14348,
    "description": "EROTICA: Brenda Gets Blacked! Chapter 7"
  },
  {
    "filename": "brenblk8.txt",
    "size": 12430,
    "description": "EROTICA: Brenda Gets Blacked! Chapter 8"
  },
  {
    "filename": "brenblk9.txt",
    "size": 8470,
    "description": "EROTICA: Brenda Gets Blacked! Chapter 9"
  },
  {
    "filename": "brenda.txt",
    "size": 21645,
    "description": "EROTICA: Lust with Young Brenda, by Jonboy"
  },
  {
    "filename": "brendas.txt",
    "size": 52535,
    "description": "EROTICA: Brenda Goes to the Bahamas"
  },
  {
    "filename": "brendsty.txt",
    "size": 4168,
    "description": "EROTICA: Brenda's Story - part 1"
  },
  {
    "filename": "breslar.txt",
    "size": 77754,
    "description": "EROTICA: Reclaiming Breslar by Dafydd Cyhoeddwr"
  },
  {
    "filename": "briancrl.txt",
    "size": 8261,
    "description": "EROTICA: Brian and Carl, by Young Gun"
  },
  {
    "filename": "brianmom.txt",
    "size": 13265,
    "description": "EROTICA: Brian's Mom, by Daddy Robert"
  },
  {
    "filename": "bride.txt",
    "size": 7972,
    "description": "EROTICA: Here Comes the \"Bride\""
  },
  {
    "filename": "bridetrn.txt",
    "size": 52092,
    "description": "EROTICA: The Bride's Turn"
  },
  {
    "filename": "bridrape.txt",
    "size": 3188,
    "description": "EROTICA: Rape of the Bride by Mark E. Dassad"
  },
  {
    "filename": "briefs.txt",
    "size": 8355,
    "description": "EROTICA: Hot Brief Sex"
  },
  {
    "filename": "bringing.txt",
    "size": 5219,
    "description": "EROTICA: Bringing Up Baby"
  },
  {
    "filename": "brittany.txt",
    "size": 6476,
    "description": "EROTICA: Brittany"
  },
  {
    "filename": "brittny.txt",
    "size": 22327,
    "description": "EROTICA: Brittany's Bachelorette Party by Big Daddy (1997)"
  },
  {
    "filename": "brittny1.txt",
    "size": 44569,
    "description": "EROTICA: Brittany I by Steve Jensen"
  },
  {
    "filename": "brittny2.txt",
    "size": 17706,
    "description": "EROTICA: Brittany II by Steve Jensen"
  },
  {
    "filename": "brittny3.txt",
    "size": 26294,
    "description": "EROTICA: Brittany III by Steve Jensen"
  },
  {
    "filename": "brittny4.txt",
    "size": 22885,
    "description": "EROTICA: Brittany IV by Steve Jensen"
  },
  {
    "filename": "brkndrum.txt",
    "size": 75413,
    "description": "EROTICA: The Broken Drum by Hagar Poppa Dux, FAO Friend"
  },
  {
    "filename": "bro&sis1.txt",
    "size": 63717,
    "description": "EROTICA: Brothers and Sisters, by GodSpit (1998)"
  },
  {
    "filename": "bro&sis2.txt",
    "size": 31186,
    "description": "EROTICA: Brothers and Sisters, by Godspit (1997)"
  },
  {
    "filename": "bro_sis.txt",
    "size": 13069,
    "description": "EROTICA: Brother and Sister"
  },
  {
    "filename": "bro_sis1.txt",
    "size": 7716,
    "description": "EROTICA: Brothers and Sisters - Part One"
  },
  {
    "filename": "broknson.txt",
    "size": 12763,
    "description": "EROTICA: Broken-in Son by Jonathan"
  },
  {
    "filename": "brolove.txt",
    "size": 39545,
    "description": "EROTICA: A Brother's Love, by Stephen Peters (1998)"
  },
  {
    "filename": "bronsis.txt",
    "size": 18706,
    "description": "EROTICA: The Clever Three"
  },
  {
    "filename": "brosex.txt",
    "size": 6808,
    "description": "EROTICA: Brother's Sex Slave"
  },
  {
    "filename": "brothcal.txt",
    "size": 31569,
    "description": "EROTICA: My Brother's Girl by Spudboy (1998)"
  },
  {
    "filename": "brother.txt",
    "size": 40226,
    "description": "EROTICA: Brother, by Deirdre (September 27, 1994)"
  },
  {
    "filename": "brothers.txt",
    "size": 7365,
    "description": "EROTICA: Brothers"
  },
  {
    "filename": "brothrly.txt",
    "size": 5923,
    "description": "EROTICA: Brotherly Love by Sexy Brunette"
  },
  {
    "filename": "brown.txt",
    "size": 32693,
    "description": "EROTICA: Brown Nosing, by Phil Phantom"
  },
  {
    "filename": "brownose.txt",
    "size": 33056,
    "description": "EROTICA: Brown Nosing, by Phil Phantom"
  },
  {
    "filename": "brunette.txt",
    "size": 28453,
    "description": "EROTICA: Brunette, by Jea"
  },
  {
    "filename": "brwneyes.txt",
    "size": 8805,
    "description": "EROTICA: Behind Brown Eyes by Cory Lea Kerens"
  },
  {
    "filename": "bschool1.txt",
    "size": 12888,
    "description": "EROTICA: Boys School"
  },
  {
    "filename": "bsitgkid.txt",
    "size": 11654,
    "description": "EROTICA: Babysitting Richard's Grandkids, by Raybolt (1998)"
  },
  {
    "filename": "bspank.txt",
    "size": 14530,
    "description": "EROTICA: Alyse's Birthday"
  },
  {
    "filename": "bsrapist.txt",
    "size": 22970,
    "description": "EROTICA: The Therapist"
  },
  {
    "filename": "bstfrnds.txt",
    "size": 10363,
    "description": "EROTICA: Best Friends, by Ann Douglas"
  },
  {
    "filename": "btd.txt",
    "size": 20864,
    "description": "EROTICA: Beyond the Dunes, by Pedros (1997)"
  },
  {
    "filename": "btstory.txt",
    "size": 23862,
    "description": "EROTICA: Bedtime Story"
  },
  {
    "filename": "bubbling.txt",
    "size": 2680,
    "description": "EROTICA: Bubbling"
  },
  {
    "filename": "buck.txt",
    "size": 22198,
    "description": "EROTICA: Buck"
  },
  {
    "filename": "buckaroo.txt",
    "size": 22178,
    "description": "STORY: Hey There, Buckaroo"
  },
  {
    "filename": "budbundy.txt",
    "size": 20047,
    "description": "EROTICA: A Night with Bud Bundy"
  },
  {
    "filename": "budi.txt",
    "size": 3195,
    "description": "EROTICA: Educating Budi"
  },
  {
    "filename": "buffybb.txt",
    "size": 58348,
    "description": "EROTICA: Buffy James and BB, by BillyG (1997)"
  },
  {
    "filename": "bull_god.txt",
    "size": 6442,
    "description": "EROTICA: The Bull God"
  },
  {
    "filename": "bullgod.txt",
    "size": 6510,
    "description": "EROTICA: Bull God, The"
  },
  {
    "filename": "bunkmate.txt",
    "size": 10761,
    "description": "EROTICA: Bunk Mates"
  },
  {
    "filename": "buns.txt",
    "size": 54298,
    "description": "EROTICA: Buns"
  },
  {
    "filename": "burglary.txt",
    "size": 22728,
    "description": "EROTICA: Burglary"
  },
  {
    "filename": "burgular.txt",
    "size": 16361,
    "description": "EROTICA: Burgular"
  },
  {
    "filename": "burly.txt",
    "size": 15081,
    "description": "EROTICA: The Burly Paper Town Man by Martin"
  },
  {
    "filename": "burning.txt",
    "size": 20222,
    "description": "EROTICA: Burning"
  },
  {
    "filename": "burroluv.txt",
    "size": 2798,
    "description": "EROTICA: Burro Love"
  },
  {
    "filename": "bus_boy.txt",
    "size": 27035,
    "description": "EROTICA: The Bus Boy, by Fan Cha Phaw"
  },
  {
    "filename": "bus_ride.txt",
    "size": 14276,
    "description": "EROTICA: Bus Ride"
  },
  {
    "filename": "bus_stop.txt",
    "size": 20752,
    "description": "EROTICA: Bus Stop"
  },
  {
    "filename": "busfirst.txt",
    "size": 27503,
    "description": "EROTICA: Business First"
  },
  {
    "filename": "business.txt",
    "size": 28556,
    "description": "EROTICA: Business First"
  },
  {
    "filename": "busitrip.txt",
    "size": 27824,
    "description": "EROTICA: The Business Trip"
  },
  {
    "filename": "busstop.txt",
    "size": 3093,
    "description": "EROTICA: Dream fantasy  ( a la Gloria)"
  },
  {
    "filename": "bust_up.txt",
    "size": 13114,
    "description": "EROTICA: Bust Up, by Dr. Enlarge (1994)"
  },
  {
    "filename": "busyman.txt",
    "size": 7419,
    "description": "EROTICA: The Busy Man"
  },
  {
    "filename": "butter.txt",
    "size": 235567,
    "description": "EROTICA: New Neighbors - Chapter 8"
  },
  {
    "filename": "buttfuck.txt",
    "size": 10191,
    "description": "EROTICA: How to Buttfuck"
  },
  {
    "filename": "buttons.txt",
    "size": 5865,
    "description": "EROTICA: The Buttons, by V. P. Viddler"
  },
  {
    "filename": "buttplay.txt",
    "size": 9729,
    "description": "EROTICA: Butt Play, by Don Fox"
  },
  {
    "filename": "buttrfly.txt",
    "size": 6989,
    "description": "EROTICA: Butterfly"
  },
  {
    "filename": "buttrflz.txt",
    "size": 23224,
    "description": "EROTICA: Butterfly People"
  },
  {
    "filename": "buzzer.txt",
    "size": 3856,
    "description": "EROTICA: Buzzin' Around, by Bill One"
  },
  {
    "filename": "bye.txt",
    "size": 4096,
    "description": "EROTICA: The End, by Friend: Bye Bye Willy (March 6, 1997)"
  },
  {
    "filename": "byesteve.txt",
    "size": 11075,
    "description": "EROTICA: Oppen Marriage Chronicles: Good-bye, Steven"
  },
  {
    "filename": "bywendy.txt",
    "size": 17639,
    "description": "EROTICA: A Story, by Wendy"
  }
]
