[
  {
    "filename": "0",
    "size": null,
    "description": "Erotica Beginning with Numbers"
  },
  {
    "filename": "A",
    "size": null,
    "description": "Erotica Beginning with the letter \"A\""
  },
  {
    "filename": "B",
    "size": null,
    "description": "Erotica Beginning with the letter \"B\""
  },
  {
    "filename": "C",
    "size": null,
    "description": "Erotica Beginning with the letter \"C\""
  },
  {
    "filename": "D",
    "size": null,
    "description": "Erotica Beginning with the letter \"D\""
  },
  {
    "filename": "E",
    "size": null,
    "description": "Erotica Beginning with the letter \"E\""
  },
  {
    "filename": "F",
    "size": null,
    "description": "Erotica Beginning with the letter \"F\""
  },
  {
    "filename": "G",
    "size": null,
    "description": "Erotica Beginning with the letter \"G\""
  },
  {
    "filename": "H",
    "size": null,
    "description": "Erotica Beginning with the letter \"H\""
  },
  {
    "filename": "I",
    "size": null,
    "description": "Erotica Beginning with the letter \"I\""
  },
  {
    "filename": "J",
    "size": null,
    "description": "Erotica Beginning with the letter \"J\""
  },
  {
    "filename": "K",
    "size": null,
    "description": "Erotica Beginning with the letter \"K\""
  },
  {
    "filename": "L",
    "size": null,
    "description": "Erotica Beginning with the letter \"L\""
  },
  {
    "filename": "M",
    "size": null,
    "description": "Erotica Beginning with the letter \"M\""
  },
  {
    "filename": "N",
    "size": null,
    "description": "Erotica Beginning with the letter \"N\""
  },
  {
    "filename": "O",
    "size": null,
    "description": "Erotica Beginning with the letter \"O\""
  },
  {
    "filename": "P",
    "size": null,
    "description": "Erotica Beginning with the letter \"P\""
  },
  {
    "filename": "Q",
    "size": null,
    "description": "Erotica Beginning with the letter \"Q\""
  },
  {
    "filename": "R",
    "size": null,
    "description": "Erotica Beginning with the letter \"R\""
  },
  {
    "filename": "S",
    "size": null,
    "description": "Erotica Beginning with the letter \"S\""
  },
  {
    "filename": "T",
    "size": null,
    "description": "Erotica Beginning with the letter \"T\""
  },
  {
    "filename": "U",
    "size": null,
    "description": "Erotica Beginning with the letter \"U\""
  },
  {
    "filename": "V",
    "size": null,
    "description": "Erotica Beginning with the letter \"V\""
  },
  {
    "filename": "W",
    "size": null,
    "description": "Erotica Beginning with the letter \"W\""
  },
  {
    "filename": "X",
    "size": null,
    "description": "Erotica Beginning with the letter \"X\""
  },
  {
    "filename": "Y",
    "size": null,
    "description": "Erotica Beginning with the letter \"Y\""
  },
  {
    "filename": "Z",
    "size": null,
    "description": "Erotica Beginning with the letter \"Z\""
  }
]
