[
  {
    "filename": "ucontrol.txt",
    "size": 20101,
    "description": "EROTICA: The Ultimate Control"
  },
  {
    "filename": "uhu-rand.txt",
    "size": 13194,
    "description": "EROTICA: Uhura and Rand by Ann Douglas"
  },
  {
    "filename": "uhura.txt",
    "size": 9349,
    "description": "EROTICA: Uhura's Distress, by Tinker (November, 1993)"
  },
  {
    "filename": "uhurarnd.txt",
    "size": 13234,
    "description": "EROTICA: Uhura and Rand: A Classic Trek Love Story by Ann D."
  },
  {
    "filename": "uncdave.txt",
    "size": 34617,
    "description": "EROTICA: My Great Uncle, by The Wayward One"
  },
  {
    "filename": "uncert.txt",
    "size": 45201,
    "description": "EROTICA: Uncertainties, by Karen Linzer"
  },
  {
    "filename": "uncertai.txt",
    "size": 45169,
    "description": "EROTICA: Uncertainties, by Karen Linzer"
  },
  {
    "filename": "uncle.txt",
    "size": 43859,
    "description": "EROTICA: Fun With My Sister's Kids, by Frank McCoy"
  },
  {
    "filename": "uncle_ed.txt",
    "size": 41448,
    "description": "EROTICA: The Unexpected Legacy of Uncle Edward"
  },
  {
    "filename": "uncles_l.txt",
    "size": 12430,
    "description": "EROTICA: Uncle's Lessons, by Double Secret Author (1997)"
  },
  {
    "filename": "uncletea.txt",
    "size": 322786,
    "description": "EROTICA: Uncle Teaches His Niece by James Wellington (1997)"
  },
  {
    "filename": "uncpaul1.txt",
    "size": 55734,
    "description": "EROTICA: Uncle Paul and Daddy John, by The WayWard One"
  },
  {
    "filename": "uncpaul2.txt",
    "size": 42089,
    "description": "EROTICA: Uncle Paul and Daddy John part 2 by The Wayward One"
  },
  {
    "filename": "unctomm1.txt",
    "size": 4577,
    "description": "EROTICA: LIL N: Daddy and His Brother and Cuz Suzy"
  },
  {
    "filename": "unctomm2.txt",
    "size": 6292,
    "description": "EROTICA: LIL N: Daddy, Uncle Tommy and Cuz Susie (Part 2)"
  },
  {
    "filename": "unctomm3.txt",
    "size": 3315,
    "description": "EROTICA: LIL N: Daddy, Uncle Tommy and Cuz Suzie Part 3"
  },
  {
    "filename": "uneasy.txt",
    "size": 28362,
    "description": "EROTICA: Uneasy Love"
  },
  {
    "filename": "unfaith.txt",
    "size": 18183,
    "description": "EROTICA: Doctor's Orders, by Big Daddy"
  },
  {
    "filename": "unicorn.txt",
    "size": 10569,
    "description": "EROTICA: The Ecology of the Unicorn"
  },
  {
    "filename": "uniform.txt",
    "size": 32657,
    "description": "EROTICA: Uniform, by Tigger"
  },
  {
    "filename": "unite.txt",
    "size": 7347,
    "description": "EROTICA: Workers Unite!"
  },
  {
    "filename": "unlucky.txt",
    "size": 45437,
    "description": "EROTICA: Unlucky Number 13, by Thunder"
  },
  {
    "filename": "unmask.txt",
    "size": 31451,
    "description": "EROTICA: Nenim 5: 0477"
  },
  {
    "filename": "unsatis.txt",
    "size": 15271,
    "description": "EROTICA: Unsatisfied, by The Drifer (1997)"
  },
  {
    "filename": "unwrap.txt",
    "size": 52742,
    "description": "EROTICA: Unwrap Party, by Jordan Shelbourne"
  },
  {
    "filename": "upstairs.txt",
    "size": 11265,
    "description": "EROTICA: Upstairs by Major Havoc (1989)"
  },
  {
    "filename": "upthis1.txt",
    "size": 9988,
    "description": "EROTICA: Wet N' Hard"
  },
  {
    "filename": "ursula.txt",
    "size": 147695,
    "description": "EROTICA: Ursula, by Friar Dave"
  },
  {
    "filename": "usheret.txt",
    "size": 151557,
    "description": "EROTICA: Usherette Chapter One"
  },
  {
    "filename": "usherett.txt",
    "size": 255877,
    "description": "EROTICA: The Usherette"
  }
]
