[
  {
    "filename": "faith.txt",
    "size": 43997,
    "description": "EROTICA: Faith"
  },
  {
    "filename": "l'marsha.txt",
    "size": 69826,
    "description": "EROTICA: Marsha"
  },
  {
    "filename": "l-sty-00.txt",
    "size": 11493,
    "description": "EROTICA: College Friends"
  },
  {
    "filename": "lab-guy.txt",
    "size": 3302,
    "description": "EROTICA: Sheena's Lab Guy, by Sheena"
  },
  {
    "filename": "lab_part.txt",
    "size": 60408,
    "description": "EROTICA: Lab Partners with Sue"
  },
  {
    "filename": "labrat.txt",
    "size": 27387,
    "description": "EROTICA: The Lab Rat"
  },
  {
    "filename": "labrys.txt",
    "size": 15809,
    "description": "EROTICA: The Labrys, by Warren T."
  },
  {
    "filename": "lacross.txt",
    "size": 10282,
    "description": "EROTICA: The Locker Room"
  },
  {
    "filename": "ladies.txt",
    "size": 11900,
    "description": "EROTICA: The Ladies"
  },
  {
    "filename": "lafterdk.txt",
    "size": 5967,
    "description": "EROTICA: L.A. After Dark, by R. Mendosa"
  },
  {
    "filename": "lakelust.txt",
    "size": 12394,
    "description": "EROTICA: Lust on the Lake: A Modern Fantasy, by Brakalega"
  },
  {
    "filename": "lakeview.txt",
    "size": 12199,
    "description": "EROTICA: Lakeview High School, by Alli Cain"
  },
  {
    "filename": "lament.txt",
    "size": 5488,
    "description": "EROTICA: Lament, by Nevyn"
  },
  {
    "filename": "landlady.txt",
    "size": 11222,
    "description": "EROTICA: Just a Little Country Girl, by J. Boswell"
  },
  {
    "filename": "landsedg.txt",
    "size": 9148,
    "description": "EROTICA: The Open Marriage Chronicles: The Heat at Land's Edge, by Ellen"
  },
  {
    "filename": "lannie.txt",
    "size": 48685,
    "description": "EROTICA: Lannie, by Yat (March 8, 1995)"
  },
  {
    "filename": "laralust.txt",
    "size": 7128,
    "description": "EROTICA: Lara's Lust"
  },
  {
    "filename": "larry.txt",
    "size": 24612,
    "description": "EROTICA: Larry's Got a Girlfriend, by Donna Baker"
  },
  {
    "filename": "larrysgf.txt",
    "size": 24629,
    "description": "EROTICA: Larry's Got a Girlfriend by Donna Baker"
  },
  {
    "filename": "last_bid.txt",
    "size": 9633,
    "description": "EROTICA: The Last Bid"
  },
  {
    "filename": "lastnite.txt",
    "size": 9923,
    "description": "EROTICA: Last Night"
  },
  {
    "filename": "late.txt",
    "size": 11811,
    "description": "EROTICA: A Late Encounter, by James Charles Lynn"
  },
  {
    "filename": "latedate.txt",
    "size": 23825,
    "description": "EROTICA: Late Date"
  },
  {
    "filename": "latenite.txt",
    "size": 11532,
    "description": "EROTICA: A Late Night Out"
  },
  {
    "filename": "later1.txt",
    "size": 2563,
    "description": "EROTICA: Later..."
  },
  {
    "filename": "latesis.txt",
    "size": 15519,
    "description": "EROTICA: Late Night with Sis"
  },
  {
    "filename": "lateterm.txt",
    "size": 13156,
    "description": "EROTICA: The Late Term"
  },
  {
    "filename": "latex.txt",
    "size": 3975,
    "description": "EROTICA: Latex"
  },
  {
    "filename": "latrduty.txt",
    "size": 11638,
    "description": "EROTICA: Latrine Duty, by Mark E. Dassad (1992)"
  },
  {
    "filename": "latrine.txt",
    "size": 11157,
    "description": "EROTICA: Latrine Duty"
  },
  {
    "filename": "latxsuit.txt",
    "size": 25909,
    "description": "EROTICA: Latex Body Suit, by Anne Raymond"
  },
  {
    "filename": "laundry.txt",
    "size": 7971,
    "description": "EROTICA: Clean Fun at the Laundry, by Studs Manly (1997)"
  },
  {
    "filename": "laura.txt",
    "size": 13689,
    "description": "EROTICA: Laura by Neon the Unknown"
  },
  {
    "filename": "lauralex.txt",
    "size": 12901,
    "description": "EROTICA: Laura and Alexander by Charles Franklin (December, 1992)"
  },
  {
    "filename": "lauratap.txt",
    "size": 91512,
    "description": "EROTICA: My Tape Recorder Diary, by Laura McGovern (1997)"
  },
  {
    "filename": "laurel.txt",
    "size": 8506,
    "description": "EROTICA: Laurel's Ordeal"
  },
  {
    "filename": "lauren.txt",
    "size": 31418,
    "description": "EROTICA: Lauren's Christmas Present"
  },
  {
    "filename": "laurie01.txt",
    "size": 7333,
    "description": "EROTICA: Laurie, by Laurie M."
  },
  {
    "filename": "lauritap.txt",
    "size": 95201,
    "description": "EROTICA: My Tape Recorder Diary, by Laurie Robertson (1997)"
  },
  {
    "filename": "laurlips.txt",
    "size": 23369,
    "description": "EROTICA: Lauren's Leaky Lips"
  },
  {
    "filename": "law.txt",
    "size": 20218,
    "description": "EROTICA: Laying Down the Law"
  },
  {
    "filename": "lawn.txt",
    "size": 21985,
    "description": "EROTICA: Lawn Party"
  },
  {
    "filename": "laycamp.txt",
    "size": 14336,
    "description": "EROTICA: Lay Camp, by Lisa"
  },
  {
    "filename": "lazyday.txt",
    "size": 54248,
    "description": "EROTICA: A Lazy Day, by Baron Darkside"
  },
  {
    "filename": "lea&me1.txt",
    "size": 10295,
    "description": "EROTICA: Lea and Me, by David Fields (1997)"
  },
  {
    "filename": "lea&me2.txt",
    "size": 5665,
    "description": "EROTICA: Lea and Me Part 2, by David Fields (1997)"
  },
  {
    "filename": "leahigh.txt",
    "size": 20450,
    "description": "EROTICA: Lea and the High Priestess, by Candy Kane (1997)"
  },
  {
    "filename": "leathfmb.txt",
    "size": 10391,
    "description": "EROTICA: Leather Farm Boy"
  },
  {
    "filename": "leathgod.txt",
    "size": 12393,
    "description": "EROTICA: Children of a Leather God, by Rich H."
  },
  {
    "filename": "leavslow.txt",
    "size": 14738,
    "description": "EROTICA: Leaving the Slow Lane, by Laurie Lea"
  },
  {
    "filename": "leda.txt",
    "size": 12311,
    "description": "EROTICA: A Lady Named Leda"
  },
  {
    "filename": "lee_me.txt",
    "size": 10240,
    "description": "EROTICA: Lee and Me, and Bill Too"
  },
  {
    "filename": "legal.txt",
    "size": 16613,
    "description": "EROTICA: Sex and the Law"
  },
  {
    "filename": "legs.txt",
    "size": 13626,
    "description": "EROTICA: Legs, Legs, Legs!"
  },
  {
    "filename": "legs2.txt",
    "size": 13777,
    "description": "EROTICA: Legs 2"
  },
  {
    "filename": "lesbd.txt",
    "size": 15020,
    "description": "EROTICA: Lesbian Bondage Games"
  },
  {
    "filename": "lesbinc1.txt",
    "size": 14118,
    "description": "EROTICA: Lesbian Incest (August 14, 1997)"
  },
  {
    "filename": "lesbinc2.txt",
    "size": 8037,
    "description": "EROTICA: Lesbian Incest Part II (August 14, 1997)"
  },
  {
    "filename": "lesbletr.fun",
    "size": 3456,
    "description": "EROTICA: A Letter to Carol"
  },
  {
    "filename": "lesli2.txt",
    "size": 4947,
    "description": "EROTICA: Leslie"
  },
  {
    "filename": "leslie1.txt",
    "size": 29051,
    "description": "EROTICA: Leslie Leigh: Fantasy Cruise"
  },
  {
    "filename": "leslie2.txt",
    "size": 20575,
    "description": "EROTICA: Fantasy Cruise II, by Leslie Leigh"
  },
  {
    "filename": "leslor.txt",
    "size": 15950,
    "description": "EROTICA: Leslie and Lori Part 2 (January 12, 1995)"
  },
  {
    "filename": "lesson.txt",
    "size": 40436,
    "description": "EROTICA: The Lesson"
  },
  {
    "filename": "lethump2.txt",
    "size": 32857,
    "description": "EROTICA: Let's Fuck"
  },
  {
    "filename": "lethump3.txt",
    "size": 36266,
    "description": "EROTICA: Let's Fuck"
  },
  {
    "filename": "lethump4.txt",
    "size": 34594,
    "description": "EROTICA: Let's Fuck"
  },
  {
    "filename": "lez.txt",
    "size": 51197,
    "description": "EROTICA: The Lez Contest"
  },
  {
    "filename": "lezbefr1.txt",
    "size": 22005,
    "description": "EROTICA: Lez be Friends by Candy Kane (1998)"
  },
  {
    "filename": "lezbefr2.txt",
    "size": 22010,
    "description": "EROTICA: Lez Be Friends by Candy Kane (1998)"
  },
  {
    "filename": "lezrape1.txt",
    "size": 8212,
    "description": "EROTICA: The Lez Rape"
  },
  {
    "filename": "lgapples.txt",
    "size": 14818,
    "description": "EROTICA: Little Green Apples"
  },
  {
    "filename": "lib2s.txt",
    "size": 15789,
    "description": "EROTICA: Summer Encounter, by Evan Larsen"
  },
  {
    "filename": "lies.txt",
    "size": 37139,
    "description": "EROTICA: Some Lies (1985)"
  },
  {
    "filename": "lifest.txt",
    "size": 15644,
    "description": "EROTICA: What is Lifestle D&S"
  },
  {
    "filename": "light.txt",
    "size": 23553,
    "description": "EROTICA: Thanks for the Light, by Gamin Paramour"
  },
  {
    "filename": "lights-1.txt",
    "size": 9334,
    "description": "EROTICA: The Lights"
  },
  {
    "filename": "lights-2.txt",
    "size": 14942,
    "description": "EROTICA: The Lights, Chapter 2"
  },
  {
    "filename": "lights-3.txt",
    "size": 11906,
    "description": "EROTICA: The Lights, Chapter 3"
  },
  {
    "filename": "like_mom.txt",
    "size": 6833,
    "description": "EROTICA: Like Mother, Like Daughter, by Ann D."
  },
  {
    "filename": "likemom.txt",
    "size": 74904,
    "description": "EROTICA: Horny Like Mom, by Eros (1997)"
  },
  {
    "filename": "likesit.txt",
    "size": 12125,
    "description": "EROTICA: As She Likes It, by David C. Daniel"
  },
  {
    "filename": "lilgirl.txt",
    "size": 10937,
    "description": "EROTICA: Little Girl Gets Some (January 25, 1998)"
  },
  {
    "filename": "lilgirls.txt",
    "size": 10255,
    "description": "EROTICA: Little Girl Plays Sweet Surrender, by Mr. Double (December 28, 1996)"
  },
  {
    "filename": "lilith.txt",
    "size": 17024,
    "description": "EROTICA: Lilith, by Will Salem"
  },
  {
    "filename": "lilpet.txt",
    "size": 9504,
    "description": "EROTICA: Daddy's Lil Pet (1998)"
  },
  {
    "filename": "lilsis.txt",
    "size": 7047,
    "description": "EROTICA: Sweet Little Sister"
  },
  {
    "filename": "lilsis2.txt",
    "size": 7654,
    "description": "EROTICA: My Big Brother, an Erotic Story by Frank mcCoy (August 23, 1996)"
  },
  {
    "filename": "limolove.txt",
    "size": 20000,
    "description": "EROTICA: Barbara and Guy: A Love Story"
  },
  {
    "filename": "linda.txt",
    "size": 17581,
    "description": "EROTICA: Linda"
  },
  {
    "filename": "lindapas.txt",
    "size": 13746,
    "description": "EROTICA: Linda's Passion"
  },
  {
    "filename": "linger.txt",
    "size": 11264,
    "description": "EROTICA: Linger"
  },
  {
    "filename": "linpart8.txt",
    "size": 9170,
    "description": "EROTICA: Lin part 8"
  },
  {
    "filename": "lipgloss.txt",
    "size": 43063,
    "description": "EROTICA: Lip Gloss, by Pussy Barber"
  },
  {
    "filename": "lisa",
    "size": 25624,
    "description": "STORY: Lisa"
  },
  {
    "filename": "lisa.txt",
    "size": 98485,
    "description": "EROTICA: Lisa's Story"
  },
  {
    "filename": "lisa01.txt",
    "size": 9088,
    "description": "EROTICA: Lisa"
  },
  {
    "filename": "lisa02.txt",
    "size": 12288,
    "description": "EROTICA: Lisa (Chapter 2)"
  },
  {
    "filename": "lisa03.txt",
    "size": 13541,
    "description": "EROTICA: Lisa (Chapter 3)"
  },
  {
    "filename": "lisa04.txt",
    "size": 13032,
    "description": "EROTICA: Lisa (Chapter 4)"
  },
  {
    "filename": "lisa05.txt",
    "size": 13056,
    "description": "EROTICA: Lisa (Chapter 5)"
  },
  {
    "filename": "lisa06.txt",
    "size": 12928,
    "description": "EROTICA: Lisa (Chapter 6)"
  },
  {
    "filename": "lisa07.txt",
    "size": 13312,
    "description": "EROTICA: Lisa (Chapter 7)"
  },
  {
    "filename": "lisa08.txt",
    "size": 12544,
    "description": "EROTICA: Lisa (Chapter 8)"
  },
  {
    "filename": "lisa09.txt",
    "size": 12032,
    "description": "EROTICA: Lisa (Chapter 9)"
  },
  {
    "filename": "lisa10.txt",
    "size": 13824,
    "description": "EROTICA: Lisa (Chapter 10)"
  },
  {
    "filename": "lisa11.txt",
    "size": 10240,
    "description": "EROTICA: Lisa (Chapter 11)"
  },
  {
    "filename": "lisa12.txt",
    "size": 12928,
    "description": "EROTICA: Lisa (Chapter 12)"
  },
  {
    "filename": "lisa13.txt",
    "size": 13824,
    "description": "EROTICA: Lisa (Chapter 13)"
  },
  {
    "filename": "lisa14.txt",
    "size": 12032,
    "description": "EROTICA: Lisa (Chapter 14)"
  },
  {
    "filename": "lisadebi.txt",
    "size": 98780,
    "description": "EROTICA: Lisa's Story"
  },
  {
    "filename": "lisamary.txt",
    "size": 5725,
    "description": "EROTICA: Lisa and Mary"
  },
  {
    "filename": "lisapokr.txt",
    "size": 6029,
    "description": "EROTICA: Lisa's Poker Night"
  },
  {
    "filename": "lisatap.txt",
    "size": 71988,
    "description": "EROTICA: Lisa's Tape Recorder Diary (1997)"
  },
  {
    "filename": "litelf.txt",
    "size": 6137,
    "description": "EROTICA: The Little Elf: A Fairy Tale, by Bilford Whittemore (February 17, 1997)"
  },
  {
    "filename": "litesout.txt",
    "size": 36190,
    "description": "EROTICA: Lights Out"
  },
  {
    "filename": "litgirl.txt",
    "size": 5011,
    "description": "EROTICA: Daddy's Little Girl (January 18, 1997)"
  },
  {
    "filename": "litgirls.txt",
    "size": 25650,
    "description": "EROTICA: Little Girls"
  },
  {
    "filename": "litgrls1.txt",
    "size": 23591,
    "description": "EROTICA: Little Girls"
  },
  {
    "filename": "litgrls4.txt",
    "size": 10368,
    "description": "EROTICA: Little Girls 4"
  },
  {
    "filename": "litgrls5.txt",
    "size": 7385,
    "description": "EROTICA: Little Girls 5"
  },
  {
    "filename": "litgrls6.txt",
    "size": 8583,
    "description": "EROTICA: Little Girls 6"
  },
  {
    "filename": "litgrls7.txt",
    "size": 9818,
    "description": "EROTICA: Little Girls 7"
  },
  {
    "filename": "litsis1.txt",
    "size": 18467,
    "description": "EROTICA: Naughty Little Sister"
  },
  {
    "filename": "litsis2.txt",
    "size": 17938,
    "description": "EROTICA: Naughty Little Sister"
  },
  {
    "filename": "litsis3.txt",
    "size": 13825,
    "description": "EROTICA: Naughty Little Sister Part 3"
  },
  {
    "filename": "litsistr.txt",
    "size": 21426,
    "description": "EROTICA: Little Sister's Helping Hand, by Day Dreamer"
  },
  {
    "filename": "little.txt",
    "size": 11383,
    "description": "EROTICA: Little Stories, by laurel (1995)"
  },
  {
    "filename": "living1.txt",
    "size": 43268,
    "description": "EROTICA: Living Under One Roof Chapter 1, by Godspit (1997)"
  },
  {
    "filename": "living2.txt",
    "size": 62747,
    "description": "EROTICA: Living Under One Roof Chapter 2, by Godspit"
  },
  {
    "filename": "living3.txt",
    "size": 19396,
    "description": "EROTICA: Living Under One Roof Chapter 3, by GodSpit"
  },
  {
    "filename": "livinia2.txt",
    "size": 24730,
    "description": "EROTICA: Livinia 2"
  },
  {
    "filename": "livinia6.txt",
    "size": 44416,
    "description": "EROTICA: Livinia 6"
  },
  {
    "filename": "liza.txt",
    "size": 13617,
    "description": "EROTICA: Summer School with Liza"
  },
  {
    "filename": "ljess01.txt",
    "size": 7489,
    "description": "EROTICA: Loving Jess, by Mr. B"
  },
  {
    "filename": "ll.txt",
    "size": 14185,
    "description": "EROTICA: Library Lycanthopy, by Neceros"
  },
  {
    "filename": "llarry.txt",
    "size": 12349,
    "description": "EROTICA: Larry, by Red Rose (1997)"
  },
  {
    "filename": "llatedate.txt",
    "size": 24029,
    "description": "EROTICA: Late Date"
  },
  {
    "filename": "llatenite.txt",
    "size": 3076,
    "description": "EROTICA: Late Night Return, by Vermillion"
  },
  {
    "filename": "llaundry.txt",
    "size": 4988,
    "description": "EROTICA: Doing Laundry"
  },
  {
    "filename": "llaura.txt",
    "size": 12731,
    "description": "EROTICA: Laura"
  },
  {
    "filename": "llilsis.txt",
    "size": 18416,
    "description": "EROTICA: My Horny Little Sister (October 29, 1995)"
  },
  {
    "filename": "llinda1.txt",
    "size": 17901,
    "description": "EROTICA: Linda, Caught in the Act"
  },
  {
    "filename": "llinda2.txt",
    "size": 23955,
    "description": "EROTICA: Linda, A Night Out"
  },
  {
    "filename": "llinda3.txt",
    "size": 31553,
    "description": "EROTICA: Linda, Linda Becomes a Showgirl"
  },
  {
    "filename": "llinda4.txt",
    "size": 25753,
    "description": "EROTICA: Linda, Linda Makes a New Friend on the Road"
  },
  {
    "filename": "llinda5.txt",
    "size": 27639,
    "description": "EROTICA: Linda, The Gateway Into Linda's Panties"
  },
  {
    "filename": "llinda6.txt",
    "size": 25327,
    "description": "EROTICA: Linda, Linda Landing the Big Ones"
  },
  {
    "filename": "llinda7.txt",
    "size": 40460,
    "description": "EROTICA: Linda, Another Couple Joins Our Fun"
  },
  {
    "filename": "llinda8.txt",
    "size": 45105,
    "description": "EROTICA: Linda, Our Unconventional Wives"
  },
  {
    "filename": "llinda9.txt",
    "size": 9108,
    "description": "EROTICA: Linda, A Trophy and a Souvenir"
  },
  {
    "filename": "llisa.txt",
    "size": 57332,
    "description": "EROTICA: Lisa, by Red Rose (1998)"
  },
  {
    "filename": "llockerrm.txt",
    "size": 10227,
    "description": "EROTICA: The Girl's Locker Room"
  },
  {
    "filename": "lloydjan.txt",
    "size": 15289,
    "description": "EROTICA: Lloyd and Janice"
  },
  {
    "filename": "lluvsis.txt",
    "size": 19644,
    "description": "EROTICA: A Partly True Story, by Frank Zapper"
  },
  {
    "filename": "lmalcolm.txt",
    "size": 12533,
    "description": "EROTICA: Lord Malcom"
  },
  {
    "filename": "lmorgan1.txt",
    "size": 13008,
    "description": "EROTICA: Test Anxiety"
  },
  {
    "filename": "lngwknd1.txt",
    "size": 9649,
    "description": "EROTICA: The Long Weekend, by Destrad"
  },
  {
    "filename": "locd-out.txt",
    "size": 7925,
    "description": "EROTICA: Locked Out, by Drake (1997)"
  },
  {
    "filename": "locker.txt",
    "size": 30407,
    "description": "EROTICA: Locker Room lust"
  },
  {
    "filename": "lockerrm.txt",
    "size": 4245,
    "description": "EROTICA: The Locker Room, by Ann D"
  },
  {
    "filename": "lockroom.txt",
    "size": 45843,
    "description": "EROTICA: The Locker Room (January 28, 1987)"
  },
  {
    "filename": "locksmth.txt",
    "size": 16187,
    "description": "EROTICA: The Locksmith"
  },
  {
    "filename": "lois1.txt",
    "size": 25607,
    "description": "EROTICA: The Amazon and the Puppet"
  },
  {
    "filename": "lolita.txt",
    "size": 4669,
    "description": "EROTICA: Lolita"
  },
  {
    "filename": "lona.txt",
    "size": 15104,
    "description": "EROTICA: Lona's Revenge, by Doctor Barracuda"
  },
  {
    "filename": "lonely.txt",
    "size": 3212,
    "description": "EROTICA: Lonely"
  },
  {
    "filename": "longest.txt",
    "size": 17470,
    "description": "EROTICA: The Longest Time"
  },
  {
    "filename": "longisl1.txt",
    "size": 7667,
    "description": "EROTICA: Long Island, by The Doctor"
  },
  {
    "filename": "longisl2.txt",
    "size": 7448,
    "description": "EROTICA: Long Island, by The Doctor"
  },
  {
    "filename": "longtime.txt",
    "size": 17415,
    "description": "EROTICA: The Longest Time"
  },
  {
    "filename": "lord.txt",
    "size": 35458,
    "description": "EROTICA: The Lord of Discipline"
  },
  {
    "filename": "loreen.txt",
    "size": 81281,
    "description": "EROTICA: Loreen, by Godspit (1997)"
  },
  {
    "filename": "lornalaw.txt",
    "size": 11923,
    "description": "EROTICA: Lorna and the Law, by V.P. Viddler"
  },
  {
    "filename": "lov_fam.txt",
    "size": 64528,
    "description": "EROTICA: Loving Families (1997)"
  },
  {
    "filename": "loveclnc.txt",
    "size": 6817,
    "description": "EROTICA: Love Clinic, by Annie Capola (May 7, 1987)"
  },
  {
    "filename": "lovedoll.txt",
    "size": 38392,
    "description": "EROTICA: The Love Doll"
  },
  {
    "filename": "lovehrt1.txt",
    "size": 22165,
    "description": "EROTICA: Maria's Story, by T.F. Yank"
  },
  {
    "filename": "lovehrt2.txt",
    "size": 24053,
    "description": "EROTICA: Maria's Story, by T.F. Yank"
  },
  {
    "filename": "lovehrt4.txt",
    "size": 22853,
    "description": "EROTICA: Maria's Story, by T.F. Yank"
  },
  {
    "filename": "lovehrt5.txt",
    "size": 24611,
    "description": "EROTICA: Maria's Story, by T.F. Yank"
  },
  {
    "filename": "lovelost.txt",
    "size": 18470,
    "description": "EROTICA: Love Lost"
  },
  {
    "filename": "lovely.txt",
    "size": 14085,
    "description": "EROTICA: A Lovely Girl"
  },
  {
    "filename": "lover.txt",
    "size": 29240,
    "description": "EROTICA: Lover, by Red Rose (1998)"
  },
  {
    "filename": "loverape.txt",
    "size": 43678,
    "description": "EROTICA: Love Rape"
  },
  {
    "filename": "lovetri.txt",
    "size": 7777,
    "description": "EROTICA: Love Triangle"
  },
  {
    "filename": "lpnuns.txt",
    "size": 6255,
    "description": "EROTICA: Lesbian Pedophiole Nuns, by Taka Hike (1997)"
  },
  {
    "filename": "lsbb.txt",
    "size": 22509,
    "description": "EROTICA: Little Sister and Big Brother"
  },
  {
    "filename": "lstspace.txt",
    "size": 32455,
    "description": "EROTICA: Lust in Space, by malcom"
  },
  {
    "filename": "lubejob.txt",
    "size": 17702,
    "description": "EROTICA: The Lubejob"
  },
  {
    "filename": "luckhave.txt",
    "size": 18363,
    "description": "EROTICA: As Luck Would Have it, by Aaron Angst (1997)"
  },
  {
    "filename": "luckydog.txt",
    "size": 7501,
    "description": "EROTICA: Lucky Dog"
  },
  {
    "filename": "lunch.txt",
    "size": 40203,
    "description": "EROTICA: Lunch"
  },
  {
    "filename": "lunge.txt",
    "size": 19593,
    "description": "EROTICA: Working on my Lunge"
  },
  {
    "filename": "lush.txt",
    "size": 9656,
    "description": "EROTICA: Lush Fantasy"
  },
  {
    "filename": "lustnite.txt",
    "size": 9521,
    "description": "EROTICA: Lust Filled Nite by Mad Michel (1997)"
  },
  {
    "filename": "luststy.txt",
    "size": 20608,
    "description": "EROTICA: Lust Story"
  },
  {
    "filename": "luvnplnt.txt",
    "size": 11709,
    "description": "EROTICA: Loving Plant"
  },
  {
    "filename": "luvofamy.txt",
    "size": 20361,
    "description": "EROTICA: For the Love of Amy"
  },
  {
    "filename": "luvsis.txt",
    "size": 20477,
    "description": "EROTICA: Loving Sis, by Frank Zapper"
  },
  {
    "filename": "luvwrld.txt",
    "size": 36103,
    "description": "EROTICA: Love for the World (January 18, 1997)"
  },
  {
    "filename": "lxa.txt",
    "size": 14121,
    "description": "EROTICA: Taming of the Pledge Class"
  },
  {
    "filename": "lydia.txt",
    "size": 39552,
    "description": "EROTICA: Lydia"
  },
  {
    "filename": "lynn.txt",
    "size": 14405,
    "description": "EROTICA: The Most Ticklish Girl on Campus: Lynn's Story"
  }
]
