[
  {
    "filename": "vac1adv.txt",
    "size": 56226,
    "description": "EROTICA: A Vacation Adventure"
  },
  {
    "filename": "vac2adv.txt",
    "size": 56320,
    "description": "EROTICA: A Vacation Adventure"
  },
  {
    "filename": "vacation.txt",
    "size": 7848,
    "description": "EROTICA: Vacation, by Parker"
  },
  {
    "filename": "vacsurp1.txt",
    "size": 9037,
    "description": "EROTICA: The Surprise Vacation, by Rocco"
  },
  {
    "filename": "vacsurp2.txt",
    "size": 13897,
    "description": "EROTICA: The Surprise Vacation, by Rocco (Part II)"
  },
  {
    "filename": "vactn.txt",
    "size": 44447,
    "description": "EROTICA: Vacation Time Again"
  },
  {
    "filename": "valentin.txt",
    "size": 9278,
    "description": "EROTICA: Valentine's Day by Bonni Hall (1994)"
  },
  {
    "filename": "valley.txt",
    "size": 36001,
    "description": "EROTICA: The Valley"
  },
  {
    "filename": "valntine.txt",
    "size": 19389,
    "description": "EROTICA: A Valentine Story, by Ashley (1997)"
  },
  {
    "filename": "vamp.txt",
    "size": 10552,
    "description": "EROTICA: Vamp by Mushroom"
  },
  {
    "filename": "vampire.txt",
    "size": 17653,
    "description": "EROTICA: Vampire"
  },
  {
    "filename": "vampp.txt",
    "size": 55171,
    "description": "EROTICA: Vamp by Big Daddy"
  },
  {
    "filename": "vampslav.txt",
    "size": 14117,
    "description": "EROTICA: Vampire Slave by Caesar (1992)"
  },
  {
    "filename": "vampyr.txt",
    "size": 9216,
    "description": "EROTICA: The Bite of Lust by Fandango"
  },
  {
    "filename": "vanessa.txt",
    "size": 24156,
    "description": "EROTICA: Vanessa and the Animals"
  },
  {
    "filename": "vanilla.txt",
    "size": 19972,
    "description": "EROTICA: Vanilla"
  },
  {
    "filename": "vansex.txt",
    "size": 8172,
    "description": "EROTICA: Van Sex"
  },
  {
    "filename": "vantage.txt",
    "size": 30569,
    "description": "EROTICA: The Vantage Point by Kneeling Icon"
  },
  {
    "filename": "varsity.txt",
    "size": 17088,
    "description": "EROTICA: Varsity"
  },
  {
    "filename": "varsityf.txt",
    "size": 22952,
    "description": "EROTICA: The Varsity Football Team"
  },
  {
    "filename": "vash.txt",
    "size": 16388,
    "description": "EROTICA: In the Vash by Skyla"
  },
  {
    "filename": "veg_dad.txt",
    "size": 23198,
    "description": "EROTICA: Vegetable Dad by Big Daddy"
  },
  {
    "filename": "vence.txt",
    "size": 19582,
    "description": "EROTICA: Vence: Narquel 6, 0252"
  },
  {
    "filename": "venus-va.txt",
    "size": 51550,
    "description": "EROTICA: Venus and the VA Gentleman (1989)"
  },
  {
    "filename": "veryspec.txt",
    "size": 27621,
    "description": "EROTICA: A Very Special Student Teacher Relationship by Zara Thusta"
  },
  {
    "filename": "vibrat.txt",
    "size": 3819,
    "description": "EROTICA: Vibrators"
  },
  {
    "filename": "vice.txt",
    "size": 21113,
    "description": "EROTICA: Vice is Nice but.... by Bebrack (1998)"
  },
  {
    "filename": "vicious.txt",
    "size": 23595,
    "description": "EROTICA: Vicious Cycle by Tiffany"
  },
  {
    "filename": "vicki-1.txt",
    "size": 16028,
    "description": "EROTICA: Vicki by The Game Master"
  },
  {
    "filename": "vicki-2.txt",
    "size": 21265,
    "description": "EROTICA: Vicki by The Game Master (Part II)"
  },
  {
    "filename": "vicki-3.txt",
    "size": 9867,
    "description": "EROTICA: Vicki by The Game Master (Part III)"
  },
  {
    "filename": "vickie.txt",
    "size": 23846,
    "description": "EROTICA: Vickie"
  },
  {
    "filename": "vicky.txt",
    "size": 11173,
    "description": "EROTICA: Vicky"
  },
  {
    "filename": "vicky1.txt",
    "size": 5760,
    "description": "EROTICA: Victoria's Secrets, by Sparkle Plenty"
  },
  {
    "filename": "vicky2.txt",
    "size": 6912,
    "description": "EROTICA: Victoria's Secrets Part 2, by Sparkle Plenty"
  },
  {
    "filename": "vicky3.txt",
    "size": 7040,
    "description": "EROTICA: Victoria's Secrets Part 3 by Sparkle Plenty"
  },
  {
    "filename": "vicky4.txt",
    "size": 7680,
    "description": "EROTICA: Victoria's Secrets Part 4 by Sparkle Plenty"
  },
  {
    "filename": "victoria.txt",
    "size": 21641,
    "description": "EROTICA: Victoria's Real Secret"
  },
  {
    "filename": "victory.txt",
    "size": 11019,
    "description": "EROTICA: Victory Lap"
  },
  {
    "filename": "victscrt.txt",
    "size": 27140,
    "description": "EROTICA: Victoria's Secrets Part I by Sparkle Plenty"
  },
  {
    "filename": "vid.txt",
    "size": 15740,
    "description": "EROTICA: The Amateur Video"
  },
  {
    "filename": "video.txt",
    "size": 18569,
    "description": "EROTICA: Cruising the Video Store"
  },
  {
    "filename": "video1-5.txt",
    "size": 99559,
    "description": "EROTICA: The Video by Red Rose (1997)"
  },
  {
    "filename": "video5.txt",
    "size": 22770,
    "description": "EROTICA: The Video Part 5 by Mz. Mysty (January 3, 1997)"
  },
  {
    "filename": "videogm1.txt",
    "size": 81389,
    "description": "EROTICA: Video Games by Pedros (1997)"
  },
  {
    "filename": "videogm2.txt",
    "size": 82641,
    "description": "EROTICA: Video Games Part 2 by Pedros (1997)"
  },
  {
    "filename": "videos.txt",
    "size": 10635,
    "description": "EROTICA: Videos, by J.D."
  },
  {
    "filename": "videosce.txt",
    "size": 7937,
    "description": "EROTICA: Video Scenes by SunHawk Publishers (1993)"
  },
  {
    "filename": "view.txt",
    "size": 13681,
    "description": "EROTICA: A Room With a View by Ann Douglas"
  },
  {
    "filename": "viewsurf.txt",
    "size": 13964,
    "description": "EROTICA: Open Marriage: The View from the Surf"
  },
  {
    "filename": "viki-mlk.txt",
    "size": 46092,
    "description": "EROTICA: THe Game Master by Vicki"
  },
  {
    "filename": "viki_mlk.txt",
    "size": 46156,
    "description": "EROTICA: Vicki, by The Game Master"
  },
  {
    "filename": "village.txt",
    "size": 23143,
    "description": "EROTICA: THe Village"
  },
  {
    "filename": "virgin.txt",
    "size": 2777,
    "description": "EROTICA: The Singles Club and the Virgin (March 26, 1991)"
  },
  {
    "filename": "virginsingles.txt",
    "size": 33797,
    "description": "EROTICA: The Singles Club and the Virgin (March 26, 1991)"
  },
  {
    "filename": "virtual.txt",
    "size": 26377,
    "description": "EROTICA: Virtual Reality Becomes Real Life"
  },
  {
    "filename": "visifire.txt",
    "size": 23055,
    "description": "EROTICA: Open Marriage: Visit Now The Fire, by Ellen"
  },
  {
    "filename": "visitor1.txt",
    "size": 47523,
    "description": "EROTICA: A Visitor in the Night by Baron Darkside (1997)"
  },
  {
    "filename": "visitor2.txt",
    "size": 90689,
    "description": "EROTICA: A Visitor in the Night by Baron Darkside (1997) (Part II)"
  },
  {
    "filename": "vixen.txt",
    "size": 35633,
    "description": "EROTICA: The Vixen Part I, II, III"
  },
  {
    "filename": "vleck.txt",
    "size": 24485,
    "description": "EROTICA: Vleck and Kim"
  },
  {
    "filename": "vocab.txt",
    "size": 10854,
    "description": "EROTICAL The Vocabulary"
  },
  {
    "filename": "voice.txt",
    "size": 15616,
    "description": "EROTICA: The Voice"
  },
  {
    "filename": "voicmail.txt",
    "size": 10818,
    "description": "EROTICA: Voicemail, by Scott"
  },
  {
    "filename": "voodoo.txt",
    "size": 76135,
    "description": "EROTICA: The Voodoo Doll"
  },
  {
    "filename": "voyeur.txt",
    "size": 11251,
    "description": "EROTICA: The Voyeur"
  },
  {
    "filename": "voyeurs.txt",
    "size": 12278,
    "description": "EROTICA: Neighborhood Voyeurism by Craver"
  },
  {
    "filename": "voymarty.txt",
    "size": 12260,
    "description": "EROTICA: Marty the Voyeur"
  },
  {
    "filename": "vulcan.txt",
    "size": 11169,
    "description": "EROTICA: A Vulcan's Love by Ann Douglas"
  },
  {
    "filename": "vulcanh.txt",
    "size": 60211,
    "description": "EROTICA: Vulcan Honeymoon, by Green Hell (July, 1990)"
  }
]
