[
  {
    "filename": "a1",
    "size": 10246,
    "description": "The Ocean Files: An X-Files / Ocean Girl crossover story by Bruce Carter"
  },
  {
    "filename": "a2",
    "size": 9492,
    "description": "The Ocean Files: An X-Files / Ocean Girl crossover story by Bruce Carter"
  },
  {
    "filename": "a3",
    "size": 8481,
    "description": "The Ocean Files: An X-Files / Ocean Girl crossover story by Bruce Carter"
  },
  {
    "filename": "a4",
    "size": 9625,
    "description": "The Ocean Files: An X-Files / Ocean Girl crossover story by Bruce Carter"
  },
  {
    "filename": "a5",
    "size": 9961,
    "description": "The Ocean Files: An X-Files / Ocean Girl crossover story by Bruce Carter"
  },
  {
    "filename": "actors.txt",
    "size": 3014,
    "description": "Overview of X-Files Actors David Duchovny and Gillian Anderson"
  },
  {
    "filename": "alk.txt",
    "size": 136737,
    "description": "A Little Knowledge, by Patti Murphy (1995)"
  },
  {
    "filename": "alk1.a",
    "size": 19151,
    "description": "FAN FICTION: A Little Knowledge, by Patti Murphy"
  },
  {
    "filename": "alk1.b",
    "size": 12462,
    "description": "FAN FICTION: A Little Knowledge, by Patti Murphy (Part 2)"
  },
  {
    "filename": "alk2.a",
    "size": 16949,
    "description": "FAN FICTION: A Little Knowledge, by Patti Murphy (Part 3)"
  },
  {
    "filename": "alk2.b",
    "size": 16683,
    "description": "FAN FICTION: A Little Knowledge, by Patti Murphy (Part 4)"
  },
  {
    "filename": "alk3.a",
    "size": 16024,
    "description": "FAN FICTION: A Little Knowledge, by Patti Murphy (Part 5)"
  },
  {
    "filename": "alk3.b",
    "size": 21178,
    "description": "FAN FICTION: A Little Knowledge, by Patti Murphy (Part 6)"
  },
  {
    "filename": "alk4",
    "size": 18983,
    "description": "FAN FICTION: A Little Knowledge, by Patti Murphy (Part 7)"
  },
  {
    "filename": "alk5",
    "size": 24851,
    "description": "FAN FICTION: A Little Knowledge, by Patti Murphy (Part 8)"
  },
  {
    "filename": "alk7",
    "size": 13071,
    "description": "FAN FICTION: A Little Knowledge, by Patti Murphy (Part 9)"
  },
  {
    "filename": "ancient.dre",
    "size": 202742,
    "description": "FAN FICTION: Ancient Dreams, by Kellie Matthews Simmons"
  },
  {
    "filename": "andifidi",
    "size": 14341,
    "description": "FAN FICTION: The X-Files: And If I Die by Tony Anderson (August, 1994)"
  },
  {
    "filename": "angel",
    "size": 65136,
    "description": "FAN FICTION: Angel, by Sarah Stegall"
  },
  {
    "filename": "apollo-1.txt",
    "size": 3292,
    "description": "Did the Apollo 11 Encounter UFO's on the Moon? (1992)"
  },
  {
    "filename": "baddream",
    "size": 10742,
    "description": "FAN FICTION: Bad Dreams, by Melissa Taylor (August 31, 1994)"
  },
  {
    "filename": "beliefs",
    "size": 9227,
    "description": "FANFICTION: Beliefs, an X-Files Story, by Annie Reed"
  },
  {
    "filename": "believer",
    "size": 11367,
    "description": "FAN FICTION: Tracy Jessup (October 2, 1994)"
  },
  {
    "filename": "bitspiec",
    "size": 6801,
    "description": "FAN FICTION: Bits and Pieces"
  },
  {
    "filename": "blood.rev",
    "size": 3344,
    "description": "Review of X-Files: Blood: Bloody Good Show, by Sarah Stegall"
  },
  {
    "filename": "bot.war",
    "size": 19939,
    "description": "FAN FICTION: The Bot Gets a Life (July 26, 1994)"
  },
  {
    "filename": "cabin.fev",
    "size": 61716,
    "description": "FAN FICTION: Cabin Fever or \"How I Ruined One Man's Vacation\" (An X-Files erotica) by qIra julIyan (August 9, 1994)"
  },
  {
    "filename": "chars.txt",
    "size": 14678,
    "description": "An Overview of the Characters of the X-Files"
  },
  {
    "filename": "christen",
    "size": 18142,
    "description": "FAN FICTION: A Christening, by Steven Han (August 12, 1994)"
  },
  {
    "filename": "christma",
    "size": 28804,
    "description": "FAN FICTION: Christmas Story by Deborah Davis (December 9, 1994)"
  },
  {
    "filename": "clouds",
    "size": 5389,
    "description": "FAN FICTION: Clouds by Mary Jane (September 11, 1994)"
  },
  {
    "filename": "conspira",
    "size": 32661,
    "description": "FAN FICTION: Conspiracies, by Adam Webb (September 11, 1994)"
  },
  {
    "filename": "dance",
    "size": 95733,
    "description": "FAN FICTION: Dance"
  },
  {
    "filename": "davidfan",
    "size": 11148,
    "description": "FAN FICTION: David Fantasy #1"
  },
  {
    "filename": "dd.faq",
    "size": 11477,
    "description": "The Semi-Official David Duchovny FAQ Sheet (November 1, 1994)"
  },
  {
    "filename": "demons",
    "size": 14161,
    "description": "FAN FICTION: Demons, by Tara O' Shea (September 19, 1994)"
  },
  {
    "filename": "dmj",
    "size": 8644,
    "description": "FANFICTION: Dana's LEtter, by Laura Herold"
  },
  {
    "filename": "dt",
    "size": 6349,
    "description": "FANFICTION: Double Trouble, by Sheryl Martin"
  },
  {
    "filename": "dtpd",
    "size": 8091,
    "description": "FANFICTION: Double Trouble Part Deux, by Sheryl Martin"
  },
  {
    "filename": "dts",
    "size": 22093,
    "description": "FANFICTION: Double Trouble Squared, by Sheryl Martin and Martin A Nantus"
  },
  {
    "filename": "encinopa",
    "size": 9110,
    "description": "FANFICTION: X-Files Meets Encino Man by AlyseW"
  },
  {
    "filename": "eve.txt",
    "size": 8745,
    "description": "SUMMARY: \"Eve\", by Cliff Chen"
  },
  {
    "filename": "file-ima",
    "size": 11676,
    "description": "FANFICTION: Fix-imaniaX by Cliff Chen (August 19, 1994)"
  },
  {
    "filename": "fire.txt",
    "size": 8327,
    "description": "SUMMARY: \"Fire\", by Cliff Chen"
  },
  {
    "filename": "fooms",
    "size": 16874,
    "description": "FANFICTION: Fooms, a Parody by Glenn Wallace (May 1, 1994)"
  },
  {
    "filename": "fugitive",
    "size": 66451,
    "description": "FANFICTION: Fugitive, a Doctor Who/X-Files Crossover by Richard Salter (1994)"
  },
  {
    "filename": "goblins.rev",
    "size": 5445,
    "description": "REVIEW: The X-Files: Goblins by Sarah Stegall"
  },
  {
    "filename": "green.man",
    "size": 11342,
    "description": "The Green Man: A Concept for the X-Files"
  },
  {
    "filename": "herox",
    "size": 25071,
    "description": "FANFICTION: The Hero, by Michelle Blankenship"
  },
  {
    "filename": "hostess",
    "size": 32170,
    "description": "FANFICTION: The Hostess, by Steven Han"
  },
  {
    "filename": "intheend",
    "size": 14687,
    "description": "FANFICTION: In the End, by Karen D. Enriquez (October 26, 1994)"
  },
  {
    "filename": "j&f1",
    "size": 22606,
    "description": "FANFICTION: Blue Jeans and Fishnet Stockings by Summer (1995)"
  },
  {
    "filename": "j&f2",
    "size": 15702,
    "description": "FANFICTION: Blue Jeans and Fishnet Stockings Part II by Summer (1995)"
  },
  {
    "filename": "j&f3",
    "size": 19520,
    "description": "FANFICTION: Blue Jeans and Fishnet Stockings Part III by Summer (1995)"
  },
  {
    "filename": "j&f4",
    "size": 18740,
    "description": "FANFICTION: Blue Jeans and Fishnet Stockings by Summer (1995)"
  },
  {
    "filename": "jacobdad",
    "size": 55817,
    "description": "FANFICTION: Jacob's Father by Karen D. Enriquez (October 5, 1994)"
  },
  {
    "filename": "k.01",
    "size": 20060,
    "description": "FANFICTION: Kadaitcha Part 1 by Michael Aulfrey"
  },
  {
    "filename": "k.02",
    "size": 14803,
    "description": "FANFICTION: Kadaitcha Part 2 by Michael Aulfrey"
  },
  {
    "filename": "k.03",
    "size": 19757,
    "description": "FANFICTION: Kadaitcha Part 3 by Michael Aulfrey"
  },
  {
    "filename": "k.04",
    "size": 19210,
    "description": "FANFICTION: Kadaitcha Part 4 by Michael Aulfrey"
  },
  {
    "filename": "k.05",
    "size": 19268,
    "description": "FANFICTION: Kadaitcha Part 5 by Michael Aulfrey"
  },
  {
    "filename": "k.06",
    "size": 20444,
    "description": "FANFICTION: Kadaitcha Part 6 by Michael Aulfrey"
  },
  {
    "filename": "k.07",
    "size": 22323,
    "description": "FANFICTION: Kadaitcha by Michael Aulfrey Part 7"
  },
  {
    "filename": "krill1.txt",
    "size": 30726,
    "description": "A Situation Report on Our Acquisition of Advanced Technology and Interaction with Alien Cultures by O.H. Krill (January 1998)"
  },
  {
    "filename": "lightnin",
    "size": 114030,
    "description": "FAN FICTION: Lightning, by Judith Tabron (1994)"
  },
  {
    "filename": "moment",
    "size": 4573,
    "description": "FAN FICTION: Idyllic Moment"
  },
  {
    "filename": "oedipalc",
    "size": 59939,
    "description": "FAN FICTION: The Oedipal Complex by SciNut (Karen D. Enriquez) (August 31, 1994)"
  },
  {
    "filename": "old.tim",
    "size": 78766,
    "description": "FAN FICTION: Just Like Old Times, by Michael Francis (November 5, 1994)"
  },
  {
    "filename": "partners",
    "size": 8645,
    "description": "FAN FICTION: Partners, by Marie Miller"
  },
  {
    "filename": "promises",
    "size": 14567,
    "description": "FAN FICTION: Promises, by Michele Blankenship (October 5, 1994)"
  },
  {
    "filename": "recollec",
    "size": 45747,
    "description": "FAN FICTION: Recollections, by Steven Han (September 15, 1994)"
  },
  {
    "filename": "return_t.cab",
    "size": 15071,
    "description": "FAN FICTION: Return to the Cabin, by qIra julIyan (October 29, 1994)"
  },
  {
    "filename": "shadisar",
    "size": 32400,
    "description": "The X-Files, by Louis J. Prosperi, with Jim Nelson and Steve Bryant"
  },
  {
    "filename": "shapes.rev",
    "size": 3172,
    "description": "FAN FICTION: Shapes, by Sarah Stegall"
  },
  {
    "filename": "squeeze.txt",
    "size": 8127,
    "description": "FAN FICTION: Squeeze"
  },
  {
    "filename": "starryst",
    "size": 5455,
    "description": "FAN FICTION: Starry Stakeout, by Rhoda Miel (August 28, 1994)"
  },
  {
    "filename": "talisman",
    "size": 115690,
    "description": "FAN FICTION: The Talisman, an X-Files Tale by Monture and Wicks (December 5, 1994)"
  },
  {
    "filename": "thegreen",
    "size": 11342,
    "description": "FAN FICTION: The Green Man"
  },
  {
    "filename": "thehoste",
    "size": 31530,
    "description": "FANFICTION: The Hostess, by Steven Han (X-Files Fan Fiction) (September 28, 1994)"
  },
  {
    "filename": "thephila",
    "size": 10844,
    "description": "FAN FICTION: The Philadelphia Experimentos, by James \"Kibo\" Parry"
  },
  {
    "filename": "thesex-f",
    "size": 43620,
    "description": "FAN FICTION: The Sex-Files (X-Files) by Steven Han (August 31, 1994)"
  },
  {
    "filename": "theylove",
    "size": 76538,
    "description": "FAN FICTION: They Love, by Steven Han (X-Files) (August 9, 1994)"
  },
  {
    "filename": "tlatt",
    "size": 17440,
    "description": "FAN FICTION: The Lady and the Tiger, by Stephanie Davies and Sue Esty"
  },
  {
    "filename": "twl1",
    "size": 25355,
    "description": "FAN FICTION: Those Who Love (Part I) (September 6, 1995)"
  },
  {
    "filename": "twl2",
    "size": 22257,
    "description": "FAN FICTION: Those Who Love (Part II) (September 6, 1995)"
  },
  {
    "filename": "twl3",
    "size": 21524,
    "description": "FAN FICTION: Those Who Love (Part III) (September 5, 1995)"
  },
  {
    "filename": "twl4",
    "size": 19444,
    "description": "FAN FICTION: Those Who Love (Part IV) (September 5, 1995)"
  },
  {
    "filename": "twl5",
    "size": 24109,
    "description": "FAN FICTION: Those Who Love (Part VI) (September 6, 1995)"
  },
  {
    "filename": "twl6",
    "size": 22381,
    "description": "FAN FICTION: Those Who Love (Part VI) (September 6, 1995)"
  },
  {
    "filename": "twl7",
    "size": 29682,
    "description": "FAN FICTION: Those Who Love (Part VII) (September 5, 1995)"
  },
  {
    "filename": "untitled",
    "size": 13973,
    "description": "FANFICTION: X-Files Together in the Biblical Sense, by Christine Lamoreaux (1994)"
  },
  {
    "filename": "watched",
    "size": 3795,
    "description": "FAN FICTION: Watched, by D.M. Templeton (October 27, 1994)"
  },
  {
    "filename": "x-feld",
    "size": 57162,
    "description": "FAN FICTION: X-Feld, by Steven Han (August 24, 1994)"
  },
  {
    "filename": "x-files.001",
    "size": 2000,
    "description": "NODELIST: X-Files Net (April 1, 1995)"
  },
  {
    "filename": "x-files.cap",
    "size": 45910,
    "description": "Capture of X-Files Information: X-Files FAQ (February 1, 1995)"
  },
  {
    "filename": "x-files.int",
    "size": 87079,
    "description": "FANFICTION: X-Files Internacionale, by Steven Han (August 16, 1994)"
  },
  {
    "filename": "x-files_.txt",
    "size": 29791,
    "description": "The X-Files Episode Guide Version 1.01  by Cliff Chen (October 1, 1994)"
  },
  {
    "filename": "x-filesi",
    "size": 86574,
    "description": "FANFICTION: \"X-Files Internacionale\" by Steven Han (August 16, 1994)"
  },
  {
    "filename": "x-trek",
    "size": 36395,
    "description": "FANFICTION: X-trek, by Steven Han (September 9, 1994)"
  },
  {
    "filename": "xf-bugs.txt",
    "size": 9157,
    "description": "The Netpickers' Guide to the X-Files (Beta Version and Bugs)"
  },
  {
    "filename": "xf-s2.txt",
    "size": 11897,
    "description": "X-Files Season 2 Episode Guide"
  },
  {
    "filename": "xf-s2s.txt",
    "size": 8978,
    "description": "The X-Files Internet Episode Survey by Charmaine Lazaro"
  },
  {
    "filename": "xf_guide.txt",
    "size": 17134,
    "description": "The X-Files Episode Guide Version 0.92 by Cliff Chen (May 31, 1994)"
  },
  {
    "filename": "xfeguide.txt",
    "size": 16939,
    "description": "The X-Files Episode Guide Version 0.93 by Cliff Chen (July 1, 1994)"
  },
  {
    "filename": "xfhumor.txt",
    "size": 3618,
    "description": "Episodes of the X-Files That Won'T Be Filmed Anytime Soon"
  },
  {
    "filename": "xfile101.txt",
    "size": 96740,
    "description": "X-Files FAQ Part I (July 1, 1994)"
  },
  {
    "filename": "xfilead",
    "size": 3765,
    "description": "The X-Files-Net Information File by Agent M"
  },
  {
    "filename": "xfiles.ans",
    "size": 4986,
    "description": "INFORMATION: X-Files-Net (Fidonet Network): (Some ANSI)"
  },
  {
    "filename": "xfiles_c.gui",
    "size": 3464,
    "description": "An X-Files Do-It-Yourself Episode, by Marek (July 12, 1994)"
  },
  {
    "filename": "xfiles_d.gam",
    "size": 13048,
    "description": "Another X-Files Drinking/Eating Game by Jenn P."
  },
  {
    "filename": "xfls.txt",
    "size": 1842,
    "description": "The X-Files Drinking Game!"
  },
  {
    "filename": "xfmenu.txt",
    "size": 6838,
    "description": "The Official X-Files Menu"
  },
  {
    "filename": "xfpoemfl.txt",
    "size": 2313,
    "description": "X-Files Poems and Filk"
  },
  {
    "filename": "xfpoems",
    "size": 6478,
    "description": "Collection of Poems Inspired by the X-Files, by Alyson Strother"
  },
  {
    "filename": "xfxmas.txt",
    "size": 17697,
    "description": "FANFICTION: An X-Files Xmas, by Cody Nelson (December 10, 1994)"
  },
  {
    "filename": "xloc.txt",
    "size": 3850,
    "description": "A Guide to the Vancouver Locales Where the X-Files is Filmed, by Laurel Wellman (October, 1994)"
  },
  {
    "filename": "xmascaro",
    "size": 9321,
    "description": "Collection of X-Files X-Mas Carols, by W.Y.Chan (December 3, 1994)"
  },
  {
    "filename": "xmasfilz.txt",
    "size": 4760,
    "description": "FANFICTION: The Xmas Files by Frank Cammuso and Hart Seely"
  },
  {
    "filename": "xmscheer.txt",
    "size": 17704,
    "description": "FANFICTION: Christmas Cheer, by Jer Pond (December 26, 1994)"
  },
  {
    "filename": "xxx_asce.xxx",
    "size": 7937,
    "description": "FANFICTION: Scully's Alien Torment (October 21, 1994)"
  },
  {
    "filename": "xyz_file.par",
    "size": 24643,
    "description": "FANFICTION: X-Y-Z Files by Tony Anderson and Lorren Bell (August 8, 1994)"
  },
  {
    "filename": "zeitgeis",
    "size": 48478,
    "description": "FAN FICTION: The Zeitgeist, by Adam Webb (August 2, 1994)"
  }
]
