[
  {
    "filename": "SIGHTINGS",
    "size": null,
    "description": "Articles and Essays about UFO Sightings and Abductions"
  },
  {
    "filename": "UFOBBS",
    "size": null,
    "description": "Messages from the UFOBBS"
  },
  {
    "filename": "10most.ufo",
    "size": 3606,
    "description": "The Ten Most Credible UFOlogists"
  },
  {
    "filename": "3-19disc.txt",
    "size": 1615,
    "description": "Did the Discovery See a UFO? (March 19, 1989)"
  },
  {
    "filename": "3star.int",
    "size": 24838,
    "description": "A Report on The Roswell Incident, by Don Ecker (July 6, 1990)"
  },
  {
    "filename": "94ufos.txt",
    "size": 56752,
    "description": "The Truth of Things: Tale of Two Forces, The Game of God (February 15, 1994) (UFO)"
  },
  {
    "filename": "aaas.txt",
    "size": 7764,
    "description": "Report on a Survey of the Membership of the American Astronomical Society Concerning UFOs"
  },
  {
    "filename": "aagw.txt",
    "size": 20805,
    "description": "All About Gravatational Waves (June 1, 1991)"
  },
  {
    "filename": "acronyms.txt",
    "size": 9216,
    "description": "Information on Acronyms from the CUFON UFO Network (1986)"
  },
  {
    "filename": "acronyms.ufo",
    "size": 8342,
    "description": "CUFON Computer UFO Network, Information on Acronyms, 1986"
  },
  {
    "filename": "addit.txt",
    "size": 43520,
    "description": "The Release of the Cooper Material (July 5, 1990)"
  },
  {
    "filename": "aerial.ufo",
    "size": 2916,
    "description": "An Issue of Aerial Anomalies International"
  },
  {
    "filename": "aero5.asc",
    "size": 22715,
    "description": "FATE: Did Pennington Build the 1897 U.S.A. Airship?"
  },
  {
    "filename": "aether.ufo",
    "size": 4408,
    "description": "UFO Campaign Launched! January, 1987"
  },
  {
    "filename": "afosi.txt",
    "size": 3952,
    "description": "CUFON: UFO Information From November 17, 1980"
  },
  {
    "filename": "agent.ufo",
    "size": 11231,
    "description": "A Dialogue with a Former Agent of the Intelligence Committee"
  },
  {
    "filename": "agv.txt",
    "size": 4112,
    "description": "An Anti-Gravity Vehicle, by Michael Johnson (March 24, 1996)"
  },
  {
    "filename": "airship.001",
    "size": 40498,
    "description": "The Propeller of Keely's Airship Defined, by Mrs. Bloomfield More. (Transcription by Vanguard Sciences on August 5, 1989)"
  },
  {
    "filename": "airship2.asc",
    "size": 20858,
    "description": "History of the Mystery Airship Sightings in the Late 1800's"
  },
  {
    "filename": "airship3.asc",
    "size": 4083,
    "description": "Additional Historical Information on John Keely and his Airship"
  },
  {
    "filename": "airspace.txt",
    "size": 21120,
    "description": "When Pilot's See UFOs, December 3, 1987"
  },
  {
    "filename": "airspace.ufo",
    "size": 20907,
    "description": "When Pilots See UFOs, by Dennis Stacy, 1987"
  },
  {
    "filename": "alear1.txt",
    "size": 25266,
    "description": "Statement from John Lear regarding EBEs (Aliens Among Us) (December 29, 1987)"
  },
  {
    "filename": "alear2.txt",
    "size": 59262,
    "description": "Transcriptions of a Talk in 1989 by Mr. Milton William Cooper (November 24, 1989)"
  },
  {
    "filename": "alicia.txt",
    "size": 7876,
    "description": "What do ET Abductors Want? from Alicia Montell (1987)"
  },
  {
    "filename": "alien.inv",
    "size": 9728,
    "description": "Is the Extraterrestrial Alien Invasion a Fulfillment of Prophecy?"
  },
  {
    "filename": "alien.thoughts",
    "size": 22409,
    "description": "Aliens Invade; Government Panics; Sinister Vats Appear; Film at 11 by mike MacLeod and Friends"
  },
  {
    "filename": "alienlet.ufo",
    "size": 2109,
    "description": "Some sort of Letter about the Inflitration of Visitors"
  },
  {
    "filename": "aliens.asc",
    "size": 25313,
    "description": "The Physical Appearance of Intelligent Aliens by N.J. Spall"
  },
  {
    "filename": "aliens.fun",
    "size": 4672,
    "description": "Discussions on Little Green Men and our Government"
  },
  {
    "filename": "aliens.txt",
    "size": 2574,
    "description": "The Top 10 Signs to Watch Out for if your Co-Worker is a Space Alien (by Michael Cassels of the \"National\" Inquirer\")"
  },
  {
    "filename": "aliens01.asc",
    "size": 9734,
    "description": "Satan and the Little Green Men: The Connection Exposed by Val Dobson"
  },
  {
    "filename": "allan.txt",
    "size": 6779,
    "description": "Allan Drake's Telepathic UFO Messages (1987)"
  },
  {
    "filename": "alvaobit.ufo",
    "size": 5252,
    "description": "Obituary for Luis Alva, 1988"
  },
  {
    "filename": "amsthoa.ufo",
    "size": 1343,
    "description": "Amsterdam Police Conduct Late Night Search for Space Craft"
  },
  {
    "filename": "anti-mib.txt",
    "size": 9321,
    "description": "Counter Measures for Men In Black Encounters (UFO Feds)"
  },
  {
    "filename": "antigrav.ufo",
    "size": 1658,
    "description": "British Scientists to Search for Anti-Gravity Force"
  },
  {
    "filename": "antigrv1.txt",
    "size": 4155,
    "description": "Is Anti-Gravity for Real?"
  },
  {
    "filename": "antimatt.txt",
    "size": 2640,
    "description": "Trapping Entimatter, by Karl West"
  },
  {
    "filename": "aquaconf.sr",
    "size": 3744,
    "description": "Aquarius is UFO Project, says NSA"
  },
  {
    "filename": "aquamemodoc.ufo",
    "size": 3201,
    "description": "Refutation of document about Cpt. Grace"
  },
  {
    "filename": "aquansadoc.ufo",
    "size": 3584,
    "description": "Response to FOIA Request pertaining to Project Aquarius"
  },
  {
    "filename": "aquaques.ufo",
    "size": 20277,
    "description": "Some Questions on Project Aquarius by Christian P. Lambright"
  },
  {
    "filename": "aquarius.two",
    "size": 6465,
    "description": "Note to AQUARIUS TWO (November 24, 1989)"
  },
  {
    "filename": "aquarius.txt",
    "size": 4005,
    "description": "The Aquarius Documents from 1980"
  },
  {
    "filename": "archives.ufo",
    "size": 6710,
    "description": "UFO Source Information: The Canadian Government Archives (January 3, 1990)"
  },
  {
    "filename": "area51.ufo",
    "size": 16025,
    "description": "Lazar gives an interview about Area 51"
  },
  {
    "filename": "area512.ufo",
    "size": 10823,
    "description": "Second part of the Lazar Interview"
  },
  {
    "filename": "area513.ufo",
    "size": 10574,
    "description": "Third Part of Lazar Interview"
  },
  {
    "filename": "area514.ufo",
    "size": 29471,
    "description": "Interview with George Knapp about Area 51"
  },
  {
    "filename": "area515.ufo",
    "size": 27222,
    "description": "Follow-up interview with Lazar"
  },
  {
    "filename": "area516.ufo",
    "size": 37335,
    "description": "Further review of Lazar"
  },
  {
    "filename": "ares1.txt",
    "size": 4096,
    "description": "Story on the Mars Face and Project Cydonia (March 15, 1989)"
  },
  {
    "filename": "ares2.txt",
    "size": 5632,
    "description": "Additional Information on the Mars Face by Martin E. Arant (May 20, 1989)"
  },
  {
    "filename": "article.ufo",
    "size": 3263,
    "description": "Paranet BBS Explores Fringe Sciences, July 1986"
  },
  {
    "filename": "asteroid.ufo",
    "size": 8634,
    "description": "\"The End Of A Chapter?\" FSR (Vol.34, No.3, Sept., 1989)"
  },
  {
    "filename": "audio.ufo",
    "size": 9366,
    "description": "Interview with Wilburn Smith and his work on project \"Magnet\""
  },
  {
    "filename": "augforc.001",
    "size": 9538,
    "description": "From \"Dashed Against the Rock\" by W. J. Colville, 1894: The Amplitude of Force"
  },
  {
    "filename": "auh20int.ufo",
    "size": 2060,
    "description": "Senator Barry Goldwater Confirms \"Blue Room\" Incident on Radio (October 1988)"
  },
  {
    "filename": "aus_gov.txt",
    "size": 19972,
    "description": "The Study of the Australian Government Involvement in the UFO Conspiracy"
  },
  {
    "filename": "aussie.ufo",
    "size": 2162,
    "description": "Messages from the CUFON UFO Network"
  },
  {
    "filename": "auto.ufo",
    "size": 3968,
    "description": "What UFO's Do To Automobiles"
  },
  {
    "filename": "avenger.ufo",
    "size": 3326,
    "description": "12-5-45 Disappearance of Five Torpedo Bombers in Bermuda Triangle"
  },
  {
    "filename": "aviateasc.ufo",
    "size": 14270,
    "description": "Discussion of new Airforce Plane Designs in Nevada"
  },
  {
    "filename": "ball1.asc",
    "size": 4103,
    "description": "The Controlled Generation of Ball Lightning (August 24, 1990)"
  },
  {
    "filename": "barb.ufo",
    "size": 8704,
    "description": "An interview with Barbra Becker conducted on Nov. 18, 1989"
  },
  {
    "filename": "barker.txt",
    "size": 5371,
    "description": "The Fact Surrounding the Steinman-Barker Letter by Grant Cameron"
  },
  {
    "filename": "bayes.ufo",
    "size": 6817,
    "description": "Bill Badger does some probability analysis of the government hiding something"
  },
  {
    "filename": "bayes2.ufo",
    "size": 2136,
    "description": "Bill Badger then gives an example of his thoeries at work"
  },
  {
    "filename": "bc_grav1.txt",
    "size": 10592,
    "description": "Concentric Universal Gravitation, the Abscence of Dark Matter, and the Structure of the Universe by Brian Crabtree"
  },
  {
    "filename": "beliefs.ufo",
    "size": 16293,
    "description": "A Survey of UFOlogists and Their Beliefs in Unexplained Phenomena"
  },
  {
    "filename": "bershad.txt",
    "size": 6862,
    "description": "Michael Bershad's UFO Abduction Experiences, from UFO Magazine (1988)"
  },
  {
    "filename": "betaques.ufo",
    "size": 3190,
    "description": "Some questions to ask about the Project Beta files"
  },
  {
    "filename": "beyond001.ufo",
    "size": 21730,
    "description": "Life Beyond Earth & The Mind of Man, a symposium by Richard Berendzen"
  },
  {
    "filename": "bibleufo.ufo",
    "size": 3083,
    "description": "Flying Saucers: The UFO Connection"
  },
  {
    "filename": "biblio.ufo",
    "size": 5376,
    "description": "Speiser's Most Recommended UFO Books, 1989"
  },
  {
    "filename": "bielek1.asc",
    "size": 17113,
    "description": "Information on The Philadelphia Experiment (January 13, 1990)"
  },
  {
    "filename": "birdsll1.ufo",
    "size": 6318,
    "description": "The Growing Concern Regarding Misinformation and Unfounded Conspiracy Speculations in the UFO Community, by Jerry Birdsall"
  },
  {
    "filename": "birdsll2.ufo",
    "size": 3039,
    "description": "Phil Imbrogno responses to charges by Jerry Birdsall in his file."
  },
  {
    "filename": "blk-heli.txt",
    "size": 9737,
    "description": "UFO: Investigators Suspect National Security Pinch by Judith Karns, Observer Managing Editor"
  },
  {
    "filename": "blubk13.ufo",
    "size": 25548,
    "description": "Project Grude/Bluebook 13 Information"
  },
  {
    "filename": "bluebook.ufo",
    "size": 6278,
    "description": "The NEW Project Bluebook, by Buron Smith, 9/19/1988"
  },
  {
    "filename": "bluebuk1",
    "size": 35099,
    "description": "The Blue Book Unknowns (Collection of Unreported Blue Book UFO Sightings) (March, 1990)"
  },
  {
    "filename": "bluebuk2",
    "size": 27004,
    "description": "The Blue Book Unknowns (Collection of Unreported Blue Book UFO Sightings) (March, 1990)"
  },
  {
    "filename": "bluebuk3",
    "size": 27757,
    "description": "The Blue Book Unknowns (Collection of Unreported Blue Book UFO Sightings) (March, 1990)"
  },
  {
    "filename": "bluebuk4",
    "size": 25477,
    "description": "The Blue Book Unknowns (Collection of Unreported Blue Book UFO Sightings) (March, 1990)"
  },
  {
    "filename": "bluebuk5",
    "size": 27194,
    "description": "The Blue Book Unknowns (Collection of Unreported Blue Book UFO Sightings) (March, 1990)"
  },
  {
    "filename": "bluebuk6",
    "size": 28220,
    "description": "The Blue Book Unknowns (Collection of Unreported Blue Book UFO Sightings) (March, 1990)"
  },
  {
    "filename": "bluepeac.ufo",
    "size": 1850,
    "description": "Blue Peace: A New Organization"
  },
  {
    "filename": "booger.txt",
    "size": 9168,
    "description": "The Alien \"Booger\" Menace by Martin Kottmeyer"
  },
  {
    "filename": "books.on.ufos",
    "size": 30541,
    "description": "UFOlogy Books (Revision 2.0)"
  },
  {
    "filename": "brainwsh.ufo",
    "size": 47847,
    "description": "The Battle for your Mind, by Dick Sutphen"
  },
  {
    "filename": "break1.ufo",
    "size": 3047,
    "description": "What Does Our Government Know About UFOs? By William L. Moore"
  },
  {
    "filename": "brinton.asc",
    "size": 14554,
    "description": "Keely's Physical Philosophy by Professor D. G. Brinton M.D."
  },
  {
    "filename": "calif.txt",
    "size": 46230,
    "description": "California UFO Sightings from the Project Blue Book Unknowns (September 22, 1991)"
  },
  {
    "filename": "canada.txt",
    "size": 49061,
    "description": "The 1992 Canadian UFO Survey from Chris A. Rutowski"
  },
  {
    "filename": "cannon.ufo",
    "size": 25781,
    "description": "UFO Contact Center International Group Meeting, 1988"
  },
  {
    "filename": "capturehil.ufo",
    "size": 27049,
    "description": "Intelligence, Media Connections in UFO Cases, 1990"
  },
  {
    "filename": "caseasc.ufo",
    "size": 2870,
    "description": "Larry Bryant claims he was dismissed because he was exposing Military UFO Coverups"
  },
  {
    "filename": "causeditgb.ufo",
    "size": 3549,
    "description": "A Call for Cooperation with all UFO Organizations"
  },
  {
    "filename": "chapt1asc.ufo",
    "size": 56305,
    "description": "Update/Situation report for 1988 by William S. English"
  },
  {
    "filename": "charterasc.ufo",
    "size": 2155,
    "description": "The UFONET Charter, 1989"
  },
  {
    "filename": "cia_ufo_story.txt",
    "size": 141604,
    "description": "The Krill Archives: Confidential: A Situation Report on our Acquisition of Advanced Technology and Interaction with Alien Cultures by O.H. Krill (January, 1988)"
  },
  {
    "filename": "circler.asc",
    "size": 5671,
    "description": "Strange Things are Afoot at the Circle R by Byron Smith (May 20, 1990)"
  },
  {
    "filename": "classic.ufo",
    "size": 2189,
    "description": "The Classic Order from the Inspector General about UFOs, 1959"
  },
  {
    "filename": "cowsbl.thd",
    "size": 11261,
    "description": "Cow's Blood can NOT be used in transfusion to Humans!"
  },
  {
    "filename": "cr44dox.ufo",
    "size": 11649,
    "description": "Computer UFO Services, Response to FOIA Files"
  },
  {
    "filename": "cropcrpt.txt",
    "size": 47108,
    "description": "north American Crop Circles and Related Physical Traces Reported in 1992"
  },
  {
    "filename": "cschiff.txt",
    "size": 41925,
    "description": "18 Pages of Information Released to CUFON by Congressman Steve Schiff Regarding Roswell"
  },
  {
    "filename": "cufapr88.ufo",
    "size": 11358,
    "description": "Repeater in Toronto CE-1 Refuses Hypnosis"
  },
  {
    "filename": "cufon1.txt",
    "size": 23083,
    "description": "CUFON Introduction: Freedom of Information Act Files"
  },
  {
    "filename": "cufon2.txt",
    "size": 30746,
    "description": "CUFON Document #10"
  },
  {
    "filename": "cufon3.txt",
    "size": 24402,
    "description": "CUFON Document #20"
  },
  {
    "filename": "cufon4.txt",
    "size": 27158,
    "description": "CUFON Document #30"
  },
  {
    "filename": "cufon5.txt",
    "size": 30288,
    "description": "CUFON Document #40"
  },
  {
    "filename": "cuforn.txt",
    "size": 4205,
    "description": "Advertisement for the CUFORN UFO Group"
  },
  {
    "filename": "cufosgb.ufo",
    "size": 4056,
    "description": "CUFO's Position on the Gulf Breeze Case"
  },
  {
    "filename": "cyborg.ufo",
    "size": 10725,
    "description": "Cybernetics and UFOs, by Al Pinto [?]"
  },
  {
    "filename": "cydonia.ufo",
    "size": 5637,
    "description": "The Message of Cydonia: First Communication from an Extraterrestrial Civilization? By Richard C. Hoagland"
  },
  {
    "filename": "dbwbooks.ufo",
    "size": 4433,
    "description": "A List of UFO Books, 1987"
  },
  {
    "filename": "debunk.ufo",
    "size": 3320,
    "description": "My Brother The Debunker, the Frazier Brothers"
  },
  {
    "filename": "dec89.txt",
    "size": 1792,
    "description": "UFO Reports in December 1989"
  },
  {
    "filename": "della.ufo",
    "size": 24270,
    "description": "Sagan discusses the probability of other civilizations"
  },
  {
    "filename": "dinfufo.ufo",
    "size": 14125,
    "description": "How disinformation spreads fear about UFOs"
  },
  {
    "filename": "dinosaur.fly",
    "size": 18476,
    "description": "A Quick Introduction to Prehistoric UFOs"
  },
  {
    "filename": "doty.ufo",
    "size": 3259,
    "description": "Doty clarifies his position"
  },
  {
    "filename": "doty2.ufo",
    "size": 4165,
    "description": "Another clarifying letter from Doty"
  },
  {
    "filename": "dotydata.ufo",
    "size": 3226,
    "description": "Richard Doty's Military Record"
  },
  {
    "filename": "dsrat001.txt",
    "size": 35246,
    "description": "Conspiracy Theories Regarding Area 51 / Nellis Range / TTR / NTS / S-4? / Weird Stuff Desert Lore, from Psycho Spy"
  },
  {
    "filename": "dsrat002.txt",
    "size": 35324,
    "description": "The Groom Lake Desert Rat Issue #2 (February 2, 1994)"
  },
  {
    "filename": "dsrat007.txt",
    "size": 9314,
    "description": "The Groom Lake Desert Rat Issue #7 (April 1994)"
  },
  {
    "filename": "dsrat010.txt",
    "size": 24420,
    "description": "The Groom Lake Desert Rat Issue #10 (July 5, 1994)"
  },
  {
    "filename": "dsrat12.txt",
    "size": 7867,
    "description": "The Groom Lake Desert Rat Issue #12 (July 20, 1994)"
  },
  {
    "filename": "dsrat16.txt",
    "size": 34573,
    "description": "The Groom Lake Desert Rat Issue #16 (September 16, 1994)"
  },
  {
    "filename": "dsrat17.txt",
    "size": 46981,
    "description": "The Groom Lake Desert Rat Issue #17 (October 13, 1994)"
  },
  {
    "filename": "dsrat18.txt",
    "size": 46475,
    "description": "The Groom Lake Desert Rat Issue #18 (November 16, 1994)"
  },
  {
    "filename": "dsrat6.txt",
    "size": 24058,
    "description": "The Groom Lake Desert Rat Issue #6 (April 6, 1994)"
  },
  {
    "filename": "dulcecpx.ufo",
    "size": 22068,
    "description": "The Dulce Base"
  },
  {
    "filename": "dulcepap.ufo",
    "size": 4342,
    "description": "Small description about Dulce Air Force Base"
  },
  {
    "filename": "eastlake.ufo",
    "size": 23535,
    "description": "The Easlake UFO Case Message Base (1988)"
  },
  {
    "filename": "echofileasc.ufo",
    "size": 6314,
    "description": "Discussion of how the UFONET Echomail will be set up"
  },
  {
    "filename": "editorlet.ufo",
    "size": 4942,
    "description": "Encouraging letter about learning new things"
  },
  {
    "filename": "el115doc.ufo",
    "size": 3456,
    "description": "Some Basic Physics on Element Creation"
  },
  {
    "filename": "emp.ufo",
    "size": 3197,
    "description": "EMP Report about uses of pulses in the United States"
  },
  {
    "filename": "englishnot.ufo",
    "size": 804,
    "description": "Bill English is Real! Stop bothering his dad!"
  },
  {
    "filename": "eowufo.ufo",
    "size": 3328,
    "description": "Minister says Six Soldiers Arrested in Florda May Believe in UFOs, Anti-Christ"
  },
  {
    "filename": "eowufo2.ufo",
    "size": 2771,
    "description": "UFO-Seeking Soldiers Charged with Desertion"
  },
  {
    "filename": "etsearch.ufo",
    "size": 17622,
    "description": "Context and Implications of the Discovery of Extraterrestrial Life: A Whitepaper"
  },
  {
    "filename": "etxpos.txt",
    "size": 12176,
    "description": "NASA, the Code of Federal Regulations, and Extraterrestrial Exposure"
  },
  {
    "filename": "expmj12.ufo",
    "size": 4054,
    "description": "Rant about Human Rights"
  },
  {
    "filename": "fatimedj.ufo",
    "size": 7608,
    "description": "Fatima and Environs"
  },
  {
    "filename": "fatimlet.ufo",
    "size": 3584,
    "description": "Information on Fatima Life-Forms"
  },
  {
    "filename": "fenwick",
    "size": 151406,
    "description": "UFONET: The Mickus/Fenwick Interview"
  },
  {
    "filename": "fenwick.talk",
    "size": 10263,
    "description": "Clarifications of Claims of Tracy Torme (1988)"
  },
  {
    "filename": "fire-ice.txt",
    "size": 3331,
    "description": "Did Rain of Fire on ice Enable First Earthly Life?"
  },
  {
    "filename": "flt-19.txt",
    "size": 4096,
    "description": "Theory on the Fate of Missing Flight 19 (1990)"
  },
  {
    "filename": "foiadoc.ufo",
    "size": 158408,
    "description": "A Large Batch of UFO-Related Air Force Documents retrieved via the Freedom of Information Act"
  },
  {
    "filename": "forgotten.info",
    "size": 10619,
    "description": "Possible Forgotten or Unknown Information with UFOs, from CUFON"
  },
  {
    "filename": "friedosdoc.ufo",
    "size": 7013,
    "description": "Stanton Friedman discusses that yes, the Government probably discusses UFOs a lot"
  },
  {
    "filename": "fryaquadoc.ufo",
    "size": 1123,
    "description": "Sorry, no \"Project Aquarius\" here!"
  },
  {
    "filename": "ftdix.ufo",
    "size": 3072,
    "description": "Hey, those Fort Dix guys are hiding something"
  },
  {
    "filename": "gallup.ufo",
    "size": 4953,
    "description": "Only One-Third of Public Deny Existence of UFOs, Extraterrestrial Life (Gallup)"
  },
  {
    "filename": "gbreport.ufo",
    "size": 49042,
    "description": "Interview, questions and answers bearing on recent investigation of the Walters' Case"
  },
  {
    "filename": "genesis.ufo",
    "size": 11392,
    "description": "Review of the book \"Genesis\" by W. A. Harbinson"
  },
  {
    "filename": "genewar.ufo",
    "size": 8509,
    "description": "Gene Wars: UFOs, Christians, and the Genome Project"
  },
  {
    "filename": "gleason.ufo",
    "size": 1834,
    "description": "Did Jackie Gleason view UFO Bodies?"
  },
  {
    "filename": "glenaquadoc.ufo",
    "size": 4122,
    "description": "Letter to John Glenn responding to his request for UFO Information"
  },
  {
    "filename": "goldltrsdoc.ufo",
    "size": 5069,
    "description": "Letter from Barry Goldwater about UFOs"
  },
  {
    "filename": "goodbook.ufo",
    "size": 1363,
    "description": "Hey, someone wrote a book about UFO Coverups!"
  },
  {
    "filename": "gordon.ufo",
    "size": 16629,
    "description": "Interview with Dan Gordon about strange stuff in the skies"
  },
  {
    "filename": "gordon2.ufo",
    "size": 1484,
    "description": "Dan Gordon sends an update: Still seeing UFOs"
  },
  {
    "filename": "grad1.asc",
    "size": 8487,
    "description": "The Graduation of Machines, by John M. Keely"
  },
  {
    "filename": "gravity.ufo",
    "size": 3610,
    "description": "Different Discussions of Anti-Gravity Units"
  },
  {
    "filename": "greys.ufo",
    "size": 22804,
    "description": "The John lear Document (Professing the Landing of EBEs)"
  },
  {
    "filename": "grudge13.ufo",
    "size": 20886,
    "description": "The Recollections of an Intelligence Agent who analyzed the GRUDGE 13 Report"
  },
  {
    "filename": "guidancedoc.ufo",
    "size": 4487,
    "description": "A few words of encouragement from the upper echelons of government"
  },
  {
    "filename": "gulfbrz3.ufo",
    "size": 9509,
    "description": "Gulf Breeze, Florida Activity Summary (May 1, 1988)"
  },
  {
    "filename": "gulflet.ufo",
    "size": 5621,
    "description": "An Open Letter to the Citizens of Gulf Breeze, from Bob Oechsler"
  },
  {
    "filename": "gungho.ufo",
    "size": 3619,
    "description": "Stealth and Beyond: A Look at Aurora and some \"Unfunder Upportunities\""
  },
  {
    "filename": "hall.rev",
    "size": 2940,
    "description": "Uninvited Guides, by Richard Hall (Review): A Documented History of UFO Sightings, Alien Encounters & Coverups"
  },
  {
    "filename": "hallrev.ufo",
    "size": 2940,
    "description": "Uninvited Guests by Richard Hall: Review"
  },
  {
    "filename": "hanger.thd",
    "size": 12291,
    "description": "Information About Hangar 18 at Wright Patterson Air Force Base"
  },
  {
    "filename": "hangerthd.ufo",
    "size": 12291,
    "description": "A Thread from the Fido Computer Network UFO Echo about Hangar 18"
  },
  {
    "filename": "hardy1",
    "size": 12001,
    "description": "The Double Helix Pyramid Beam (August 1, 1992)"
  },
  {
    "filename": "harvest1.txt",
    "size": 5360,
    "description": "The \"Harvest\" Continues: Animal Mutilation Update, by Linda Moulton Howe (April 18, 1991)"
  },
  {
    "filename": "harvest2.txt",
    "size": 5123,
    "description": "Animal Mutilation Information, by Jeff Walker"
  },
  {
    "filename": "hastings.ufo",
    "size": 29433,
    "description": "The MJ-12 Affair: Facts, Questions, Comments"
  },
  {
    "filename": "hidufo.txt",
    "size": 3140,
    "description": "UFO: The Hidden UFO Secrets"
  },
  {
    "filename": "hoaglandlet.ufo",
    "size": 29828,
    "description": "Richard C. Hoagland writes a letter to Olga Dmitrieva at Pravda"
  },
  {
    "filename": "hoax.txt",
    "size": 15746,
    "description": "Anatomy of a Hoax: The Philadelphia Experiment Fifty Years Later by Jacques F. Vallee (1994)"
  },
  {
    "filename": "hoax.ufo",
    "size": 2948,
    "description": "A Man Claims that he was responsible for the Crop Circles in Minnesota"
  },
  {
    "filename": "hoosiers.ufo",
    "size": 3328,
    "description": "Hoosier UFOs (March 30, 1987)"
  },
  {
    "filename": "hopreply.ufo",
    "size": 9979,
    "description": "In Reply to Philip Klass, yet Again, by Budd Hopkins"
  },
  {
    "filename": "howe.thd",
    "size": 12342,
    "description": "UFO Paranet Messages Regarding Cattle Mutiliations (January, 1988)"
  },
  {
    "filename": "humanguinea.txt",
    "size": 4096,
    "description": "Human Guinea Pigs are as American As Apple Pie, by Samuel Chavkin (March 19, 1995)"
  },
  {
    "filename": "hummute.txt",
    "size": 13560,
    "description": "The Human Mutilation Factor by Don Ecker"
  },
  {
    "filename": "hynek.ufo",
    "size": 3200,
    "description": "The Hynek Rating System for Classifying UFOs"
  },
  {
    "filename": "hypnoltrast.ufo",
    "size": 5544,
    "description": "Letter to the Editor about article \"The Aliens Among Us: Hypnotic Regression Revisited\""
  },
  {
    "filename": "idaho.ufo",
    "size": 1947,
    "description": "Computers On-Line Presents: An Idaho Report"
  },
  {
    "filename": "implantrep.ufo",
    "size": 3157,
    "description": "Response to the text \"Inside UFOlogy\""
  },
  {
    "filename": "indian1.txt",
    "size": 6042,
    "description": "An incident at Indian Point by Vicki Cooper (April 1991)"
  },
  {
    "filename": "indian2.txt",
    "size": 6200,
    "description": "An incident at Indian Point by Vicki Cooper (April 1991) part II"
  },
  {
    "filename": "indict.ufo",
    "size": 8607,
    "description": "Indictment of the US Government for UFOs Abducting Us"
  },
  {
    "filename": "indict1asc.ufo",
    "size": 14315,
    "description": "Petition to Indict the US Government for UFO-Related Crimes"
  },
  {
    "filename": "indictment.us",
    "size": 8536,
    "description": "The Indictment of the US Government for Witholding Information on UFOs"
  },
  {
    "filename": "infoclas.txt",
    "size": 2781,
    "description": "Classifications and Descriptions used in Various UFO Texts and Classification Systems"
  },
  {
    "filename": "informnt.ufo",
    "size": 12380,
    "description": "An MJ-12 Informant by T. Scott Crain, Jr."
  },
  {
    "filename": "insd0189.asc",
    "size": 5949,
    "description": "Inside UFOlogy: January 1989"
  },
  {
    "filename": "insd0288.asc",
    "size": 4122,
    "description": "Inside UFOlogy: February 1988"
  },
  {
    "filename": "insd0289.asc",
    "size": 7921,
    "description": "Inside UFOlogy: February 1989"
  },
  {
    "filename": "insd0688.asc",
    "size": 5117,
    "description": "Inside UFOlogy: June 1988"
  },
  {
    "filename": "insd0788.asc",
    "size": 8597,
    "description": "Inside UFOlogy: July 1988"
  },
  {
    "filename": "insd0888.asc",
    "size": 7159,
    "description": "Inside UFOlogy: August 1988"
  },
  {
    "filename": "insd0988.asc",
    "size": 9059,
    "description": "Inside UFOlogy: September 1988"
  },
  {
    "filename": "insidevolt.txt",
    "size": 9607,
    "description": "Bentwaters Soldier Saw Inside Super-Secret Vault, by Michael Lindemann (1995)"
  },
  {
    "filename": "intro.ufo",
    "size": 14033,
    "description": "Introduction to some UFO-Related Book"
  },
  {
    "filename": "intruderrev.ufo",
    "size": 3224,
    "description": "A Review of the book \"Intruders\" by Budd Hopkins"
  },
  {
    "filename": "inv_edge.txt",
    "size": 70879,
    "description": "The Investigator's Edge: The Mututal UFO Network Newsletter (August 28, 1989)"
  },
  {
    "filename": "ipu.ufo",
    "size": 3456,
    "description": "Response to Request for Information about the Interplanetary Phenomenon Unit"
  },
  {
    "filename": "jalconf.ufo",
    "size": 2894,
    "description": "Japanese Flyers Sight UFOs"
  },
  {
    "filename": "jinns.txt",
    "size": 23587,
    "description": "A Brief Account of the True Nature of the UFO Entities by Gordon Creighton"
  },
  {
    "filename": "jmp.ufo",
    "size": 16186,
    "description": "Letter to Ronald Reagan from the JMP (Justice for Military Personnel) about CIA UFO Coverups"
  },
  {
    "filename": "jslearrep.ufo",
    "size": 13081,
    "description": "Extraterrestrial Biological Entities (EBEs) and Their Relationship to Human Beings on Earth: An Explanatory Hypothesis"
  },
  {
    "filename": "jungsufo.ufo",
    "size": 17294,
    "description": "Summary of Concepts from the book \"Flying Saucers, A Modern Myth of Things Seen in the Sky\" by C.G. Jung"
  },
  {
    "filename": "jwhite.ufo",
    "size": 21111,
    "description": "Aliens Among Us: A UFO Conspiracy Hypothesis in a Religious Mode, by John White"
  },
  {
    "filename": "keck.ufo",
    "size": 8139,
    "description": "The Kecksburg Crash Controversial, by Kim Opatka, Pensylvania Bulletin (UFO)"
  },
  {
    "filename": "kfyi.ufo",
    "size": 27026,
    "description": "Transcript: The Earl Baldwin Show, Wednesday Aug. 18, 1988, with Richard Hall and Jim Speiser"
  },
  {
    "filename": "kirtlnd2doc.ufo",
    "size": 3389,
    "description": "FOIA Files: Kirkland Air Force Base, Possible Hostile Intelligence Intercept Incident, Frequency Jamming"
  },
  {
    "filename": "klasdoty.ufo",
    "size": 25957,
    "description": "Interview with Klass and R. Doty"
  },
  {
    "filename": "klasdotyint.ufo",
    "size": 5617,
    "description": "Richard (Rick) Doty: Telephone Interview: Jan 8th, 1988"
  },
  {
    "filename": "klassamc.ufo",
    "size": 2048,
    "description": "Criticism of Mr. Klass and his Spelling by Jim Speiser"
  },
  {
    "filename": "klassasu.ufo",
    "size": 9970,
    "description": "News and Comment: Klass at Arizona State University"
  },
  {
    "filename": "klyanec1.asc",
    "size": 12096,
    "description": "Two interesting stories about Keely from personal anecdotes told by Dale Pond, Dan Davidson and Victor Hansen"
  },
  {
    "filename": "krill1.txt",
    "size": 30848,
    "description": "A Situation Report on our Acquisition of Advanced Technology and Interaction with Alien Cultures by O.H. Krill (January, 1988)"
  },
  {
    "filename": "krill1.ufo",
    "size": 30747,
    "description": "A Situation Report on Our Acquisition on Our Acquisition of Advanced Technology and Interaction with Alien Cultures by O.H. Krill (January 1988)"
  },
  {
    "filename": "krill2.ufo",
    "size": 17081,
    "description": "A Situation Report on Our Acquisition on Our Acquisition of Advanced Technology and Interaction with Alien Cultures by O.H. Krill (Part II)"
  },
  {
    "filename": "krill3.ufo",
    "size": 37245,
    "description": "A Situation Report on Our Acquisition on Our Acquisition of Advanced Technology and Interaction with Alien Cultures by O.H. Krill (Part III)"
  },
  {
    "filename": "krill4.ufo",
    "size": 43448,
    "description": "A Situation Report on Our Acquisition on Our Acquisition of Advanced Technology and Interaction with Alien Cultures by O.H. Krill (Part IV)"
  },
  {
    "filename": "krills01.txt",
    "size": 30780,
    "description": "A Situation Report on Our Acquisition of Advanced Technology and Interaction with Alien Cultures (Part I) by O.H. Krill, January 1988"
  },
  {
    "filename": "krills02.txt",
    "size": 17113,
    "description": "A Situation Report on Our Acquisition of Advanced Technology and Interaction with Alien Cultures (Part II)"
  },
  {
    "filename": "krills03.txt",
    "size": 37277,
    "description": "A Situation Report on Our Acquisition of Advanced Technology and Interaction with Alien Cultures (Part III)"
  },
  {
    "filename": "krills04.txt",
    "size": 43480,
    "description": "A Situation Report on Our Acquisition of Advanced Technology and Interaction with Alien Cultures (Part IV)"
  },
  {
    "filename": "krllorig.ufo",
    "size": 3455,
    "description": "The Origin of the KRILL Papers, and the Meaning of Them"
  },
  {
    "filename": "langres.ufo",
    "size": 3494,
    "description": "Anger at the Lear Text"
  },
  {
    "filename": "lawyer.ufo",
    "size": 2939,
    "description": "Request for a Lawyer asking for the Photographs Back"
  },
  {
    "filename": "lear-new.1",
    "size": 10762,
    "description": "Interplanetary Business Deals by John Lear (November 20, 1991)"
  },
  {
    "filename": "lear1.txt",
    "size": 26368,
    "description": "The Infamous John Lear Text (December 29, 1987)"
  },
  {
    "filename": "lear2.txt",
    "size": 6272,
    "description": "Initial Responses to the Lear Text"
  },
  {
    "filename": "lear3.txt",
    "size": 12288,
    "description": "Interview with John Lear (February 2, 1988)"
  },
  {
    "filename": "leinterv.ufo",
    "size": 22709,
    "description": "Interview with witnesses to the Westlake UFO, 1988"
  },
  {
    "filename": "letdix.ufo",
    "size": 3093,
    "description": "Air Force Witness to an Alien"
  },
  {
    "filename": "light.ufo",
    "size": 9192,
    "description": "Discussion of the UFO Coverup TV Show Special"
  },
  {
    "filename": "lightsthd.ufo",
    "size": 16253,
    "description": "UFO Message base, around November of 1987"
  },
  {
    "filename": "longisle.ufo",
    "size": 5758,
    "description": "Conference at the MacArthur Holiday Inn Long Island, New York"
  },
  {
    "filename": "lyears.ufo",
    "size": 2939,
    "description": "Review of book \"Light Years\" by Gary Kinder"
  },
  {
    "filename": "marge.ufo",
    "size": 3398,
    "description": "A Funny Thing Happened on the Way to the Doldrums by Marge Christenson"
  },
  {
    "filename": "mars.ufo",
    "size": 3617,
    "description": "Mars Mania, an AP Newswire story from Feb. 13, 1988"
  },
  {
    "filename": "marsface.ufo",
    "size": 2690,
    "description": "\"Some See Glimpse of Life in \"Face\" of Mars\", AP Newswire, July 8, 1988"
  },
  {
    "filename": "marslifeasc.ufo",
    "size": 2453,
    "description": "Mars Experts Gather to Debate the Question \"Are We Alone?\""
  },
  {
    "filename": "marsmsg.ufo",
    "size": 3614,
    "description": "Jerry Lewis talks about the Mars Face"
  },
  {
    "filename": "marsobver.ufo",
    "size": 5765,
    "description": "RCA Astro Recieves Contract for Mars Observer"
  },
  {
    "filename": "marsthd.ufo",
    "size": 5778,
    "description": "Jerry Lewis Writes back to Jim Speiser"
  },
  {
    "filename": "matrix.ufo",
    "size": 27112,
    "description": "The Matrix: Understanding Aspects of Covert Interaction with Alien Culture, Technology, and Planetary Power Structures"
  },
  {
    "filename": "meier.ufo",
    "size": 5601,
    "description": "How to Debunk Just About Anyhing: An Easy List"
  },
  {
    "filename": "meirflm.ufo",
    "size": 8184,
    "description": "Review of Meier Films"
  },
  {
    "filename": "memetwin.ufo",
    "size": 809,
    "description": "A Memo to General Twining about the NSC/MJ-12 Special Studies Project, July 14, 1954"
  },
  {
    "filename": "mibmaine.asc",
    "size": 3579,
    "description": "A Men In Black Experience from 1976"
  },
  {
    "filename": "mibs-hst.txt",
    "size": 24320,
    "description": "A History of Men in Black"
  },
  {
    "filename": "mibunix.msg",
    "size": 10116,
    "description": "Countermeasures for Men in Black Encounters"
  },
  {
    "filename": "micro.txt",
    "size": 7483,
    "description": "Microwaves and Vehicle Interference by New Jersey MUFON"
  },
  {
    "filename": "midwest.ufo",
    "size": 4673,
    "description": "Strange Lights Reported in the Midwest, by the Associated Press, Dec. 18, 1987"
  },
  {
    "filename": "mindcan.txt",
    "size": 187996,
    "description": "The Controllers: A New Hypothesis of Alien Abduction by Martin Cannon"
  },
  {
    "filename": "mj.12",
    "size": 34560,
    "description": "The Secret Government: The Origin, Identity, and Purpose of MJ-12 by Milton William Cooper (May 23, 1989)"
  },
  {
    "filename": "mj12euro.txt",
    "size": 11111,
    "description": "MJ-12: The European Connections (November 2, 1989)"
  },
  {
    "filename": "mj12ss.txt",
    "size": 9237,
    "description": "MJ-12: Another Exclusive \"Smear\" Report"
  },
  {
    "filename": "mogul.txt",
    "size": 81327,
    "description": "The GAO Memorandum on UFOs (September 8, 1994)"
  },
  {
    "filename": "moon1.txt",
    "size": 19740,
    "description": "Interpretation of Anomalous Structures on the Moon (May 1994)"
  },
  {
    "filename": "moonbase.txt",
    "size": 27648,
    "description": "Strategies for a Permanent Lunar Base"
  },
  {
    "filename": "moondome.asc",
    "size": 11125,
    "description": "Can Moon Illusions Move? By Felix A. Bach"
  },
  {
    "filename": "moondust.ufo",
    "size": 12776,
    "description": "Project Moon Dust, from Just Cause Issue #8"
  },
  {
    "filename": "moonmars.ufo",
    "size": 36219,
    "description": "Mars Colonization by 2027 A.D. By Lyndon M. LaRouche"
  },
  {
    "filename": "moorelet.ufo",
    "size": 8308,
    "description": "A Open Letter from William L. Moore regarding MJ-12"
  },
  {
    "filename": "moorlist.ufo",
    "size": 7140,
    "description": "Review of several UFO Related Books, by William L. Moore"
  },
  {
    "filename": "moseleylet.ufo",
    "size": 2524,
    "description": "Letter to Jim Moseley from Dr. Willy Smith of the UNICAT Project"
  },
  {
    "filename": "mountie.ufo",
    "size": 3968,
    "description": "Mountie UFO Witness Silenced, 1976"
  },
  {
    "filename": "mt2.txt",
    "size": 22444,
    "description": "The Most Terrible ETs Part II: Searching for the Truth"
  },
  {
    "filename": "mtncirc.txt",
    "size": 3712,
    "description": "The Circles in the Appalachain Mountains"
  },
  {
    "filename": "mufon87.ufo",
    "size": 9220,
    "description": "Paranormal Issues Discussed at the MUFON Conference, 1987"
  },
  {
    "filename": "mufonet",
    "size": 4608,
    "description": "Welcome to MUFONet BBS Network"
  },
  {
    "filename": "mutilate.ufo",
    "size": 2895,
    "description": "Idaho Rancher hit with Mutilation of Cattle"
  },
  {
    "filename": "myths.ufo",
    "size": 17733,
    "description": "The Making of a Myth (Anti-Holocaust Tract)"
  },
  {
    "filename": "nasa1.txt",
    "size": 26930,
    "description": "UFONET I Information on NASA and Sightings by Astronauts of UFOs"
  },
  {
    "filename": "nasasecrets.txt",
    "size": 13736,
    "description": "A Collection of NASA Secrets (1994)"
  },
  {
    "filename": "nasaseek.txt",
    "size": 6669,
    "description": "NASA Urged to Seek Out Intelligent Life"
  },
  {
    "filename": "navy.ufo",
    "size": 3998,
    "description": "Unidentified Flying Objects Reported July 23, 1954: Memorandum"
  },
  {
    "filename": "nazi2asc.ufo",
    "size": 16000,
    "description": "UFOs: Alien or Man Made? By Al Pinto [?]"
  },
  {
    "filename": "naziufo.ufo",
    "size": 5344,
    "description": "UFOs and the Occult Reich by Al Pinto (Nazi-UFO Conspiracy Theory) [?]"
  },
  {
    "filename": "naziufo1.txt",
    "size": 15922,
    "description": "UFOs: Alien or Man Made? by Al Pinto [?]"
  },
  {
    "filename": "newufo.ufo",
    "size": 43776,
    "description": "Lecture from Mr. Cooper about UFOs"
  },
  {
    "filename": "ninety1.ufo",
    "size": 8448,
    "description": "November 28, 1990, The East Coast Power Point"
  },
  {
    "filename": "nsa.ufo",
    "size": 10680,
    "description": "Discussion of a NSA Document on UFOs."
  },
  {
    "filename": "oak.txt",
    "size": 7209,
    "description": "UFO Sighting Report (January 28, 1988)"
  },
  {
    "filename": "obina1.txt",
    "size": 14722,
    "description": "Reply to Ben Obina's \"The Last Trumpet\": The Trumpet Blows a Sour Note"
  },
  {
    "filename": "obina2.txt",
    "size": 4835,
    "description": "The Trumpet Blows a Sour Note, Part II"
  },
  {
    "filename": "obina3.txt",
    "size": 24633,
    "description": "Transcription of Discussion with Ben Obina"
  },
  {
    "filename": "obina4.txt",
    "size": 27819,
    "description": "Ben Obina and the \"J\" Alien, Part IV"
  },
  {
    "filename": "ofoncs20.ufo",
    "size": 3664,
    "description": "Mystery of Roswell Hot Topic at UFO Gathering, July, 1990"
  },
  {
    "filename": "ogredoc.ufo",
    "size": 3393,
    "description": "The OGRE has been identified!"
  },
  {
    "filename": "omegaripoff.ufo",
    "size": 14804,
    "description": "Review of the 1989 Omega UFO Conference"
  },
  {
    "filename": "opgovufo.art",
    "size": 3234,
    "description": "It is Time for Congress to Act (About UFOs) by John and Gail Feilke, 1991"
  },
  {
    "filename": "origin.ufo",
    "size": 11902,
    "description": "Questions and Answers Regarding the Earth Origin Theory of UFOs"
  },
  {
    "filename": "ossette.ufo",
    "size": 17920,
    "description": "Speech for Ossette Conference, September 1989"
  },
  {
    "filename": "outlook.ufo",
    "size": 5275,
    "description": "\"The Outlook\" FSR Editorial (Vol.34, No.3, Sept., 1989)"
  },
  {
    "filename": "oxcart.txt",
    "size": 102669,
    "description": "Very Long Set of Articles about the OXCART Project (Secret Aircraft)"
  },
  {
    "filename": "oxcartbh.txt",
    "size": 25490,
    "description": "Rebuttal to OXCART Explanations by Bill Hodges"
  },
  {
    "filename": "parainfo.asc",
    "size": 7355,
    "description": "How to Become a Paranet Affiliate"
  },
  {
    "filename": "paralazar.ufo",
    "size": 299296,
    "description": "Messages, Interviews and Information about John Lazar, Claimed Government UFO Witness, on Paranet (1989-1990)"
  },
  {
    "filename": "paranoia.ufo",
    "size": 10096,
    "description": "International UFO Reporter (IUR) - Jan/Feb/1989 - Editorial: \"Paranoia\""
  },
  {
    "filename": "paulasc.ufo",
    "size": 6086,
    "description": "Paul Faeder discusses the phenomenon of UFOs"
  },
  {
    "filename": "pbbwarn.ufo",
    "size": 12068,
    "description": "WARNING: The new PROJECT BLUE BOOK"
  },
  {
    "filename": "phobos.fs",
    "size": 25333,
    "description": "The Phobos Dynamics Experiment"
  },
  {
    "filename": "phobos2.ufo",
    "size": 6094,
    "description": "\"Soviet Failures Could Hurt Mars Quest\", September, 1989"
  },
  {
    "filename": "photbelt.txt",
    "size": 24732,
    "description": "David M. Cole Flames a Declaration that we're orbiting around the Pleiades"
  },
  {
    "filename": "picnic2doc.ufo",
    "size": 14078,
    "description": "Absolutely perfect paranoid UFO document"
  },
  {
    "filename": "pirireis.txt",
    "size": 10389,
    "description": "Review of the book \"Flying Saucers - Top Secret\" by Major Donald Keyhoe"
  },
  {
    "filename": "pittspbb.ufo",
    "size": 5412,
    "description": "Bill Pitts responds to PARANET About the New Project Blue Book"
  },
  {
    "filename": "planes.ufo",
    "size": 2880,
    "description": "Discovery of Missing Plane from 1945 in Key West, Florida"
  },
  {
    "filename": "portucatasc.ufo",
    "size": 97769,
    "description": "PORTUCAT: Catalog of Reports Based on the Observation of Possible UFOs"
  },
  {
    "filename": "precip1.txt",
    "size": 4587,
    "description": "Electrostatic Precipitators"
  },
  {
    "filename": "presrel.ufo",
    "size": 2556,
    "description": "Excerpts where the President mentions being invaded by UFOs"
  },
  {
    "filename": "projbet.ufo",
    "size": 18707,
    "description": "Related Information from Fenwick International Offered as a Preamble to Project Beta"
  },
  {
    "filename": "psiufo.ufo",
    "size": 12032,
    "description": "Excerpts from the Journals of a Gentleman who Channels UFOs"
  },
  {
    "filename": "qatar.ufo",
    "size": 505,
    "description": "UFO Reported over Persian Gulf Country (Feb 9th, 1988)"
  },
  {
    "filename": "radiatn1.txt",
    "size": 11469,
    "description": "UFO Radiation Exposure Levels"
  },
  {
    "filename": "readme.1st",
    "size": 5388,
    "description": "An Invitation to FidoNet Sysops to Join UFONET by Tom Mickus (January, 1990)"
  },
  {
    "filename": "reganufo.ufo",
    "size": 9709,
    "description": "The Smoking Truth: Ronald Reagan's Obsession with an Alien Invasion, by A. Movni"
  },
  {
    "filename": "report.ufo",
    "size": 17121,
    "description": "UFOs: They Do Exist By S. McElheney"
  },
  {
    "filename": "reptoi.txt",
    "size": 4994,
    "description": "The Pasturing and Use of Homo Sapiens by TAL Levesque"
  },
  {
    "filename": "reptoids.ufo",
    "size": 4996,
    "description": "The Pasturing and Use of Homo Sapiens, by TAL Levesque"
  },
  {
    "filename": "rorvik.ufo",
    "size": 13052,
    "description": "As Man Becomes Machine"
  },
  {
    "filename": "ruminate.ufo",
    "size": 6266,
    "description": "Brad Langton on the State of the Paranormal Community"
  },
  {
    "filename": "sarb1.ufo",
    "size": 3072,
    "description": "Letter to the Editor Flying Saucer Review Vol. 31 #5 (July 1976)"
  },
  {
    "filename": "sarbint.ufo",
    "size": 32645,
    "description": "Unedited Transcript of a Cassette Tape Interview with Stanton Friedman and Dr. Sarbacher"
  },
  {
    "filename": "saucers.txt",
    "size": 5248,
    "description": "Flying Saucers: A Patented Look into a Real Phenomenon"
  },
  {
    "filename": "sdi_ufos.ufo",
    "size": 2480,
    "description": "Several Theories about the Strategic Defense Initiative"
  },
  {
    "filename": "sea.sighting",
    "size": 5052,
    "description": "Some Thoughts on UFO Witnesses in the Armed Forces"
  },
  {
    "filename": "searchinasc.ufo",
    "size": 3268,
    "description": "ET Search Begins from Southern Hemisphere, UPI"
  },
  {
    "filename": "secretfr.txt",
    "size": 23166,
    "description": "Some Secret Government Radio Frequencies"
  },
  {
    "filename": "secretgov.ufo",
    "size": 77090,
    "description": "The Secret Government: The Origin, Identity, and Purpose of MJ-12, by Milton William Cooper"
  },
  {
    "filename": "seti",
    "size": 8494,
    "description": "The Search for Extraterrestrial Intelligence (SETI)"
  },
  {
    "filename": "seti.txt",
    "size": 8646,
    "description": "Information about the Search for Extraterrestrial Intelligence (SETI) (June 7, 1991)"
  },
  {
    "filename": "seti.ufo",
    "size": 8660,
    "description": "The Search for Extraterrestrial Intelligence (SETI)"
  },
  {
    "filename": "setilaw.ufo",
    "size": 5115,
    "description": "What Should Astronauts do if they detect what might be a message from Outer Space?"
  },
  {
    "filename": "sfemeier.ufo",
    "size": 11773,
    "description": "Farmer's Tales of Space Travel Won't Fly With Many UFO Buffs, by Keay Davidson"
  },
  {
    "filename": "shirl.ufo",
    "size": 10030,
    "description": "UFO: Investigators Suspect National Security Pinch, by Judith Karns, Observer Managing Editor, April 24, 1988"
  },
  {
    "filename": "showme.ufo",
    "size": 6074,
    "description": "The No-Show \"Show Me\" Conference"
  },
  {
    "filename": "shuttle_conspiracy.txt",
    "size": 48008,
    "description": "The Shuttle Conspiracy by Dr. Beter"
  },
  {
    "filename": "situat.report",
    "size": 126191,
    "description": "A Situation Report on our Acquisition of Advanced Technology and Interaction with Alien Cultures, by O.H. Krill (January, 1988)"
  },
  {
    "filename": "sixcautasc.ufo",
    "size": 6629,
    "description": "6 Soldiers Arrive to Kill Antichrist: Gannett, July 19, 1990"
  },
  {
    "filename": "sixty1moths.ufo",
    "size": 5588,
    "description": "A Revival of the 61-Month Wave Theory, by Donald A. Johnson, Ph. D"
  },
  {
    "filename": "smith3let.ufo",
    "size": 1861,
    "description": "Letter to Dr. Bruce Maccabee from Dr. Willy Smith, 1989"
  },
  {
    "filename": "smith4let.ufo",
    "size": 3018,
    "description": "Open Letter to Jerry Clark, from Dr. Willy Smith"
  },
  {
    "filename": "snobs.ufo",
    "size": 7455,
    "description": "Paranet Editorial: The Snobs Among Us, by Jim Speiser"
  },
  {
    "filename": "sotsiali.txt",
    "size": 23690,
    "description": "CUFON: Letter released by the United States Air Force on UFOs (March 14, 1994)"
  },
  {
    "filename": "soviet1.ufo",
    "size": 10549,
    "description": "UFOs and Security, by Alexander Kuzovkin and Alexsandr Semyonov"
  },
  {
    "filename": "spacecon.txt",
    "size": 73938,
    "description": "Information Concerning the US Government's Cover-Up of Alien Activity on Earth, by Milton William Cooper"
  },
  {
    "filename": "spacesos",
    "size": 2406,
    "description": "Starship's SOS Stuns Scientists"
  },
  {
    "filename": "spacinv.ufo",
    "size": 2725,
    "description": "President Reagan and the Space Invaders, AP Newswire, 1988"
  },
  {
    "filename": "speaket.txt",
    "size": 68719,
    "description": "The Evidence of Human Contact with Pleiadians"
  },
  {
    "filename": "spook.ufo",
    "size": 11264,
    "description": "A Dialogue with a Former Member of the Intelligence Community"
  },
  {
    "filename": "sputnik1.ufo",
    "size": 17476,
    "description": "Sputnik: Time to Study the Facts, by Mark Milchiker"
  },
  {
    "filename": "stars.ufo",
    "size": 3643,
    "description": "The 46 Stars Nearest to Our Sun"
  },
  {
    "filename": "stateposa07.ufo",
    "size": 3064,
    "description": "Dr. Willy Smith's Statement of Position on the Gulf Breeze Photographs, Aug. 7, 1989"
  },
  {
    "filename": "stealth.ufo",
    "size": 3218,
    "description": "Stealth Fighter goes Missing, October 16, 1987"
  },
  {
    "filename": "stealthd.ufo",
    "size": 6028,
    "description": "Messages Regarding Stealth Bombers and UFOs, April 1988"
  },
  {
    "filename": "steinman.ufo",
    "size": 3962,
    "description": "Statments about UFOs and Religion from Dr. William M. Steinman"
  },
  {
    "filename": "steinrep.ufo",
    "size": 8842,
    "description": "Comments on Mr. Steinman's Absurd Statements on the Subject of Flying Saucers being the Work of One of his Gods"
  },
  {
    "filename": "stflet1.ufo",
    "size": 3470,
    "description": "Article to Dr. William Steinman from Stanton T. Friedman"
  },
  {
    "filename": "swamp_61.txt",
    "size": 45358,
    "description": "The Swamp Gas Journal Volume 6 Number 2 (June 1992)"
  },
  {
    "filename": "swamp_62.txt",
    "size": 45712,
    "description": "The Swamp Gas Journal Volume 6 Number 3 (November 1992)"
  },
  {
    "filename": "swamp_6n.txt",
    "size": 27832,
    "description": "The Swamp Gas Journal Volume 6, Number 1 (January 1992)"
  },
  {
    "filename": "swampgas.ufo",
    "size": 10223,
    "description": "Lab Results of 1966 \"Swamp Gas\" Case"
  },
  {
    "filename": "swampsi2.txt",
    "size": 33086,
    "description": "The Swamp Gas Journal Special Issue #2 \"A Looney a Look\" (December 1992)"
  },
  {
    "filename": "swan1asc.ufo",
    "size": 2944,
    "description": "Swan Company Reporting about seeing UFOs"
  },
  {
    "filename": "thisisit.ufo",
    "size": 13646,
    "description": "Overview of Every Secret UFO Operation the Government Took After World War II"
  },
  {
    "filename": "tidbitsss.ufo",
    "size": 1197,
    "description": "Tid-Bits of Trash: Criticism of William Steinman"
  },
  {
    "filename": "times.ufo",
    "size": 8661,
    "description": "Urge to Investigate and Believe Sparks New Interest in UFOs, by William J. Broad, New York Times, 1986"
  },
  {
    "filename": "toalldoc.ufo",
    "size": 3169,
    "description": "Contact with John Lear, by Bill Cooper"
  },
  {
    "filename": "toddlet1.ufo",
    "size": 8543,
    "description": "Letter to Grant Cameron by Robert G. Todd regarding Cooper's Writings about MJ-12"
  },
  {
    "filename": "transmit.ufo",
    "size": 10409,
    "description": "Discussions of insertions of Brain Transmitters"
  },
  {
    "filename": "truce.ufo",
    "size": 4713,
    "description": "Science Vs. Spirit: Let's call it a Truce"
  },
  {
    "filename": "ufo-cons",
    "size": 72851,
    "description": "The UFO Conspiracy: Information concerning the U.S. government's cover-up of alien activity on Earth, according to Milton William Cooper"
  },
  {
    "filename": "ufo-cons.txt",
    "size": 72181,
    "description": "The UFO Conspiracy, compiled by David E. Stewart"
  },
  {
    "filename": "ufo-kill.txt",
    "size": 6178,
    "description": "Kill Them All Part I, by Michael Luciano (October 1991)"
  },
  {
    "filename": "ufo.txt",
    "size": 75769,
    "description": "The UFO Conspiracy: Information Concerning the US Government's Cover-Up of Alien Activity on Earth, by Milton William Cooper"
  },
  {
    "filename": "ufo0.dbt",
    "size": 3398,
    "description": "The Great UFO Debate (Introduction)"
  },
  {
    "filename": "ufo1.dbt",
    "size": 5049,
    "description": "UFOlogy: After 40 Years, Still No Respect, by Jim Speiser"
  },
  {
    "filename": "ufo2.dbt",
    "size": 2708,
    "description": "No Longer a Time to Debate! By Ralph Toscano"
  },
  {
    "filename": "ufo3.dbt",
    "size": 4518,
    "description": "Forty Years! By Mr. Howard, the Former Ground Saucer Watch (GSW)"
  },
  {
    "filename": "ufo4.dbt",
    "size": 2475,
    "description": "May 27h, 1987: The Great UFO Debate: Have We Got Anything?"
  },
  {
    "filename": "ufo5.dbt",
    "size": 2486,
    "description": "Dale Ledoux of ParaNet Gamme in Louisiana"
  },
  {
    "filename": "ufo6.dbt",
    "size": 6888,
    "description": "Friar Lucien Kemble on UFOs and UFOlogy"
  },
  {
    "filename": "ufo7.dbt",
    "size": 2768,
    "description": "Mr. Klass: World's Foremost UFO Debunker"
  },
  {
    "filename": "ufo8.dbt",
    "size": 9092,
    "description": "The UFO: Forty Years On, by John D. Aultman"
  },
  {
    "filename": "ufobooks.ufo",
    "size": 32794,
    "description": "A Late-1980's list of UFOlogy books"
  },
  {
    "filename": "ufok1.txt",
    "size": 30746,
    "description": "A Situation Report on Our Acquisition of Advanced Technology and Interaction with Alien Cultures (January 1988) by O.H. Krill"
  },
  {
    "filename": "ufok2.txt",
    "size": 17078,
    "description": "A Situation Report on Our Acquisition of Advanced Technology and Interaction with Alien Cultures (Part II) by O.H. Krill"
  },
  {
    "filename": "ufok3.txt",
    "size": 37192,
    "description": "A Situation Report on Our Acquisition of Advanced Technology and Interaction with Alien Cultures (Part III) by O.H. Krill"
  },
  {
    "filename": "ufok4.txt",
    "size": 43442,
    "description": "A Situation Report on Our Acquisition of Advanced Technology and Interaction with Alien Cultures (Part IV) by O.H. Krill"
  },
  {
    "filename": "ufolet1.ufo",
    "size": 9216,
    "description": "A 1967 Letter about UFOs."
  },
  {
    "filename": "ufopresi.ufo",
    "size": 3003,
    "description": "President Truman inspected a UFO Crash Site! Oh Yeah!"
  },
  {
    "filename": "uforic.ufo",
    "size": 11796,
    "description": "Information File On: U.F.O. Research Institute of Canada (UFORIC)"
  },
  {
    "filename": "ufos.txt",
    "size": 10618,
    "description": "A Talk Given by Milton Cooper on the Subject of UFOs (November 24, 1989)"
  },
  {
    "filename": "ufowatch.ufo",
    "size": 2511,
    "description": "Robert Gribble is on the watch for UFOs."
  },
  {
    "filename": "unex0002.txt",
    "size": 10083,
    "description": "Who Are the Humanoids, from \"The Unexplained #2\""
  },
  {
    "filename": "unex0011.txt",
    "size": 12703,
    "description": "The Fisherman's Tale, from The Unexplained"
  },
  {
    "filename": "unknown.ufo",
    "size": 10846,
    "description": "Various QUotes and Articles from Unknown Sources"
  },
  {
    "filename": "usa-rev1.ufo",
    "size": 8494,
    "description": "Civil War is About to Begin In the united States! Beware the UFOs!"
  },
  {
    "filename": "usafacad.txt",
    "size": 36090,
    "description": "The United States Air Force and UFOlogy"
  },
  {
    "filename": "usafchap.ufo",
    "size": 37463,
    "description": "The Airforce Answers the question \"What is an Unidentified Flying Object (UFO)?\""
  },
  {
    "filename": "various.ufo",
    "size": 42129,
    "description": "The Release of the Cooper Information, and its repurcussions"
  },
  {
    "filename": "vatican.ufo",
    "size": 1520,
    "description": "No, the vatican is NOT training missionaries for space!"
  },
  {
    "filename": "vegasebe.ufo",
    "size": 2763,
    "description": "Vegas EBE Bases Speculation"
  },
  {
    "filename": "vestig.ufo",
    "size": 5990,
    "description": "Comments on the Salisbury Investigation, by Dale Kaczmarek (UFO)"
  },
  {
    "filename": "vicki.ufo",
    "size": 3864,
    "description": "Vicki Cooper of UFO Magazine discusses the Conspiracy"
  },
  {
    "filename": "vigil.ufo",
    "size": 7110,
    "description": "UFO Watchers Scan Rural Skies ... and Wait. By David Bauder, 1988"
  },
  {
    "filename": "walker1.txt",
    "size": 2559,
    "description": "Who's Who Entry for Dr. Eric Arthur"
  },
  {
    "filename": "walker2.txt",
    "size": 8866,
    "description": "Excerpt from Paper \"UFO's MJ-12 and the Government\", regarding Dr. Walker"
  },
  {
    "filename": "walker3.txt",
    "size": 4937,
    "description": "Transcript of Conversation with Dr. Eric Walker"
  },
  {
    "filename": "walker4.txt",
    "size": 8048,
    "description": "Transcript with Eric Walker (August 11, 1989)"
  },
  {
    "filename": "walker5.txt",
    "size": 10243,
    "description": "Article about details of Dr. Eric Walker and his UFO work"
  },
  {
    "filename": "warnings.ufo",
    "size": 1031,
    "description": "Some common-sense rules when dealing with UFOs"
  },
  {
    "filename": "wbsmemo.ufo",
    "size": 12760,
    "description": "Famous Canadian Wilbur B. Smith Memo"
  },
  {
    "filename": "weather.ufo",
    "size": 13762,
    "description": "Information about Mount Weather"
  },
  {
    "filename": "wfletgb.ufo",
    "size": 3111,
    "description": "Letter to the Pensacola Newspaper about the authenticity of a UFO photo"
  },
  {
    "filename": "whatare.ufo",
    "size": 10331,
    "description": "UFOs: Alien, or Man-Made?"
  },
  {
    "filename": "white.ufo",
    "size": 27788,
    "description": "A Response to Speiser's EBE File"
  },
  {
    "filename": "whyww2.ufo",
    "size": 59334,
    "description": "What REALLY started World War II?"
  },
  {
    "filename": "witdbey.ufo",
    "size": 4651,
    "description": "Whidney Island UFO classified as an \"Unknown\", 1988"
  },
  {
    "filename": "wpat.ufo",
    "size": 3789,
    "description": "Wright Patterson AFB : What's Going On There?"
  },
  {
    "filename": "wsslet1.ufo",
    "size": 2811,
    "description": "Letter Tracking down UFO Recovery Team Members"
  },
  {
    "filename": "wsslet2.ufo",
    "size": 2984,
    "description": "Follow up to Letter about UFO Recovery Team Members"
  },
  {
    "filename": "zimufo.txt",
    "size": 1871,
    "description": "Description of the Zimbabwe UFO Sighting"
  }
]
