[
  {
    "filename": "0000",
    "size": null,
    "description": "UFOBBS Messages 0-999"
  },
  {
    "filename": "1000",
    "size": null,
    "description": "UFOBBS Messages 1000-1999"
  },
  {
    "filename": "2000",
    "size": null,
    "description": "UFOBBS Messages 2000-2999"
  },
  {
    "filename": "3000",
    "size": null,
    "description": "UFOBBS Messages 3000-"
  }
]
