[
  {
    "filename": "002.ufo",
    "size": 3417,
    "description": "UFOS A TRUE ACCOUNT-PART 2"
  },
  {
    "filename": "003.ufo",
    "size": 3750,
    "description": "MY EXPERIENCE OF UFOS"
  },
  {
    "filename": "005.ufo",
    "size": 3248,
    "description": "CLOSE ENCOUNTERS"
  },
  {
    "filename": "006.ufo",
    "size": 1216,
    "description": "SIGHTING IN HORNCASTLE"
  },
  {
    "filename": "007.ufo",
    "size": 2490,
    "description": "UFO REPAIR MANUAL"
  },
  {
    "filename": "008.ufo",
    "size": 3247,
    "description": "ALIEN'S ENDORSED PRESIDENT CLINTON"
  },
  {
    "filename": "009.ufo",
    "size": 2647,
    "description": "WARSHIPS SHOT DOWN UFO"
  },
  {
    "filename": "010.ufo",
    "size": 2149,
    "description": "UFOS WERE WIDELY REPORTED IN U.S. NEWSPAPERS"
  },
  {
    "filename": "011.ufo",
    "size": 2070,
    "description": "THEY'RE NOT ALL SILENT!"
  },
  {
    "filename": "012.ufo",
    "size": 3112,
    "description": "A CRASHED UFO"
  },
  {
    "filename": "013.ufo",
    "size": 5834,
    "description": "NAVAL FRIGATE REPORTS UFO"
  },
  {
    "filename": "014.ufo",
    "size": 4231,
    "description": "KECKSBURG CRASH CONTROVERSIAL"
  },
  {
    "filename": "015.ufo",
    "size": 4081,
    "description": "KECKSBURG CRASH CONTROVERSIAL"
  },
  {
    "filename": "016.ufo",
    "size": 2833,
    "description": "ARMY EXPERTS PUZZLED"
  },
  {
    "filename": "018.ufo",
    "size": 1721,
    "description": "A RED TRIANGLE OF LIGHTS"
  },
  {
    "filename": "019.ufo",
    "size": 5875,
    "description": "CREATURE ON ILIKLEY MOOR"
  },
  {
    "filename": "020.ufo",
    "size": 7109,
    "description": "ALIEN MOON BASE"
  },
  {
    "filename": "022.ufo",
    "size": 3274,
    "description": "THE PHOBOS II INCIDENT"
  },
  {
    "filename": "023.ufo",
    "size": 3557,
    "description": "U.S. F16 SHOOTS DOWN UFO OVER SAUDI DESERT"
  },
  {
    "filename": "024.ufo",
    "size": 5505,
    "description": "APOLLO 11 & UFO'S"
  },
  {
    "filename": "025.ufo",
    "size": 1420,
    "description": "DO UFO'S EXIST"
  },
  {
    "filename": "026.ufo",
    "size": 3560,
    "description": "CROP CIRCLES MYSTERY SOLVED..THEY SPELL OUT WORDS!"
  },
  {
    "filename": "027.ufo",
    "size": 1491,
    "description": "RADAR SIGHTINGS"
  },
  {
    "filename": "031.ufo",
    "size": 1151,
    "description": "UFO'S/ALIENS"
  },
  {
    "filename": "032.ufo",
    "size": 2801,
    "description": "EVIDENCE OF ALIEN LIFE FOUND ON MARS."
  },
  {
    "filename": "033.ufo",
    "size": 2693,
    "description": "POLICE CHOPPER ATTACKED BY UFO IN KENTUCKY!"
  },
  {
    "filename": "034.ufo",
    "size": 2517,
    "description": "NEIGHBORHOOD'S GARAGE DOORS COME TO LIFE!"
  },
  {
    "filename": "035.ufo",
    "size": 645,
    "description": "LARGE UFO IN CHICHESTER AREA"
  },
  {
    "filename": "036.ufo",
    "size": 2413,
    "description": "Aurora Flies in Scotland"
  },
  {
    "filename": "037.ufo",
    "size": 5958,
    "description": "ARE THERE CRASHED UFO\"S?"
  },
  {
    "filename": "039.ufo",
    "size": 8766,
    "description": "THE SEARCH FOR EXTRATERRESTRIAL INTELLIGENCE"
  },
  {
    "filename": "040.ufo",
    "size": 2910,
    "description": "APOLLO PROGRAM UFO SIGHTING FROM THE 1960'S COMES TO LIGHT"
  },
  {
    "filename": "041.ufo",
    "size": 2757,
    "description": "UFO CRASH - AFB MEDICAL TEST ON ALIEN'S"
  },
  {
    "filename": "042.ufo",
    "size": 1025,
    "description": "SMALL GREEN CREATURE ON ILKLY MOOR"
  },
  {
    "filename": "043.ufo",
    "size": 3648,
    "description": "UFO's and the Shuttle"
  },
  {
    "filename": "044.ufo",
    "size": 5236,
    "description": "UFO's and the SHUTTLE"
  },
  {
    "filename": "045.ufo",
    "size": 3864,
    "description": "UFO's and the Shuttle"
  },
  {
    "filename": "046.ufo",
    "size": 4822,
    "description": "UFO's and the Shuttle"
  },
  {
    "filename": "049.ufo",
    "size": 2677,
    "description": "REPORT OF A UFO IN THE UK"
  },
  {
    "filename": "050.ufo",
    "size": 2394,
    "description": "Moon Sightings"
  },
  {
    "filename": "051.ufo",
    "size": 3026,
    "description": "MOON SIGHTINGS"
  },
  {
    "filename": "052.ufo",
    "size": 2721,
    "description": "MOON SIGHTINGS"
  },
  {
    "filename": "053.ufo",
    "size": 4823,
    "description": "MACH 8 AIRCRAFT"
  },
  {
    "filename": "054.ufo",
    "size": 4422,
    "description": "MACH 8 AIRCRAFT"
  },
  {
    "filename": "055.ufo",
    "size": 3309,
    "description": "UFOTXT"
  },
  {
    "filename": "059.ufo",
    "size": 3642,
    "description": "CLOSE ENCOUNTER"
  },
  {
    "filename": "060.ufo",
    "size": 2738,
    "description": "BORN WITH MAP"
  },
  {
    "filename": "061.ufo",
    "size": 3050,
    "description": "U-BOAT"
  },
  {
    "filename": "062.ufo",
    "size": 3942,
    "description": "MONSTER IN LAKE MICHIGAN"
  },
  {
    "filename": "063.ufo",
    "size": 2441,
    "description": "SPACE ALIENS HELPED MOSES PART RED SEA"
  },
  {
    "filename": "064.ufo",
    "size": 2910,
    "description": "DEVIL'S TRIANGLE"
  },
  {
    "filename": "065.ufo",
    "size": 4241,
    "description": "TIGHT LID ON TRAIN STORY"
  },
  {
    "filename": "066.ufo",
    "size": 2491,
    "description": "SPACE EGG"
  },
  {
    "filename": "067.ufo",
    "size": 2772,
    "description": "EVIDENCE OF AN ALIEN CIVLIATION"
  },
  {
    "filename": "068.ufo",
    "size": 2047,
    "description": "EARTH IS SPINNING OUT OF ORBIT!"
  },
  {
    "filename": "069.ufo",
    "size": 2964,
    "description": "EXTRATERRESTRIAL INSECTS AT UFO LANDING SITE"
  },
  {
    "filename": "070.ufo",
    "size": 3963,
    "description": "ALIENS IN ADELAIDE"
  },
  {
    "filename": "071.ufo",
    "size": 3922,
    "description": "FARMER'S TALES OF SPACE TRAVEL"
  },
  {
    "filename": "072.ufo",
    "size": 4352,
    "description": "FARMER'S TALES OF SPACE TRAVEL"
  },
  {
    "filename": "073.ufo",
    "size": 3837,
    "description": "FARMER'S TALES OF SPACE TRAVEL"
  },
  {
    "filename": "074.ufo",
    "size": 5960,
    "description": "THE ILKLEY MOOR ALIEN ABDUCTION"
  },
  {
    "filename": "075.ufo",
    "size": 10092,
    "description": "THE ILKLEY MOOR ALIEN ABDUCTION"
  },
  {
    "filename": "076.ufo",
    "size": 3499,
    "description": "UFO SOURCE INFO - CANADIAN GOVT ARCHIVES"
  },
  {
    "filename": "078.ufo",
    "size": 2102,
    "description": "NEED A GOOD LECTURE ON UFO'S"
  },
  {
    "filename": "079.ufo",
    "size": 2835,
    "description": "AURORA NEW US SPY PLANE"
  },
  {
    "filename": "080.ufo",
    "size": 1013,
    "description": "BOX-SHAPED UFO'S"
  },
  {
    "filename": "081.ufo",
    "size": 3139,
    "description": "Aurora ??"
  },
  {
    "filename": "082.ufo",
    "size": 3968,
    "description": "Aurora Mach 8"
  },
  {
    "filename": "083.ufo",
    "size": 2830,
    "description": "ANTIGRAVITY"
  },
  {
    "filename": "084.ufo",
    "size": 3755,
    "description": "ANTIGRAVITY"
  },
  {
    "filename": "086.ufo",
    "size": 3290,
    "description": "Sighting at Air Show UK"
  },
  {
    "filename": "088.ufo",
    "size": 5537,
    "description": "UFO'S AND OUR GOVERNMENT'S CONCEALMENT"
  },
  {
    "filename": "089.ufo",
    "size": 5082,
    "description": "UFO'S AND OUR GOVERNMENT'S CONCEALMENT"
  },
  {
    "filename": "090.ufo",
    "size": 5069,
    "description": "UFO'S AND OUR GOVERNMENT'S CONCEALMENT"
  },
  {
    "filename": "091.ufo",
    "size": 4509,
    "description": "UFO'S AND OUR GOVERNMENT'S CONCEALMENT"
  },
  {
    "filename": "092.ufo",
    "size": 5117,
    "description": "UFO'S AND OUR GOVERNMENT'S CONCEALMENT"
  },
  {
    "filename": "093.ufo",
    "size": 4572,
    "description": "UFO'S AND OUR GOVERNMENT'S CONCEALMENT"
  },
  {
    "filename": "094.ufo",
    "size": 3802,
    "description": "UFO'S AND OUR GOVERNMENT'S CONCEALMENT"
  },
  {
    "filename": "095.ufo",
    "size": 5631,
    "description": "UFO'S AND OUR GOVERNMENT'S CONCEALMENT"
  },
  {
    "filename": "096.ufo",
    "size": 4513,
    "description": "UFO'S AND OUR GOVERNMENT'S CONCEALMENT"
  },
  {
    "filename": "097.ufo",
    "size": 4811,
    "description": "UFO'S AND OUR GOVERNMENT'S CONCEALMENT"
  },
  {
    "filename": "098.ufo",
    "size": 4677,
    "description": "UFO'S AND OUR GOVERNMENT'S CONCEALMENT"
  },
  {
    "filename": "099.ufo",
    "size": 4436,
    "description": "UFO'S AND OUR GOVERNMENT'S CONCEALMENT"
  },
  {
    "filename": "100.ufo",
    "size": 1632,
    "description": "UFO'S AND OUR GOVERNMENT'S CONCEALMENT"
  },
  {
    "filename": "101.ufo",
    "size": 16372,
    "description": "WHAT'S REALLY GOING ON?"
  },
  {
    "filename": "102.ufo",
    "size": 4330,
    "description": "UFO INDUCED ALLERGY"
  },
  {
    "filename": "103.ufo",
    "size": 2645,
    "description": "UFO INDUCED ALLERGY"
  },
  {
    "filename": "104.ufo",
    "size": 3830,
    "description": "UFO Spotted over SW England"
  },
  {
    "filename": "105.ufo",
    "size": 2674,
    "description": "Roswell Testimony"
  },
  {
    "filename": "106.ufo",
    "size": 5004,
    "description": "Roswell Testimony"
  },
  {
    "filename": "108.ufo",
    "size": 3540,
    "description": "Roswell Testimony"
  },
  {
    "filename": "109.ufo",
    "size": 3735,
    "description": "Roswell Testimony"
  },
  {
    "filename": "111.ufo",
    "size": 2410,
    "description": "Roswell Testimony"
  },
  {
    "filename": "112.ufo",
    "size": 4771,
    "description": "Roswell Testimony"
  },
  {
    "filename": "113.ufo",
    "size": 3278,
    "description": "Roswell Testimony"
  },
  {
    "filename": "114.ufo",
    "size": 4700,
    "description": "Roswell Testimony"
  },
  {
    "filename": "115.ufo",
    "size": 3268,
    "description": "Roswell Testimony"
  },
  {
    "filename": "116.ufo",
    "size": 3754,
    "description": "Roswell Testimony"
  },
  {
    "filename": "117.ufo",
    "size": 3641,
    "description": "Roswell Testimony"
  },
  {
    "filename": "118.ufo",
    "size": 2619,
    "description": "Roswell Testimony"
  },
  {
    "filename": "119.ufo",
    "size": 3515,
    "description": "Roswell Testimony"
  },
  {
    "filename": "120.ufo",
    "size": 2620,
    "description": "Roswell Testimony"
  },
  {
    "filename": "121.ufo",
    "size": 2439,
    "description": "Roswell Testimony"
  },
  {
    "filename": "122.ufo",
    "size": 5252,
    "description": "THE FARMER AND THE COSMONAUTS"
  },
  {
    "filename": "123.ufo",
    "size": 5266,
    "description": "THE FARMER AND THE COSMONAUTS"
  },
  {
    "filename": "124.ufo",
    "size": 4227,
    "description": "THE FARMER AND THE COSMONAUTS"
  },
  {
    "filename": "125.ufo",
    "size": 4759,
    "description": "THE FARMER AND THE COSMONAUTS"
  },
  {
    "filename": "126.ufo",
    "size": 5679,
    "description": "THE FARMER AND THE COSMONAUTS"
  },
  {
    "filename": "127.ufo",
    "size": 8373,
    "description": "KECKSBURG CRASH CONTROVERSIAL"
  },
  {
    "filename": "128.ufo",
    "size": 3028,
    "description": "CALL FOR EFFORT IN NEW SCIENCE OF UFO RESEARCH"
  },
  {
    "filename": "129.ufo",
    "size": 3005,
    "description": "Aurora High Speed Aircraft"
  },
  {
    "filename": "130.ufo",
    "size": 22326,
    "description": "NEW DEVELOPMENTS"
  },
  {
    "filename": "131.ufo",
    "size": 2372,
    "description": "ALIENS CALL OFF INVASION OF EARTH!"
  },
  {
    "filename": "132.ufo",
    "size": 2443,
    "description": "UFO'S AND THE NEW'S MEDIA"
  },
  {
    "filename": "133.ufo",
    "size": 3415,
    "description": "Calling for Congressional Investigations into UFOs!"
  },
  {
    "filename": "134.ufo",
    "size": 2429,
    "description": "BECAUSE OF NEW EVIDENCE"
  },
  {
    "filename": "135.ufo",
    "size": 4058,
    "description": "UfO Cover-Up ?"
  },
  {
    "filename": "136.ufo",
    "size": 4188,
    "description": "UFO Cover-Up ?"
  },
  {
    "filename": "137.ufo",
    "size": 3487,
    "description": "UFO Cover-Up ?"
  },
  {
    "filename": "138.ufo",
    "size": 4585,
    "description": "UFO Cover-Up Live Transcript"
  },
  {
    "filename": "139.ufo",
    "size": 3869,
    "description": "UFO Cover-Up Live Transcript"
  },
  {
    "filename": "140.ufo",
    "size": 4142,
    "description": "UFO Cover-Up Live Transcript"
  },
  {
    "filename": "141.ufo",
    "size": 3529,
    "description": "UFO Cover-Up Live Transcript"
  },
  {
    "filename": "142.ufo",
    "size": 3669,
    "description": "UNEXPLAINED CASES FROM THE BLUE BOOK"
  },
  {
    "filename": "143.ufo",
    "size": 4261,
    "description": "UNEXPLAINED CASES FROM BLUE BOOK"
  }
]
